﻿{
    "name": "AzureSqlTableLocation",
    "properties": 
   {
        "published": false,
        "type": "AzureSqlTable",
        "linkedServiceName": "AzureSqlLinkedService",
        "typeProperties": {
            "tableName": "ProgramSavings"
        		},
        "availability": {
            "frequency": "Month",
            "interval": 1
        		}
    }
}
