﻿{
    "name": "AzureMLBatchExecutionActivity",
    "properties": {
        "description": "runs AclAceProgramSavingsHER experiment webservice ",
        "activities": [
            {
                "type": "AzureMLBatchExecution",
                "typeProperties": {
                    "webServiceOutputs": { },
                    "globalParameters": {
                        "Database query": "EXEC [dbo].[getProgramParticipantBillingUsageData] @clientID = 224,@program = N'btd2016elec', @ProgramStartDate = '2016-11-01', @weatherstationid = '94702',@BillDataStartDate = '2015-11-01', @BillDataEndDate = null , @commodityType = 1",
                        "Data": "2016-11-01"
                    }
                },
                "outputs": [
                    {
                        "name": "AzureSqlTableLocation"
                    }
                ],
                "policy": {
                    "timeout": "01:00:00",
                    "concurrency": 1,
                    "retry": 3
                },
                "scheduler": {
                    "frequency": "Month",
                    "interval": 1
                },
                "name": "AzureMLExecutionActivity",
                "linkedServiceName": "AzureMLLinkedService"
            }
        ],
        "start": "2016-12-01T00:00:00Z",
        "end": "2017-01-01T00:00:00Z",
        //"end": "2017-12-01T00:00:00Z", // for btd - program ends 10/24/2017
        //"end": "2017-11-01T00:00:00Z", // for her2016elec - program ends 9/14/2017
         //"end": "2017-7-01T00:00:00Z", // for her2016gas - program ends 5/16/2017
        "isPaused": false,
        "pipelineMode": "Scheduled"
    }
}