{
  "name": "AzureBlobStorage",
  "properties": {
    "type": "AzureStorage",
    "typeProperties": {
      "connectionString": "DefaultEndpointsProtocol=https;AccountName=cedevcloudfiledrop;AccountKey=**********"
    }
  },
  "$schema": "http://datafactories.schema.management.azure.com/internalschemas/2015-08-01/Microsoft.DataFactory.linkedservice.json"
}