﻿{
    "name": "SQLgetProgramMetricEvents_Input",
    "properties": {
        "structure": [
            {
                "name": "SubscriptionStatus",
                "type": "String"
            }
        ],
        "published": false,
        "type": "AzureSqlTable",
        "linkedServiceName": "AzureSQLInsightsDW",
        "typeProperties": {
            "tableName": "rpt.ProgramMetricsEvents"
        },
        "availability": {
            "frequency": "Day",
            "interval": 1
        },
        "external": true,
        "policy": {}
    }
}