{
  "name": "BillBenchmarkGroupResults",
  "properties": {
    "published": false,
    "type": "AzureDataLakeStore",
    "linkedServiceName": "AzureDataLakeStoreLinkedService",
    "typeProperties": {
      "folderPath": "Results/BillBenchmarkGroupResultsOUT.csv"
    },
    "availability": {
      "frequency": "Day",
      "interval": 1
    }
  },
  "$schema": "http://datafactories.schema.management.azure.com/schemas/2015-08-01/Microsoft.DataFactory.Table.json"
}