{
  "name": "Copy Results from Data Lake To AO",
  "properties": {
    "description": "Copy Results from Data Lake To AO",
    "activities": [
      {
        "type": "Copy",
        "typeProperties": {
          "source": {
            "type": "AzureDataLakeStoreSource"
          },
          "sink": {
            "type": "AzureTableSink",
            "azureTablePartitionKeyName": "PartitionKey",
            "azureTableRowKeyName": "RowKey",
            "writeBatchSize": 0,
            "writeBatchTimeout": "00:00:00"
          }
        },
        "inputs": [
          {
            "name": "BillBenchMarkResults"
          }
        ],
        "outputs": [
          {
            "name": "AOBillBenchMarkResults"
          }
        ],
        "policy": {
          "timeout": "01:00:00",
          "concurrency": 1
        },
        "scheduler": {
          "frequency": "Day",
          "interval": 1
        },
        "name": "AOBillBenchMarkResults",
        "description": "Copy Bill Benchmarks Results back to table"
      }
    ],
    "start": "2015-12-27T00:00:00Z",
    "end": "2016-01-05T00:00:00Z",
    "isPaused": false,
    "pipelineMode": "Scheduled"
  },
  "$schema": "http://datafactories.schema.management.azure.com/schemas/2015-08-01/Microsoft.DataFactory.Pipeline.json"
}