{
  "name": "DataLakeStoreCustomer",
  "properties": {
    "published": false,
    "type": "AzureDataLakeStore",
    "linkedServiceName": "AzureDataLakeStoreLinkedService",
    "typeProperties": {
      "fileName": "customer.csv",
      "folderPath": "AOIncoming/",
      "format": {
        "type": "TextFormat",
        "rowDelimiter": "\n",
        "columnDelimiter": ","
      }
    },
    "availability": {
      "frequency": "Day",
      "interval": 1
    }
  },
  "$schema": "http://datafactories.schema.management.azure.com/schemas/2015-08-01/Microsoft.DataFactory.Table.json"
}