{
  "name": "factClientAttribute",
  "properties": {
    "published": false,
    "type": "AzureSqlTable",
    "linkedServiceName": "InsightsDW",
    "typeProperties": {
      "tableName": "dbo.factClientAttribute"
    },
    "availability": {
      "frequency": "Day",
      "interval": 1
    },
    "external": true,
    "policy": {}
  },
  "$schema": "http://datafactories.schema.management.azure.com/schemas/2015-08-01/Microsoft.DataFactory.Table.json"
}