{
  "name": "InsightsDW",
  "properties": {
    "description": "InsightsMetaData",
    "type": "AzureSqlDatabase",
    "typeProperties": {
      "connectionString": "Data Source=tcp:aceDsql1c0.database.windows.net,1433;Initial Catalog=InsightsDW_224;Integrated Security=False;User ID=AclaraCEAdmin@aceDsql1c0;Password=**********;Connect Timeout=30;Encrypt=True"
    }
  },
  "$schema": "http://datafactories.schema.management.azure.com/schemas/2015-08-01/Microsoft.DataFactory.LinkedService.json"
}