﻿{
    "$schema": "http://datafactories.schema.management.azure.com/schemas/2015-08-01/Microsoft.DataFactory.Table.json",
     "name": "AzureSqlForExecSPCleanupExtractTables",
    "properties": {
        "structure": [
            {
                "name": "SubscriptionStatus",
                "type": "String"
            }
        ],
        "published": false,
        "type": "AzureSqlTable",
        "linkedServiceName": "AzureSQLInsightsDW",
        "typeProperties": {
            "tableName": "rpt.AOSubscription"
        },
        "availability": {
            "frequency": "Week",
            "interval": 1
        }
        
    }
}