﻿{
    "$schema": "http://datafactories.schema.management.azure.com/schemas/2015-08-01/Microsoft.DataFactory.Table.json",
    "name": "OnPremiseAONotificationExport",
       "properties": {
        "type": "FileShare",
        "linkedServiceName": "OnPremisesFSLinkedService",
        "typeProperties": {
            "fileName": "{Year}{Month}{Day}AlertsNotification_290.csv",
            "folderPath": "PaaS_CloudFileDrop\\290\\Export\\BI\\AlertsReporting",
            "partitionedBy": [
                {"name": "Year","value": {"type": "DateTime","date": "SliceStart","format": "yyyy"}},
                {"name": "Month","value": {"type": "DateTime","date": "SliceStart","format": "MM"}},
                {"name": "Day","value": {"type": "DateTime","date": "SliceStart","format": "dd"}}
            ]
        },
        "availability": {
            "frequency": "Week",
            "interval": 1
        }
    }
}

