{
  "id": "c8d4e70f-edad-49f9-589e-7a7e747326ba",
  "name": "localdev",
  "values": [
    {
      "key": "url",
      "value": "https://localhost/CE.Insights",
      "type": "text",
      "name": "url",
      "enabled": true,
      "hovered": false
    },
    {
      "key": "authorization256",
      "value": "Basic MzU4ODQzM0Y5OTI0NDM1OEE1MUJEMzlEQjAxQzZEREU6bG9jYWxEZXZCYXNpY0tleTI1Ng==",
      "type": "text",
      "name": "authorization256",
      "enabled": true,
      "hovered": false
    },
    {
      "key": "authorizationnbnuser",
      "value": "Basic UUExMjQhOlFBMTI0IQ==",
      "type": "text",
      "name": "authorizationnbnuser",
      "enabled": true,
      "hovered": false
    },
    {
      "key": "ceaccesskey87",
      "value": "7320D04481A949B8AB4BB04CDD1A307E",
      "type": "text",
      "name": "ceaccesskey87",
      "enabled": true,
      "hovered": false
    },
    {
      "key": "authorization87",
      "value": "Basic NzMyMEQwNDQ4MUE5NDlCOEFCNEJCMDRDREQxQTMwN0U6RGVtb0Jhc2ljS2V5ODc=",
      "type": "text",
      "name": "authorization87",
      "enabled": true,
      "hovered": false
    },
    {
      "key": "ceaccesskey256",
      "value": "3588433F99244358A51BD39DB01C6DDE",
      "type": "text",
      "name": "ceaccesskey256",
      "enabled": true,
      "hovered": false
    },
    {
      "key": "ceaccesskey210",
      "value": "2c39279403f35e4ed969a665959021d39c29",
      "type": "text",
      "name": "ceaccesskey210",
      "enabled": true,
      "hovered": false
    },
    {
      "key": "authorization210",
      "value": "Basic MmMzOTI3OTQwM2YzNWU0ZWQ5NjlhNjY1OTU5MDIxZDM5YzI5OkF2aXN0YUJhc2ljS2V5MjEw",
      "type": "text",
      "name": "authorization210",
      "enabled": true,
      "hovered": false
    },
    {
      "key": "webtoken",
      "value": "3f6970d3-5fd8-4d28-88e7-d66e76cd254c",
      "type": "text",
      "name": "webtoken",
      "enabled": true,
      "hovered": false
    },
    {
      "key": "ceaccesskey224",
      "value": "da85481ff37ee44e1858f2291ed261cf2b6c",
      "type": "text",
      "name": "ceaccesskey224",
      "enabled": true,
      "hovered": false
    },
    {
      "key": "authorization224",
      "value": "Basic ZGE4NTQ4MWZmMzdlZTQ0ZTE4NThmMjI5MWVkMjYxY2YyYjZjOkRlbW9CYXNpY0tleUNFMjI0",
      "type": "text",
      "name": "authorization224",
      "enabled": true,
      "hovered": false
    },
    {
      "key": "Signature",
      "value": "2lwcGnAG9cNWBWAYjUtTvOWfd9+WNgqj0u4C6Nr0mqU=",
      "type": "text",
      "name": "Signature",
      "enabled": true,
      "hovered": false
    },
    {
      "key": "ceaccesskey276",
      "value": "1792974231d37543f2e8894043069e51c88b",
      "type": "text",
      "name": "ceaccesskey276",
      "enabled": true,
      "hovered": false
    },
    {
      "key": "authorization276",
      "value": "Basic MTc5Mjk3NDIzMWQzNzU0M2YyZTg4OTQwNDMwNjllNTFjODhiOm1lcGhpc3Rv",
      "type": "text",
      "name": "authorization276",
      "enabled": true,
      "hovered": false
    },
    {
      "key": "ceaccesskey61",
      "value": "072c6bfbc56f1e4b0d68ad5db8062277b978",
      "type": "text",
      "name": "ceaccesskey61",
      "enabled": true,
      "hovered": false
    },
    {
      "key": "authorization61",
      "value": "Basic MDcyYzZiZmJjNTZmMWU0YjBkNjhhZDVkYjgwNjIyNzdiOTc4OkxBRFdQQmFzaWNLZXk2MQ==",
      "type": "text",
      "name": "authorization61",
      "enabled": true,
      "hovered": false
    },
    {
      "key": "ceaccesskey290",
      "value": "0ae48c670bd33749e079e2622cf22dcec707",
      "type": "text",
      "enabled": true,
      "hovered": false
    },
    {
      "key": "authorization290",
      "value": "Basic MGFlNDhjNjcwYmQzMzc0OWUwNzllMjYyMmNmMjJkY2VjNzA3OkRlbW9CYXNpY0tleTI5MA==",
      "type": "text",
      "enabled": true,
      "hovered": false
    }
  ],
  "timestamp": 1481929257193,
  "_postman_variable_scope": "environment",
  "_postman_exported_at": "2017-01-04T22:30:20.108Z",
  "_postman_exported_using": "Postman/4.9.2"
}