{
	"variables": [],
	"info": {
		"name": "256BillDisaggTests",
		"_postman_id": "23169e69-7b23-2637-2449-a79c64a4870b",
		"description": "",
		"schema": "https://schema.getpostman.com/json/collection/v2.0.0/collection.json"
	},
	"item": [
		{
			"name": "256busprofilev1_post_responsesuccess_profilesectionhome",
			"event": [
				{
					"listen": "test",
					"script": {
						"type": "text/javascript",
						"exec": "tests[\"Status code is 200\"] = responseCode.code === 200;\n\n"
					}
				}
			],
			"request": {
				"url": "{{url}}/api/v1/profile",
				"method": "POST",
				"header": [
					{
						"key": "X-DateTime",
						"value": "04/24/2014 19:40:30",
						"description": ""
					},
					{
						"key": "X-CE-AccessKeyId",
						"value": "{{ceaccesskey256}}",
						"description": ""
					},
					{
						"key": "X-CE-MessageId",
						"value": "b0c33e73-bfdc-c7c5-8a23-43f620ba0f6d",
						"description": ""
					},
					{
						"key": "X-CE-Channel",
						"value": "Postman",
						"description": ""
					},
					{
						"key": "X-CE-Locale",
						"value": "en-US",
						"description": ""
					},
					{
						"key": "Authorization",
						"value": "{{authorization256}}",
						"description": ""
					},
					{
						"key": "X-CE-Meta",
						"value": "#cecp:1#",
						"description": ""
					},
					{
						"key": "Content-Type",
						"value": "application/json",
						"description": ""
					}
				],
				"body": {
					"mode": "raw",
					"raw": "{ \"Customer\": \n {\"Id\": \"256test0212\",\n  \"Attributes\": \n  [\n    {\"AttributeKey\": \"greenprogram.enrollmentstatus\",\n     \"AttributeValue\": \"greenprogram.enrollmentstatus.enrolled\",\n     \"SourceKey\": \"utility\"},\n    {\"AttributeKey\": \"savingsplan.enrollmentstatus\",\n     \"AttributeValue\": \"savingsplan.enrollmentstatus.enrolled\",\n     \"SourceKey\": \"utility\"}\n  ],\n  \"Accounts\": \n  [\n    {\"Id\": \"256test0212\",\"Attributes\": \n     [\n       {\"AttributeKey\": \"paperlessbilling.enrollmentstatus\",\n        \"AttributeValue\": \"paperlessbilling.enrollmentstatus.enrolled\",\n        \"SourceKey\": \"utility\"\n       },\n       {\"AttributeKey\": \"budgetbilling.enrollmentstatus\",\n        \"AttributeValue\": \"budgetbilling.enrollmentstatus.enrolled\",\n        \"SourceKey\": \"utility\"}\n     ],\n     \"Premises\": \n     [\n       {\"Id\": \"256test0212\",\"Attributes\": \n        [  \n         {\"AttributeKey\": \"calculateanalytics\",\n           \"AttributeValue\": \"calculateanalytics.yes\",\n           \"SourceKey\": \"utility\"\n          },\n         {\"AttributeKey\": \"pool.poolheater\",\n           \"AttributeValue\": \"pool.poolheater.yes\",\n           \"SourceKey\": \"utility\"\n          },\n          {\"AttributeKey\": \"pool.poolcoverusage\",\n           \"AttributeValue\": \"pool.poolcoverusage.regularly\",\n           \"SourceKey\": \"utility\"\n          },\n          {\"AttributeKey\": \"pool.count\",\n           \"AttributeValue\": \"1\",\n           \"SourceKey\": \"utility\"\n          },\n            {\"AttributeKey\": \"premisetype\",\n                \"AttributeValue\": \"premisetype.business\",\n               \"SourceKey\": \"customer\"\n          },\n          {\"AttributeKey\": \"business.cooking.fuel\",\n           \"AttributeValue\": \"business.cooking.fuel.gas\",\n           \"SourceKey\": \"customer\"\n          },\n          {\"AttributeKey\": \"business.totalarea\",\n           \"AttributeValue\": \"2000\",\n           \"SourceKey\": \"customer\"\n          },\n          {\"AttributeKey\": \"business.buildingcategory\",\n           \"AttributeValue\": \"buildingcategory.bakery\",\n           \"SourceKey\": \"customer\"\n          }\n        ]\n       }\n     ]\n    }\n  ]\n }}"
				},
				"description": "Success response pool count of 1 is posted – to test billdisagg response results (next test)  business"
			},
			"response": []
		},
		{
			"name": "256busbilldisaggv1_get_responsesuccess_multicommodityandpoolwithmeasurementkeys",
			"event": [
				{
					"listen": "test",
					"script": {
						"type": "text/javascript",
						"exec": "tests[\"Status code is 200\"] = responseCode.code === 200;\n\ntests[\"Body matches gas commodity\"] = responseBody.has('CommodityKey\": \"gas\"');\n\n\ntests[\"Body does match electric commodity\"] = responseBody.has('CommodityKey\": \"electric\"');\n\n\ntests[\"Body matches measurementkey CO2\"] = responseBody.has('\"Key\": \"co2\"');\n\ntests[\"Body matches measurementkey points\"] = responseBody.has('\"Key\": \"points\"');"
					}
				}
			],
			"request": {
				"url": "{{url}}/api/v1/billdisagg?CustomerId=256test0212&AccountId=256test0212&PremiseId=256test0212&StartDate=04-01-2015&EndDate=07-01-2016&MeasurementKeys=CO2,Points",
				"method": "GET",
				"header": [
					{
						"key": "X-DateTime",
						"value": "04/24/2014 19:40:30",
						"description": ""
					},
					{
						"key": "X-CE-AccessKeyId",
						"value": "{{ceaccesskey256}}",
						"description": ""
					},
					{
						"key": "X-CE-MessageId",
						"value": "{{$guid}}",
						"description": ""
					},
					{
						"key": "X-CE-Channel",
						"value": "Postman",
						"description": ""
					},
					{
						"key": "X-CE-Locale",
						"value": "en-US",
						"description": ""
					},
					{
						"key": "Authorization",
						"value": "{{authorization256}}",
						"description": ""
					},
					{
						"key": "X-CE-Meta",
						"value": "#cecp:1#",
						"description": ""
					}
				],
				"body": {
					"mode": "formdata",
					"formdata": []
				},
				"description": "Multiple commodity  bill disagg. \nVerify all commodities returned (no filter on commoditykeys) and measurementkeys of CO2 and points.  Business"
			},
			"response": []
		},
		{
			"name": "256profilev1_get_responsesuccess_whenfilterbycustomeridprofilesectionhome",
			"event": [
				{
					"listen": "test",
					"script": {
						"type": "text/javascript",
						"exec": "tests[\"Status code is 200\"] = responseCode.code === 200;\n\n\n"
					}
				}
			],
			"request": {
				"url": "{{url}}/api/v1/profile?CustomerId=256test0212&StartDate=6/1/2014&EndDate=7/1/2015&IncludeContent=false",
				"method": "GET",
				"header": [
					{
						"key": "X-DateTime",
						"value": "04/24/2014 19:40:30",
						"description": ""
					},
					{
						"key": "X-CE-AccessKeyId",
						"value": "{{ceaccesskey256}}",
						"description": ""
					},
					{
						"key": "X-CE-MessageId",
						"value": "{{$guid}}",
						"description": ""
					},
					{
						"key": "X-CE-Channel",
						"value": "Postman",
						"description": ""
					},
					{
						"key": "X-CE-Locale",
						"value": "en-US",
						"description": ""
					},
					{
						"key": "Authorization",
						"value": "{{authorization256}}",
						"description": ""
					},
					{
						"key": "X-CE-Meta",
						"value": "#cecp:1#",
						"description": ""
					}
				],
				"body": {
					"mode": "formdata",
					"formdata": []
				},
				"description": "verifies that gets success code - \nfor an authorized basic user\naccessing profile controller \nendpoint that has been enabled for them. \nFilter by customerid. Profile section data is\nsubmitted for purposes of testing billdisagg"
			},
			"response": []
		},
		{
			"name": "256energymodelv1_post_businesscustomerlgbakery",
			"event": [
				{
					"listen": "test",
					"script": {
						"type": "text/javascript",
						"exec": "tests[\"Status code is 200\"] = responseCode.code === 200;\n\ntests[\"Body matches Modeltype business\"] = responseBody.has('\"ModelType\": \"Business\"');"
					}
				}
			],
			"request": {
				"url": "{{url}}/api/v1/energymodel",
				"method": "POST",
				"header": [
					{
						"key": "X-DateTime",
						"value": "04/24/2014 19:40:30",
						"description": ""
					},
					{
						"key": "X-CE-AccessKeyId",
						"value": "{{ceaccesskey256}}",
						"description": ""
					},
					{
						"key": "X-CE-MessageId",
						"value": "{{$guid}}",
						"description": ""
					},
					{
						"key": "X-CE-Channel",
						"value": "Postman",
						"description": ""
					},
					{
						"key": "X-CE-Locale",
						"value": "en-US",
						"description": ""
					},
					{
						"key": "Authorization",
						"value": "{{authorization256}}",
						"description": ""
					},
					{
						"key": "X-CE-Meta",
						"value": "#cecp:1#",
						"description": ""
					},
					{
						"key": "Content-Type",
						"value": "application/json",
						"description": ""
					}
				],
				"body": {
					"mode": "raw",
					"raw": "{ \"Data\": \n    { \n    \"CustomerParameters\": {\n      \"CustomerId\": \"256test0212\",\n      \"AccountId\": \"256test0212\",\n      \"PremiseId\": \"256test0212\"      \n    },\n    \"RegionParameters\": {\n     \"TemperatureRegionId\": 31,\n         \"SolarRegionId\": 1,\n         \"ApplianceRegionId\": 1,\n         \"State\": \"AZ\"\n    },\n    \"Appliances\": [\n    {\n        \"Name\": \"businesscooking\"\n    }\n   ],\n    \"ProfileAttributes\":[\n        {\n            \"Key\": \"premisetype\",\n            \"OptionKey\": \"premisetype.business\",\n            \"OptionValue\": \"0\"\n        },\n        {\n            \"Key\": \"business.totalarea\",\n            \"OptionKey\": \"business.totalarea.value\",\n            \"OptionValue\": \"100000\"\n        },        \n        {\n            \"Key\": \"business.buildingcategory\",\n            \"OptionKey\": \"buildingcategory.bakery\",\n            \"OptionValue\": \"0\"\n        }],\n  }\n}"
				},
				"description": "Get data for specific customer, account, \npremise. Verifies that contains all the default appliance and end use results for a business customer\nSq footage of 100K for bakery tested (cooking, lighting)"
			},
			"response": []
		}
	]
}