{
	"id": "4f68f93d-1f05-579a-1d5b-e8bca1b403d6",
	"name": "Alert_Perf_Queries",
	"description": "Queries used to obtain results from high volume Alerts performance tests",
	"order": [
		"cb00d07c-dad3-1277-9244-819aa17d3767",
		"ea40e5c7-3326-de39-d97e-0f5fe50486d0",
		"2c2b771b-5e3d-2f27-ea78-58c0b19f24e1",
		"3de133f7-6868-e85e-de84-ede8932c657c",
		"25a65898-f595-3b4f-1fe5-5ddd619f1777",
		"cbc671b9-1379-e850-4131-94b4fc12be63",
		"8ed72345-5d9b-01b6-8769-32c42dcfa8a5"
	],
	"folders": [],
	"timestamp": 1484929372872,
	"owner": "27355",
	"public": false,
	"requests": [
		{
			"id": "25a65898-f595-3b4f-1fe5-5ddd619f1777",
			"headers": "X-DateTime: 04/24/2014 19:40:30\nX-CE-AccessKeyId: {{ceaccesskey87}}\nX-CE-MessageId: b0c33e73-bfdc-c7c5-8a23-43f620ba0f6d\nX-CE-Channel: Postman\nX-CE-Locale: en-US\nAuthorization: {{authorization87}}\nX-CE-Meta: #cecp:1#\nContent-Type: application/json\nX-BIO-etag: bb0c1f20-6891-47b3-bc28-9e50079de288\nAccept: application/json\n",
			"url": "http://acl10507l/DevWt1/api/Data/log/uat?maxRows=200000",
			"preRequestScript": "",
			"pathVariables": {},
			"method": "PUT",
			"data": [],
			"dataMode": "raw",
			"tests": "tests[\"Status code is 200\"] = responseCode.code === 200;\ntests[\"Body matches commodity water\"] = responseBody.has('\"CommodityKey\": \"water\"');\ntests[\"Body matches commodity refuse\"] = responseBody.has('\"CommodityKey\": \"refuse\"');\ntests[\"No errors on bill to date\"] = responseBody.has('\"HasError\": false');\n",
			"currentHelper": "normal",
			"helperAttributes": {},
			"time": 1484924523938,
			"name": "Perf_ErrorLogging",
			"description": "Success response billtodate get for a \nsingle premise with metered service for gas commodity only\nChecks the gas commodity is returned for MCF\nChecks the no errors for bill to date",
			"collectionId": "4f68f93d-1f05-579a-1d5b-e8bca1b403d6",
			"responses": [],
			"rawModeData": "#C where template_id = '33333333-4444-5555-6666-161616161616'\r\n#S client_id=87 and is_latest in (true) and insight='Usage'\r\n#P csv 0 account_id,customer_id\r\n#P seq 1 account_id ktest5A 0 15000\r\n#P seq 2 account_id ktest5A 0 15000\r\n#P seq 0 account_id ktest5A 0 15000 10"
		},
		{
			"id": "2c2b771b-5e3d-2f27-ea78-58c0b19f24e1",
			"headers": "X-DateTime: 04/24/2014 19:40:30\nX-CE-AccessKeyId: {{ceaccesskey87}}\nX-CE-MessageId: b0c33e73-bfdc-c7c5-8a23-43f620ba0f6d\nX-CE-Channel: Postman\nX-CE-Locale: en-US\nAuthorization: {{authorization87}}\nX-CE-Meta: #cecp:1#\nContent-Type: application/json\nX-BIO-etag: 1815a4ae-163d-4e04-b6ba-5eb2a6ff1d27\nAccept: application/json\n",
			"url": "http://acl10507l/DevWt1/api/Data/notification/uat?maxRows=410000&allowFilter=1&sortCol=last_modified_date",
			"preRequestScript": "",
			"pathVariables": {},
			"method": "PUT",
			"data": [],
			"dataMode": "raw",
			"tests": "tests[\"Status code is 200\"] = responseCode.code === 200;\ntests[\"Body matches commodity water\"] = responseBody.has('\"CommodityKey\": \"water\"');\ntests[\"Body matches commodity refuse\"] = responseBody.has('\"CommodityKey\": \"refuse\"');\ntests[\"No errors on bill to date\"] = responseBody.has('\"HasError\": false');\n",
			"currentHelper": "normal",
			"helperAttributes": {},
			"time": 1484852243679,
			"name": "Perf_Notification_Verification",
			"description": "Success response billtodate get for a \nsingle premise with metered service for gas commodity only\nChecks the gas commodity is returned for MCF\nChecks the no errors for bill to date",
			"collectionId": "4f68f93d-1f05-579a-1d5b-e8bca1b403d6",
			"responses": [],
			"rawModeData": "#C where template_id = '33333333-4444-5555-6666-161616161616'\r\n#S client_id=87 and is_latest in (true,false)\r\n#S client_id=87 and is_latest in (true)  and insight='ServiceProjectedCost'\r\n#S client_id=87 and is_latest in (false)  and insight='ServiceProjectedCost'\r\n#P csv 0 account_id,customer_id\r\n#P seq 1 account_id ktest5A 0 15000 1 exact\r\n#P seq 2 account_id ktest5A 0 15000 1 exact\r\n#P seq 0 account_id ktest5A 0 15000 10 exact\r\n\r\n\r\n\t\r\n"
		},
		{
			"id": "3de133f7-6868-e85e-de84-ede8932c657c",
			"headers": "X-DateTime: 04/24/2014 19:40:30\nX-CE-AccessKeyId: {{ceaccesskey87}}\nX-CE-MessageId: b0c33e73-bfdc-c7c5-8a23-43f620ba0f6d\nX-CE-Channel: Postman\nX-CE-Locale: en-US\nAuthorization: {{authorization87}}\nX-CE-Meta: #cecp:1#\nContent-Type: application/json\nX-BIO-etag: bb0c1f20-6891-47b3-bc28-9e50079de288\nAccept: application/json\n",
			"url": "http://acl10507l/DevWt1/api/Data/calculation/uat?maxRows=410000&allowFilter=1&sortCol=as_of_calculation_date",
			"preRequestScript": "",
			"pathVariables": {},
			"method": "PUT",
			"data": [],
			"dataMode": "raw",
			"tests": "tests[\"Status code is 200\"] = responseCode.code === 200;\ntests[\"Body matches commodity water\"] = responseBody.has('\"CommodityKey\": \"water\"');\ntests[\"Body matches commodity refuse\"] = responseBody.has('\"CommodityKey\": \"refuse\"');\ntests[\"No errors on bill to date\"] = responseBody.has('\"HasError\": false');\n",
			"currentHelper": "normal",
			"helperAttributes": {},
			"time": 1484240407389,
			"name": "Perf_Calculation_Verification",
			"description": "Success response billtodate get for a \nsingle premise with metered service for gas commodity only\nChecks the gas commodity is returned for MCF\nChecks the no errors for bill to date",
			"collectionId": "4f68f93d-1f05-579a-1d5b-e8bca1b403d6",
			"responses": [],
			"rawModeData": "#C \r\n#S type = 'C' and is_latest in (true) and rate_class = 'binTierM' and client_id in (87)\r\n"
		},
		{
			"id": "8ed72345-5d9b-01b6-8769-32c42dcfa8a5",
			"headers": "X-DateTime: 04/24/2014 19:40:30\nX-CE-AccessKeyId: {{ceaccesskey87}}\nX-CE-MessageId: b0c33e73-bfdc-c7c5-8a23-43f620ba0f6d\nX-CE-Channel: Postman\nX-CE-Locale: en-US\nAuthorization: {{authorization87}}\nX-CE-Meta: #cecp:1#\nContent-Type: application/json\nX-BIO-etag: 1815a4ae-163d-4e04-b6ba-5eb2a6ff1d27\nAccept: application/json\n",
			"url": "http://acl10507l/DevWt1/api/Data/notification/uat/1?maxRows=200000&allowFilter=1&sortCol=last_modified_date&procResp=1&outputTag=test1&userPath=anon3&contextRecs=50&contextRet=1",
			"preRequestScript": "",
			"pathVariables": {},
			"method": "PUT",
			"data": [],
			"dataMode": "raw",
			"tests": "tests[\"Status code is 200\"] = responseCode.code === 200;\ntests[\"Body matches commodity water\"] = responseBody.has('\"CommodityKey\": \"water\"');\ntests[\"Body matches commodity refuse\"] = responseBody.has('\"CommodityKey\": \"refuse\"');\ntests[\"No errors on bill to date\"] = responseBody.has('\"HasError\": false');\n",
			"currentHelper": "normal",
			"helperAttributes": {},
			"time": 1484930362991,
			"name": "Perf_Notification_Verification2",
			"description": "",
			"collectionId": "4f68f93d-1f05-579a-1d5b-e8bca1b403d6",
			"responses": [],
			"rawModeData": "#C where template_id = '33333333-4444-5555-6666-777777777777'\r\n#S client_id=87 and is_latest in (true)  and insight='Usage'\r\n#P csv 0 account_id,customer_id\r\n#P seq 1 account_id ktest5A 0 15000\r\n#P seq 2 account_id ktest5A 0 15000\r\n#P seq 0 account_id ktest5A 0 15000 10\r\n\r\n\r\n\t\r\n"
		},
		{
			"id": "cb00d07c-dad3-1277-9244-819aa17d3767",
			"headers": "X-DateTime: 04/24/2014 19:40:30\nX-CE-AccessKeyId: {{ceaccesskey87}}\nX-CE-MessageId: b0c33e73-bfdc-c7c5-8a23-43f620ba0f6d\nX-CE-Channel: Postman\nX-CE-Locale: en-US\nAuthorization: {{authorization87}}\nX-CE-Meta: #cecp:1#\nContent-Type: application/json\nX-BIO-etag: bb0c1f20-6891-47b3-bc28-9e50079de288\nAccept: application/json\n",
			"url": "http://acl10507l/DevWt1/api/Data/subscription/uat?maxRows=120000&sortCol=subscription_date",
			"preRequestScript": "",
			"pathVariables": {},
			"method": "PUT",
			"data": [],
			"dataMode": "raw",
			"tests": "tests[\"Status code is 200\"] = responseCode.code === 200;\ntests[\"Body matches commodity water\"] = responseBody.has('\"CommodityKey\": \"water\"');\ntests[\"Body matches commodity refuse\"] = responseBody.has('\"CommodityKey\": \"refuse\"');\ntests[\"No errors on bill to date\"] = responseBody.has('\"HasError\": false');\n",
			"currentHelper": "normal",
			"helperAttributes": {},
			"time": 1484848838714,
			"name": "Perf_Subscription_Verification",
			"description": "Success response billtodate get for a \nsingle premise with metered service for gas commodity only\nChecks the gas commodity is returned for MCF\nChecks the no errors for bill to date",
			"collectionId": "4f68f93d-1f05-579a-1d5b-e8bca1b403d6",
			"responses": [],
			"rawModeData": "#C where client_id in (87) \r\n#S customer_id like '%ktest5C%' and is_latest in (true,false) \r\n#S customer_id like '%ktest5C%' and is_email_opt_in_completed in (true) "
		},
		{
			"id": "cbc671b9-1379-e850-4131-94b4fc12be63",
			"headers": "X-DateTime: 04/24/2014 19:40:30\nX-CE-AccessKeyId: {{ceaccesskey87}}\nX-CE-MessageId: b0c33e73-bfdc-c7c5-8a23-43f620ba0f6d\nX-CE-Channel: Postman\nX-CE-Locale: en-US\nAuthorization: {{authorization87}}\nX-CE-Meta: #cecp:1#\nContent-Type: application/json\nX-BIO-etag: 1815a4ae-163d-4e04-b6ba-5eb2a6ff1d27\nAccept: application/json\n",
			"url": "http://acl10507l/DevWt1/api/Data/notification/uat?maxRows=410000&allowFilter=1&sortCol=last_modified_date",
			"preRequestScript": "",
			"pathVariables": {},
			"method": "PUT",
			"data": [],
			"dataMode": "raw",
			"tests": "tests[\"Status code is 200\"] = responseCode.code === 200;\ntests[\"Body matches commodity water\"] = responseBody.has('\"CommodityKey\": \"water\"');\ntests[\"Body matches commodity refuse\"] = responseBody.has('\"CommodityKey\": \"refuse\"');\ntests[\"No errors on bill to date\"] = responseBody.has('\"HasError\": false');\n",
			"currentHelper": "normal",
			"helperAttributes": {},
			"time": 1484578308196,
			"name": "Perf_Notification_Verification1",
			"description": "Success response billtodate get for a \nsingle premise with metered service for gas commodity only\nChecks the gas commodity is returned for MCF\nChecks the no errors for bill to date",
			"collectionId": "4f68f93d-1f05-579a-1d5b-e8bca1b403d6",
			"responses": [],
			"rawModeData": "#C where template_id = '33333333-4444-5555-6666-777777777777'\r\n#S client_id=87 and is_latest in (true)  and insight='Usage'\r\n#P csv 0 account_id,customer_id\r\n#P seq 1 account_id ktest5A 0 15000\r\n#P seq 2 account_id ktest5A 0 15000\r\n#P seq 0 account_id ktest5A 0 15000 10\r\n\r\n\r\n\t\r\n"
		},
		{
			"id": "ea40e5c7-3326-de39-d97e-0f5fe50486d0",
			"headers": "X-DateTime: 04/24/2014 19:40:30\nX-CE-AccessKeyId: {{ceaccesskey87}}\nX-CE-MessageId: b0c33e73-bfdc-c7c5-8a23-43f620ba0f6d\nX-CE-Channel: Postman\nX-CE-Locale: en-US\nAuthorization: {{authorization87}}\nX-CE-Meta: #cecp:1#\nContent-Type: application/json\nX-BIO-etag: bb0c1f20-6891-47b3-bc28-9e50079de288\nAccept: application/json\n",
			"url": "http://acl10507l/DevWt1/api/Data/billing/uat?maxRows=200100&allowFilter=1&sortCol=meter_id ",
			"preRequestScript": "",
			"pathVariables": {},
			"method": "PUT",
			"data": [],
			"dataMode": "raw",
			"tests": "tests[\"Status code is 200\"] = responseCode.code === 200;\ntests[\"Body matches commodity water\"] = responseBody.has('\"CommodityKey\": \"water\"');\ntests[\"Body matches commodity refuse\"] = responseBody.has('\"CommodityKey\": \"refuse\"');\ntests[\"No errors on bill to date\"] = responseBody.has('\"HasError\": false');\n",
			"currentHelper": "normal",
			"helperAttributes": {},
			"time": 1484248822120,
			"name": "Perf_Bill_Verification",
			"description": "Success response billtodate get for a \nsingle premise with metered service for gas commodity only\nChecks the gas commodity is returned for MCF\nChecks the no errors for bill to date",
			"collectionId": "4f68f93d-1f05-579a-1d5b-e8bca1b403d6",
			"responses": [],
			"rawModeData": "#C where premise_id = 'ktest5P1'\r\n#S is_latest in (true,false)"
		}
	]
}