{
	"variables": [],
	"info": {
		"name": "BusinessDemoPOC",
		"_postman_id": "27bf12e0-738c-faa9-d916-fa74eb52a8d3",
		"description": "BusinessDemo Client setup specifically for demo (non production)",
		"schema": "https://schema.getpostman.com/json/collection/v2.0.0/collection.json"
	},
	"item": [
		{
			"name": "4echov1_get_responsesuccess_whenendpointenabled_authenticatedbasicuser",
			"event": [
				{
					"listen": "test",
					"script": {
						"type": "text/javascript",
						"exec": "tests[\"Status code is 200 success\"] = responseCode.code === 200;\n "
					}
				}
			],
			"request": {
				"auth": {
					"type": "basic",
					"basic": {
						"username": "1e28d004a16ce944b628929c5caaccae6d4b",
						"password": "DemoBasicKey4",
						"showPassword": false
					}
				},
				"url": "{{url}}/api/v1/echo?Say=QAtesttext&Name=Test123&Number=1",
				"method": "GET",
				"header": [
					{
						"key": "X-DateTime",
						"value": "04/24/2014 19:40:30",
						"description": ""
					},
					{
						"key": "X-CE-AccessKeyId",
						"value": "1e28d004a16ce944b628929c5caaccae6d4b",
						"description": ""
					},
					{
						"key": "X-CE-MessageId",
						"value": "{{$guid}}",
						"description": ""
					},
					{
						"key": "X-CE-Channel",
						"value": "Postman",
						"description": ""
					},
					{
						"key": "X-CE-Locale",
						"value": "en-US",
						"description": ""
					},
					{
						"key": "Authorization",
						"value": "Basic MWUyOGQwMDRhMTZjZTk0NGI2Mjg5MjljNWNhYWNjYWU2ZDRiOkRlbW9CYXNpY0tleTQ=",
						"description": ""
					},
					{
						"key": "X-CE-Meta",
						"value": "",
						"description": ""
					}
				],
				"body": {
					"mode": "formdata",
					"formdata": []
				},
				"description": "BusinessDemo echo test for successful response back when valid parameters are supplied"
			},
			"response": []
		},
		{
			"name": "4billv1_get_responsesuccess_whenfilterbycustomeriddemo",
			"event": [
				{
					"listen": "test",
					"script": {
						"type": "text/javascript",
						"exec": "tests[\"Status code is 200\"] = responseCode.code === 200;"
					}
				}
			],
			"request": {
				"url": "{{url}}/api/v1/bill?CustomerId=993774751&StartDate=2013-07-01&EndDate=2015-08-01&Count=24&IncludeContent=true",
				"method": "GET",
				"header": [
					{
						"key": "X-DateTime",
						"value": "04/24/2014 19:40:30",
						"description": ""
					},
					{
						"key": "X-CE-AccessKeyId",
						"value": "1e28d004a16ce944b628929c5caaccae6d4b",
						"description": ""
					},
					{
						"key": "X-CE-MessageId",
						"value": "{{$guid}}",
						"description": ""
					},
					{
						"key": "X-CE-Channel",
						"value": "Postman",
						"description": ""
					},
					{
						"key": "X-CE-Locale",
						"value": "en-US",
						"description": ""
					},
					{
						"key": "Authorization",
						"value": "Basic MWUyOGQwMDRhMTZjZTk0NGI2Mjg5MjljNWNhYWNjYWU2ZDRiOkRlbW9CYXNpY0tleTQ=",
						"description": ""
					},
					{
						"key": "X-CE-Meta",
						"value": "",
						"description": ""
					}
				],
				"body": {
					"mode": "formdata",
					"formdata": []
				},
				"description": "gas commodity recent bill.  \nverifies that gets success code - \nfor an authorized basic user accessing \nbill controller endpoint that has been \nenabled for them. \nFilter by customerid for \nsingle account\\premise - different service / multiple commodity keys (1 gas, 1 electric)"
			},
			"response": []
		},
		{
			"name": "4profilev1_post_responsesuccess_promo",
			"event": [
				{
					"listen": "test",
					"script": {
						"type": "text/javascript",
						"exec": "tests[\"Status code is 200\"] = responseCode.code === 200;\n\n"
					}
				}
			],
			"request": {
				"url": "{{url}}/api/v1/profile",
				"method": "POST",
				"header": [
					{
						"key": "X-DateTime",
						"value": "04/24/2014 19:40:30",
						"description": ""
					},
					{
						"key": "X-CE-AccessKeyId",
						"value": "1e28d004a16ce944b628929c5caaccae6d4b",
						"description": ""
					},
					{
						"key": "X-CE-MessageId",
						"value": "b0c33e73-bfdc-c7c5-8a23-43f620ba0f6d",
						"description": ""
					},
					{
						"key": "X-CE-Channel",
						"value": "Postman",
						"description": ""
					},
					{
						"key": "X-CE-Locale",
						"value": "en-US",
						"description": ""
					},
					{
						"key": "Authorization",
						"value": "Basic MWUyOGQwMDRhMTZjZTk0NGI2Mjg5MjljNWNhYWNjYWU2ZDRiOkRlbW9CYXNpY0tleTQ=",
						"description": ""
					},
					{
						"key": "Content-Type",
						"value": "application/json",
						"description": ""
					}
				],
				"body": {
					"mode": "raw",
					"raw": "{ \"Customer\": \n {\"Id\": \"993774751\",\n  \"Attributes\": \n  [\n    {\"AttributeKey\": \"greenprogram.enrollmentstatus\",\n     \"AttributeValue\": \"greenprogram.enrollmentstatus.enrolled\",\n     \"SourceKey\": \"utility\"},\n    {\"AttributeKey\": \"savingsplan.enrollmentstatus\",\n     \"AttributeValue\": \"savingsplan.enrollmentstatus.enrolled\",\n     \"SourceKey\": \"utility\"}\n  ],\n  \"Accounts\": \n  [\n    {\"Id\": \"1218337093\",\"Attributes\": \n     [\n       {\"AttributeKey\": \"paperlessbilling.enrollmentstatus\",\n        \"AttributeValue\": \"paperlessbilling.enrollmentstatus.enrolled\",\n        \"SourceKey\": \"utility\"\n       },\n       {\"AttributeKey\": \"budgetbilling.enrollmentstatus\",\n        \"AttributeValue\": \"budgetbilling.enrollmentstatus.enrolled\",\n        \"SourceKey\": \"utility\"}\n     ],\n       \"Premises\": \n     [\n       {\"Id\": \"1218337000\",\"Attributes\": \n        [  \n          {\"AttributeKey\": \"calculateanalytics\",\n          \"AttributeValue\": \"calculateanalytics.yes\",\n          \"SourceKey\": \"utility\"\n           },\n            {\"AttributeKey\": \"house.people\",\n           \"AttributeValue\": \"2\",\n           \"SourceKey\": \"utility\"\n          },\n           {\"AttributeKey\": \"heatsystem.fuel\",\n           \"AttributeValue\": \"heatsystem.fuel.gas\",\n           \"SourceKey\": \"utility\"\n          },\n          {\"AttributeKey\": \"house.style\",\n           \"AttributeValue\": \"house.style.apartment\",\n           \"SourceKey\": \"utility\"\n          }\n \n        ]\n       }\n     ]\n    }\n  ]\n },}"
				},
				"description": "Promo test , add profile and actions related non conditional promos"
			},
			"response": []
		},
		{
			"name": "4profilev1get_responsesuccess_getrecalctestnewbill",
			"event": [
				{
					"listen": "test",
					"script": {
						"type": "text/javascript",
						"exec": "tests[\"Status code is 200\"] = responseCode.code === 200;\n\n"
					}
				}
			],
			"request": {
				"url": "{{url}}/api/v1/profile?CustomerId=993774751",
				"method": "GET",
				"header": [
					{
						"key": "X-CE-AccessKeyId",
						"value": "1e28d004a16ce944b628929c5caaccae6d4b",
						"description": ""
					},
					{
						"key": "X-CE-MessageId",
						"value": "b0c33e73-bfdc-c7c5-8a23-43f620ba0f6d",
						"description": ""
					},
					{
						"key": "X-CE-Channel",
						"value": "Postman",
						"description": ""
					},
					{
						"key": "X-CE-Locale",
						"value": "en-US",
						"description": ""
					},
					{
						"key": "Authorization",
						"value": "Basic MWUyOGQwMDRhMTZjZTk0NGI2Mjg5MjljNWNhYWNjYWU2ZDRiOkRlbW9CYXNpY0tleTQ=",
						"description": ""
					},
					{
						"key": "Content-Type",
						"value": "application/json",
						"description": ""
					}
				],
				"body": {
					"mode": "formdata",
					"formdata": []
				},
				"description": "Recalc test, billdisagg when change in profile attribute with recalc billdisagg set to yes"
			},
			"response": []
		},
		{
			"name": "4billdisaggv1_get_responsesuccess_multicommodity",
			"event": [
				{
					"listen": "test",
					"script": {
						"type": "text/javascript",
						"exec": "tests[\"Status code is 200\"] = responseCode.code === 200;\n\ntests[\"Body matches gas commodity\"] = responseBody.has('CommodityKey\": \"gas\"');\n\n\n \n\n\ntests[\"Body does match electric commodity\"] = responseBody.has('CommodityKey\": \"electric\"');\n\n\n "
					}
				}
			],
			"request": {
				"url": "{{url}}/api/v1/billdisagg?CustomerId=993774751&AccountId=1218337093&PremiseId=1218337000&StartDate=04-01-2014&EndDate=07-01-2015",
				"method": "GET",
				"header": [
					{
						"key": "X-DateTime",
						"value": "04/24/2014 19:40:30",
						"description": ""
					},
					{
						"key": "X-CE-AccessKeyId",
						"value": "1e28d004a16ce944b628929c5caaccae6d4b",
						"description": ""
					},
					{
						"key": "X-CE-MessageId",
						"value": "{{$guid}}",
						"description": ""
					},
					{
						"key": "X-CE-Channel",
						"value": "Postman",
						"description": ""
					},
					{
						"key": "X-CE-Locale",
						"value": "en-US",
						"description": ""
					},
					{
						"key": "Authorization",
						"value": "Basic MWUyOGQwMDRhMTZjZTk0NGI2Mjg5MjljNWNhYWNjYWU2ZDRiOkRlbW9CYXNpY0tleTQ=",
						"description": ""
					}
				],
				"body": {
					"mode": "formdata",
					"formdata": []
				},
				"description": "Multiple commodity  bill disagg. \nVerify all commodities returned when no filter specified.  "
			},
			"response": []
		},
		{
			"name": "4actionv1_get_responsesuccess_forcustomerwithcommoditykeys",
			"event": [
				{
					"listen": "test",
					"script": {
						"type": "text/javascript",
						"exec": "tests[\"Status code is 200\"] = responseCode.code === 200;\ntests[\"Body matches Actions (recommendations) for client\"] = responseBody.has('Actions');\ntests[\"Body matches improveinsulation efficiency type for client\"]  = responseBody.has('installprogramthermostat')\ntests[\"Body matches lowerwatertempgas conservation type gas for client\"]  = responseBody.has('lowerwatertempgas')\ntests[\"Body does not match lowerwatertempelec commodity electric for client\"]  != responseBody.has('lowerwatertempelec')"
					}
				}
			],
			"request": {
				"url": "{{url}}/api/v1/action?CustomerId=993774751&AccountId=1218337093&PremiseId=1218337000",
				"method": "GET",
				"header": [
					{
						"key": "X-DateTime",
						"value": "04/24/2014 19:40:30",
						"description": ""
					},
					{
						"key": "X-CE-AccessKeyId",
						"value": "1e28d004a16ce944b628929c5caaccae6d4b",
						"description": ""
					},
					{
						"key": "X-CE-MessageId",
						"value": "{{$guid}}",
						"description": ""
					},
					{
						"key": "X-CE-Channel",
						"value": "Postman",
						"description": ""
					},
					{
						"key": "X-CE-Locale",
						"value": "en-US",
						"description": ""
					},
					{
						"key": "Authorization",
						"value": "Basic MWUyOGQwMDRhMTZjZTk0NGI2Mjg5MjljNWNhYWNjYWU2ZDRiOkRlbW9CYXNpY0tleTQ=",
						"description": ""
					}
				],
				"body": {
					"mode": "formdata",
					"formdata": []
				},
				"description": "get recommended actions for customer and filter"
			},
			"response": []
		},
		{
			"name": "4actionplanv1_get_responsesuccess_forcustomerwithcommoditykeys",
			"event": [
				{
					"listen": "test",
					"script": {
						"type": "text/javascript",
						"exec": "tests[\"Status code is 200\"] = responseCode.code === 200;\ntests[\"Body matches Actions (recommendations) for client\"] = responseBody.has('Actions');\ntests[\"Body matches improveinsulation efficiency type for client\"]  = responseBody.has('installprogramthermostat')\ntests[\"Body matches lowerwatertempgas conservation type gas for client\"]  = responseBody.has('lowerwatertempgas')\ntests[\"Body does not match lowerwatertempelec commodity electric for client\"]  != responseBody.has('lowerwatertempelec')"
					}
				}
			],
			"request": {
				"url": "{{url}}/api/v1/actionplan?CustomerId=993774751",
				"method": "GET",
				"header": [
					{
						"key": "X-DateTime",
						"value": "04/24/2014 19:40:30",
						"description": ""
					},
					{
						"key": "X-CE-AccessKeyId",
						"value": "1e28d004a16ce944b628929c5caaccae6d4b",
						"description": ""
					},
					{
						"key": "X-CE-MessageId",
						"value": "{{$guid}}",
						"description": ""
					},
					{
						"key": "X-CE-Channel",
						"value": "Postman",
						"description": ""
					},
					{
						"key": "X-CE-Locale",
						"value": "en-US",
						"description": ""
					},
					{
						"key": "Authorization",
						"value": "Basic MWUyOGQwMDRhMTZjZTk0NGI2Mjg5MjljNWNhYWNjYWU2ZDRiOkRlbW9CYXNpY0tleTQ=",
						"description": ""
					}
				],
				"body": {
					"mode": "formdata",
					"formdata": []
				},
				"description": "get recommended actions for customer and filter"
			},
			"response": []
		},
		{
			"name": "4actionplanv1_post_responsesuccess_whenstatusdatenotsupplied",
			"event": [
				{
					"listen": "test",
					"script": {
						"type": "text/javascript",
						"exec": "tests[\"Status code is 200\"] = responseCode.code === 200;\ntests[\"Empty body returned - with no errors\"] = responseBody.has('{}');\n\n"
					}
				}
			],
			"request": {
				"url": "{{url}}/api/v1/actionplan",
				"method": "POST",
				"header": [
					{
						"key": "X-DateTime",
						"value": "04/24/2014 19:40:30",
						"description": ""
					},
					{
						"key": "X-CE-AccessKeyId",
						"value": "1e28d004a16ce944b628929c5caaccae6d4b",
						"description": ""
					},
					{
						"key": "X-CE-MessageId",
						"value": "{{$guid}}",
						"description": ""
					},
					{
						"key": "X-CE-Channel",
						"value": "Postman",
						"description": ""
					},
					{
						"key": "X-CE-Locale",
						"value": "en-US",
						"description": ""
					},
					{
						"key": "Authorization",
						"value": "Basic MWUyOGQwMDRhMTZjZTk0NGI2Mjg5MjljNWNhYWNjYWU2ZDRiOkRlbW9CYXNpY0tleTQ=",
						"description": ""
					},
					{
						"key": "X-CE-Meta",
						"value": "#cecp:1#",
						"description": ""
					},
					{
						"key": "Content-Type",
						"value": "application/json",
						"description": ""
					}
				],
				"body": {
					"mode": "raw",
					"raw": "{ \"Customer\": \n {\"Id\": \"993774751\",\n  \"Accounts\": \n  [\n    {\"Id\": \"1218337093\",\"Premises\": \n     [{\"Id\": \"1218337000\",\"ActionStatuses\": \n       [\n         {\n           \"ActionKey\": \"lowerwatertemp\",\n           \"Status\": \"completed\",\n           \"SourceKey\": \"utility\"\n         }]}]}]},\"Validate\": true}"
				},
				"description": "verifies that gets successful response - for an authorized basic user posting to actionplan controller endpoint with status date defaulting to today's date/time. Validation is set to true on post."
			},
			"response": []
		},
		{
			"name": "4benchmarkv1_get_responsesuccess_when_scen1mostrecentdefaultcust",
			"event": [
				{
					"listen": "test",
					"script": {
						"type": "text/javascript",
						"exec": "tests[\"Status code is 200\"] = responseCode.code === 200;\n\ntests[\"premiseid returned in body\"] = responseBody.has('\"Id\": \"1218337000\"');\n"
					}
				}
			],
			"request": {
				"url": "{{url}}/api/v1/benchmark?CustomerId=993774751&StartDate=2014-01-01&EndDate=2015-01-01&Count=12",
				"method": "GET",
				"header": [
					{
						"key": "X-DateTime",
						"value": "04/24/2014 19:40:30",
						"description": ""
					},
					{
						"key": "X-CE-AccessKeyId",
						"value": "1e28d004a16ce944b628929c5caaccae6d4b",
						"description": ""
					},
					{
						"key": "X-CE-MessageId",
						"value": "{{$guid}}",
						"description": ""
					},
					{
						"key": "X-CE-Channel",
						"value": "Postman",
						"description": ""
					},
					{
						"key": "X-CE-Locale",
						"value": "en-US",
						"description": ""
					},
					{
						"key": "Authorization",
						"value": "Basic MWUyOGQwMDRhMTZjZTk0NGI2Mjg5MjljNWNhYWNjYWU2ZDRiOkRlbW9CYXNpY0tleTQ=",
						"description": ""
					},
					{
						"key": "X-CE-Meta",
						"value": "#cecp:1#",
						"description": ""
					}
				],
				"body": {
					"mode": "formdata",
					"formdata": []
				},
				"description": "return code success and data returned for benchmark request version 1 get, for basic authorization (87 clientid). group=Default benchmark scenario tested for most recent data. Contentful provider content returned (true).  Checks that premiseid that was requested is in the json response returned."
			},
			"response": []
		}
	]
}