{
	"id": "03ee202f-ae18-a0ad-ef24-27bebec3f246",
	"name": "Consumers_POC",
	"order": [
		"e615dc59-03c5-648b-14aa-11ff1dfb30ce"
	],
	"timestamp": 1470423646582,
	"owner": "9041",
	"hasRequests": true,
	"requests": [
		{
			"id": "e615dc59-03c5-648b-14aa-11ff1dfb30ce",
			"headers": "X-DateTime: 04/24/2014 19:40:30\nX-CE-AccessKeyId: 735e819cc0a94642b8589ee2e6e2ebeef905\nX-CE-MessageId: {{$guid}}\nX-CE-Channel: Postman\nX-CE-Locale: en-US\nX-CE-Meta: #cecp:1#\nAuthorization: Basic NzM1ZTgxOWNjMGE5NDY0MmI4NTg5ZWUyZTZlMmViZWVmOTA1OkNvbnN1bWVyc0Jhc2ljS2V5ODA=\n",
			"url": "{{url}}/api/v1/action?customerid=993774751&accountid=1218337093&premiseid=1218337000&ForceCalc=true",
			"preRequestScript": "",
			"pathVariables": {},
			"method": "GET",
			"data": [],
			"dataMode": "params",
			"tests": "tests[\"Status code is 200\"] = responseCode.code === 200;\ntests[\"Body matches Actions (recommendations) for client\"] = responseBody.has('Actions');\ntests[\"Body matches replacedishwasher efficiency type for client\"]  = responseBody.has('replacedishwasher')\ntests[\"Body does not match lowerwatertempelec commodity electric for client\"]  != responseBody.has('cutstandbywithpowerstrips')",
			"currentHelper": "normal",
			"helperAttributes": {},
			"time": 1470425771136,
			"name": "actionv1_get_responsesuccess_forcustomerConsumers",
			"description": "get recommended actinos for customer and filter by commoditykeys of gas.\nVerifies that actions for efficient and conservation types related to gas are found.\nVerifies with negative test that commodity electric actions is not found.\nRun without commodity keys",
			"collectionId": "03ee202f-ae18-a0ad-ef24-27bebec3f246",
			"responses": []
		}
	]
}