{
	"variables": [],
	"info": {
		"name": "ContentRefreshTrue",
		"_postman_id": "9e8d202a-776e-3fc2-2ea3-3b7197b1c871",
		"description": "Run these refresh true only in development, \nmoving off from the regular content scenario tests",
		"schema": "https://schema.getpostman.com/json/collection/v2.0.0/collection.json"
	},
	"item": [
		{
			"name": "contentv1_get_responsesuccess_when_getallcontentrefreshtrue",
			"event": [
				{
					"listen": "test",
					"script": {
						"type": "text/javascript",
						"exec": "tests[\"Status code is 200\"] = responseCode.code === 200;\n\n\ntests[\"refresh returns true in response message\"] = responseBody.has('\"Message\": \"refresh true\"');\n\n\n\ntests[\"Body matches content action key for calkandweatherize\"] = responseBody.has('\"key\": \"caulkandweatherize\"');\n\n\ntests[\"Body matches Action\"] = responseBody.has('\"Action\"');\ntests[\"Body matches Appliance\"] = responseBody.has('\"Appliance\"');\ntests[\"Body matches BenchmarkGroup\"] = responseBody.has('\"BenchmarkGroup\"');\ntests[\"Body matches Commodity\"] = responseBody.has('\"Commodity\"');\ntests[\"Body matches Configuration\"] = responseBody.has('\"Configuration\"');\ntests[\"Body matches Currency\"] = responseBody.has('\"Currency\"');\ntests[\"Body matches EndUse\"] = responseBody.has('\"EndUse\"');\ntests[\"Body matches Measurement\"] = responseBody.has('\"Measurement\"');\ntests[\"Body matches ProfileAttribute\"] = responseBody.has('\"ProfileAttribute\"');\ntests[\"Body matches TextContent\"] = responseBody.has('\"TextContent\"');\ntests[\"Body matches UOM\"] = responseBody.has('\"UOM\"');"
					}
				}
			],
			"request": {
				"url": "{{url}}/api/v1/content?refresh=true&IncludeContent=true",
				"method": "GET",
				"header": [
					{
						"key": "X-DateTime",
						"value": "04/24/2014 19:40:30",
						"description": ""
					},
					{
						"key": "X-CE-AccessKeyId",
						"value": "{{ceaccesskey87}}",
						"description": ""
					},
					{
						"key": "X-CE-MessageId",
						"value": "{{$guid}}",
						"description": ""
					},
					{
						"key": "X-CE-Channel",
						"value": "Postman",
						"description": ""
					},
					{
						"key": "X-CE-Locale",
						"value": "en-US",
						"description": ""
					},
					{
						"key": "Authorization",
						"value": "{{authorization87}}",
						"description": ""
					},
					{
						"key": "X-CE-Meta",
						"value": "#cecp:1#",
						"description": ""
					}
				],
				"body": {
					"mode": "formdata",
					"formdata": []
				},
				"description": "Retrieval for all content, refresh is true and include content is true. \nRun in dev or localdev environment only."
			},
			"response": []
		},
		{
			"name": "contentv1_get_responsesuccess_when_type_textcontent_localerussia",
			"event": [
				{
					"listen": "test",
					"script": {
						"type": "text/javascript",
						"exec": "tests[\"Status code is 200\"] = responseCode.code === 200;\n\n\ntests[\"refresh returns true in response message\"] = responseBody.has('\"Message\": \"refresh true\"');\n\n\n\ntests[\"Body matches shorttext for action.lowerhottubtemp.name\"] = responseBody.has('\"shorttext\": \"Снизить температуру вашего горячего ушата\"');\n\n\ntests[\"Body matches TextContent\"] = responseBody.has('\"TextContent\"');"
					}
				}
			],
			"request": {
				"url": "{{url}}/api/v1/content?refresh=&IncludeContent=true&Type=configuration",
				"method": "GET",
				"header": [
					{
						"key": "X-DateTime",
						"value": "04/24/2014 19:40:30",
						"description": ""
					},
					{
						"key": "X-CE-AccessKeyId",
						"value": "3588433F99244358A51BD39DB01C6DDE",
						"description": ""
					},
					{
						"key": "X-CE-MessageId",
						"value": "{{$guid}}",
						"description": ""
					},
					{
						"key": "X-CE-Channel",
						"value": "Postman",
						"description": ""
					},
					{
						"key": "X-CE-Locale",
						"value": "ru-RU",
						"description": ""
					},
					{
						"key": "Authorization",
						"value": "{{authorization256}}",
						"description": ""
					},
					{
						"key": "X-CE-Meta",
						"value": "#cecp:1#",
						"description": ""
					}
				],
				"body": {
					"mode": "formdata",
					"formdata": []
				},
				"description": "Retrieval for specific type of textcontent. Locale specified is Russian: ru-RU. Checks for shorttext returned in Russian for lowerhottubtempname. \nRefresh content is true.\nRun in dev or localdev environment only."
			},
			"response": []
		},
		{
			"name": "61contentv1_get_responsesuccess_when_getallcontentrefreshtrue copy",
			"event": [
				{
					"listen": "test",
					"script": {
						"type": "text/javascript",
						"exec": "tests[\"Status code is 200\"] = responseCode.code === 200;\n\n\ntests[\"refresh returns true in response message\"] = responseBody.has('\"Message\": \"refresh true\"');\n\n\n\ntests[\"Body matches content action key for calkandweatherize\"] = responseBody.has('\"key\": \"caulkandweatherize\"');\n\n\ntests[\"Body matches Action\"] = responseBody.has('\"Action\"');\ntests[\"Body matches Appliance\"] = responseBody.has('\"Appliance\"');\ntests[\"Body matches BenchmarkGroup\"] = responseBody.has('\"BenchmarkGroup\"');\ntests[\"Body matches Commodity\"] = responseBody.has('\"Commodity\"');\ntests[\"Body matches Configuration\"] = responseBody.has('\"Configuration\"');\ntests[\"Body matches Currency\"] = responseBody.has('\"Currency\"');\ntests[\"Body matches EndUse\"] = responseBody.has('\"EndUse\"');\ntests[\"Body matches Measurement\"] = responseBody.has('\"Measurement\"');\ntests[\"Body matches ProfileAttribute\"] = responseBody.has('\"ProfileAttribute\"');\ntests[\"Body matches TextContent\"] = responseBody.has('\"TextContent\"');\ntests[\"Body matches UOM\"] = responseBody.has('\"UOM\"');"
					}
				}
			],
			"request": {
				"url": "{{url}}/api/v1/content?refresh=true&IncludeContent=true",
				"method": "GET",
				"header": [
					{
						"key": "X-DateTime",
						"value": "04/24/2014 19:40:30",
						"description": ""
					},
					{
						"key": "X-CE-AccessKeyId",
						"value": "{{ceaccesskey61}}",
						"description": ""
					},
					{
						"key": "X-CE-MessageId",
						"value": "{{$guid}}",
						"description": ""
					},
					{
						"key": "X-CE-Channel",
						"value": "Postman",
						"description": ""
					},
					{
						"key": "X-CE-Locale",
						"value": "en-US",
						"description": ""
					},
					{
						"key": "Authorization",
						"value": "Basic MDcyYzZiZmJjNTZmMWU0YjBkNjhhZDVkYjgwNjIyNzdiOTc4OkxBRFdQQmFzaWNLZXk2MQ==",
						"description": ""
					},
					{
						"key": "X-CE-Meta",
						"value": "#cecp:1#",
						"description": ""
					}
				],
				"body": {
					"mode": "formdata",
					"formdata": []
				},
				"description": "Retrieval for all content, refresh is true and include content is true. \nRun in dev or localdev environment only.\nThis is for content for Water Portal customer 61 clientid"
			},
			"response": []
		}
	]
}