{
	"variables": [],
	"info": {
		"name": "GenerateEndpointTrackingData",
		"_postman_id": "af7168aa-b942-e445-662b-308a99c629d6",
		"description": "",
		"schema": "https://schema.getpostman.com/json/collection/v2.0.0/collection.json"
	},
	"item": [
		{
			"name": "gen_benchmarkv1_get_responsesuccess_when_validbasicauthheader",
			"event": [
				{
					"listen": "test",
					"script": {
						"type": "text/javascript",
						"exec": "tests[\"Status code is 200\"] = responseCode.code === 200;\n"
					}
				}
			],
			"request": {
				"url": "{{url}}/api/v1/benchmark?CustomerId=TC87_Cust7195&GroupKeys=default%2Cmyzipcode&StartDate=2014-01-01&EndDate=2014-06-01&Count=1&MeasurementsKeys=points%2Ctrees%2Cco2&IncludeContent=false",
				"method": "GET",
				"header": [
					{
						"key": "X-DateTime",
						"value": "04/24/2014 19:40:30",
						"description": ""
					},
					{
						"key": "X-CE-AccessKeyId",
						"value": "{{ceaccesskey87}}",
						"description": ""
					},
					{
						"key": "X-CE-MessageId",
						"value": "{{$guid}}",
						"description": ""
					},
					{
						"key": "X-CE-Channel",
						"value": "Postman",
						"description": ""
					},
					{
						"key": "X-CE-Locale",
						"value": "en-US",
						"description": ""
					},
					{
						"key": "Authorization",
						"value": "{{authorization87}}",
						"description": ""
					}
				],
				"body": {
					"mode": "formdata",
					"formdata": []
				},
				"description": "return code success and data returned for benchmark request version 1 get, for basic authorization (256 clientid)"
			},
			"response": []
		},
		{
			"name": "gen_billdisaggv1_get_authorized_whenendpointenabled_authenticatedbasicuser",
			"event": [
				{
					"listen": "test",
					"script": {
						"type": "text/javascript",
						"exec": "tests[\"Status code is 200\"] = responseCode.code === 200;"
					}
				}
			],
			"request": {
				"url": "{{url}}/api/v1/billdisagg?CustomerId=QA87Customer1&AccountId=QA87Account1&StartDate=1%2F1%2F2013&EndDate=4%2F30%2F2014&IncludeContent=True",
				"method": "GET",
				"header": [
					{
						"key": "X-DateTime",
						"value": "04/24/2014 19:40:30",
						"description": ""
					},
					{
						"key": "X-CE-AccessKeyId",
						"value": "{{ceaccesskey87}}",
						"description": ""
					},
					{
						"key": "X-CE-MessageId",
						"value": "{{$guid}}",
						"description": ""
					},
					{
						"key": "X-CE-Channel",
						"value": "Postman",
						"description": ""
					},
					{
						"key": "X-CE-Locale",
						"value": "en-US",
						"description": ""
					},
					{
						"key": "Authorization",
						"value": "{{authorization87}}",
						"description": ""
					}
				],
				"body": {
					"mode": "formdata",
					"formdata": []
				},
				"description": "Get success status code - so is authorized when basic user is accessing endpoint that has been enabled for them."
			},
			"response": []
		},
		{
			"name": "gen_echov1_get_responsesuccess_when_validbasicauthheader",
			"event": [
				{
					"listen": "test",
					"script": {
						"type": "text/javascript",
						"exec": "tests[\"Status code is 200\"] = responseCode.code === 200;\n\ntests[\"Body matches string\"] = responseBody.has(\"QAtesttext\");"
					}
				}
			],
			"request": {
				"url": "{{url}}/api/v1/echo?Say=QAtesttext&Name=Test123&Number=1",
				"method": "GET",
				"header": [
					{
						"key": "X-DateTime",
						"value": "04/24/2014 19:40:30",
						"description": ""
					},
					{
						"key": "X-CE-AccessKeyId",
						"value": "{{ceaccesskey87}}",
						"description": ""
					},
					{
						"key": "X-CE-MessageId",
						"value": "{{$guid}}",
						"description": ""
					},
					{
						"key": "X-CE-Channel",
						"value": "Postman",
						"description": ""
					},
					{
						"key": "X-CE-Locale",
						"value": "en-US",
						"description": ""
					},
					{
						"key": "Authorization",
						"value": "{{authorization87}}",
						"description": ""
					},
					{
						"key": "X-CE-Meta",
						"value": "",
						"description": ""
					}
				],
				"body": {
					"mode": "formdata",
					"formdata": []
				},
				"description": "This is a test when submitting echo request with valid headers. Checks response back status code 200 and that the Say parameter is echoed back on the response."
			},
			"response": []
		}
	]
}