{
	"id": "d2b08e59-c2df-c83a-8527-3ca8cbf380ea",
	"name": "GetConsumptionv2AO",
	"description": "Get Consumption v2 Aclara One Tests",
	"order": [
		"04051acd-631c-bbba-ebad-f719f255e439",
		"9cbdf29e-f318-7d09-2aaa-b2dad56d512b",
		"021e9758-5569-b3b4-309d-6180cfdefe1c",
		"dbbb2ea4-4d1e-62e6-4e56-97af5d935240",
		"e97cad32-5f2c-7a41-9e63-e0d97579ab15",
		"48e8c986-5473-7fb2-7c96-a7e47403cf2e",
		"91b9976d-4553-d4a2-987f-6abf68f2da9d",
		"f4a2aa7d-9874-3823-d829-a9b1e796f45c",
		"f32a0165-b0f0-dcb2-d4d8-e4bc5cbba355",
		"b33c26cc-5ccc-3667-5f53-6abbff1b9669",
		"1a026139-49be-7ee5-b708-ea3f4c6e224a",
		"37091244-8624-16c0-ad8b-b4077f976fd2",
		"93435892-671f-a2b6-9229-1156848547ca",
		"76471a25-a05e-689a-ce5a-6dd28906d73b",
		"79b1510a-fcef-dfe0-c1bc-53391453e373",
		"53f67345-d641-320a-2d03-63a331bd11bc",
		"30561f12-e3a7-fe64-28d4-150e006f6f28",
		"330642ec-1757-0f77-b25b-97bd770640d5",
		"be097189-eb0e-39aa-2e53-ef929f42c523",
		"94427061-ba0c-9a49-ea6b-f9b2943b4df5",
		"f108eeab-c7e4-897d-8ea7-13b361a309af",
		"8c0200a6-beeb-6a71-42a0-db54cd60294c",
		"e9ebaf41-3266-11fb-37a0-244c2a94ad4c",
		"c89f611b-b928-fd5c-9bcd-0de70fa9ff7f",
		"86c94b69-3132-231d-8ff8-93ed9f6b1f71",
		"cd732998-3fef-9e2c-5ee0-790c7072267d",
		"33e72b5e-0499-6b03-6417-f6c516a9d19a",
		"72a8dc46-44e0-7914-a0db-819c7a76be9a",
		"391d563d-7b79-e2dc-864a-6fe3cad89c16",
		"3f641946-62f6-0e63-a61c-8095648ab612",
		"bf406fab-54a5-7455-018d-8af022a26c39",
		"51d082da-84cf-568f-4369-32da0cc71739",
		"481b52bb-7454-7e0d-a39e-e054ccb9fd02",
		"139c6930-8f23-f416-4537-daf1b54c206e",
		"18d86be5-357f-a161-bcc6-9bd8d55a64ca"
	],
	"folders": [],
	"timestamp": 0,
	"owner": "9041",
	"public": false,
	"requests": [
		{
			"id": "021e9758-5569-b3b4-309d-6180cfdefe1c",
			"name": "consumption_get_responsesuccess_when_month_waterincres",
			"description": "Retrieval for consumption get for client 87 for customer, \naccount and premise. Page index default. include content is true.  \nThe resolutionkey (day), commoditykey (water) are parameters in the request. Checks that customer, account, resolutin key day, commodity key gas are returned in response.\nChecks that content node of uom and resolution are also returned. \nWith include resolutions",
			"collectionId": "d2b08e59-c2df-c83a-8527-3ca8cbf380ea",
			"method": "GET",
			"headers": "X-DateTime: 04/24/2014 19:40:30\nX-CE-AccessKeyId: {{ceaccesskey87}}\nX-CE-MessageId: {{$guid}}\nX-CE-Channel: Postman\nX-CE-Locale: en-US\nAuthorization: {{authorization87}}\nX-CE-Meta: #cecp:1#",
			"dataMode": "params",
			"data": [],
			"rawModeData": "",
			"tests": "tests[\"Status code is 200\"] = responseCode.code === 200;\n\ntests[\"CustomerId in response\"] = responseBody.has(' \"CustomerId\": \"lrltest421\"');\ntests[\"AccountId in response\"] = responseBody.has(' \"AccountId\": \"lrltest421\"');\n\ntests[\"Body matches CommodityKey water\"] = responseBody.has(' \"CommodityKey\": \"water\"');\n\ntests[\"Body matches ResolutionKey day\"] = responseBody.has('\"ResolutionKey\": \"month\"');\n\ntests[\"Body does match Resolutions Available\"] = responseBody.has('\"ResolutionsAvailable\"');\n\ntests[\"Body matches Content of uom\"] =responseBody.has('\"UOMKey\": \"gal\"');",
			"preRequestScript": "",
			"url": "{{url}}/api/v2/consumption?CustomerId=lrltest421&AccountId=lrltest421&PremiseId=lrltest421&Commoditykey=water&ServicePointId=lrltest421&Meterids=lrltest421&StartDate=2015-04-01&EndDate=2016-05-17&ResolutionKey=month&includeresolutions=true",
			"responses": []
		},
		{
			"id": "04051acd-631c-bbba-ebad-f719f255e439",
			"name": "consumption_get_responsesuccess_when_day_waterwcontent",
			"description": "Retrieval for consumption get for client 87 for customer, \naccount and premise. Page index default. include content is true. \nThe resolutionkey (day) are\nparameters in the request. \nChecks that customer, account, resolutin key day, commodity key \nare returned in response.\nChecks that content node of uom and resolution are also returned.",
			"collectionId": "d2b08e59-c2df-c83a-8527-3ca8cbf380ea",
			"method": "GET",
			"headers": "X-DateTime: 04/24/2014 19:40:30\nX-CE-AccessKeyId: {{ceaccesskey87}}\nX-CE-MessageId: {{$guid}}\nX-CE-Channel: Postman\nX-CE-Locale: en-US\nAuthorization: {{authorization87}}\nX-CE-Meta: #cecp:1#",
			"dataMode": "params",
			"data": [],
			"rawModeData": "",
			"tests": "tests[\"Status code is 200\"] = responseCode.code === 200;\n\ntests[\"CustomerId in response\"] = responseBody.has(' \"CustomerId\": \"lrltest421\"');\ntests[\"AccountId in response\"] = responseBody.has(' \"AccountId\": \"lrltest421\"');\n\ntests[\"Body matches CommodityKey water\"] = responseBody.has(' \"CommodityKey\": \"water\"'); \n\ntests[\"Body matches ResolutionKey day\"] = responseBody.has('\"ResolutionKey\": \"day\"');\n\ntests[\"Body matches Resolutions Available\"] = responseBody.has('\"ResolutionsAvailable\"');\n\ntests[\"Body matches Content of uom\"] =responseBody.has('\"key\": \"water\"');",
			"preRequestScript": "",
			"url": "{{url}}/api/v2/consumption?CustomerId=lrltest421&AccountId=lrltest421&PremiseId=lrltest421&ServicePointId=lrltest421&Meterids=lrltest421&StartDate=2015-04-01&EndDate=2016-05-17&ResolutionKey=day&includecontent=true&IncludeResolutions=true",
			"responses": []
		},
		{
			"id": "139c6930-8f23-f416-4537-daf1b54c206e",
			"headers": "X-DateTime: 04/24/2014 19:40:30\nX-CE-AccessKeyId: {{ceaccesskey87}}\nX-CE-MessageId: {{$guid}}\nX-CE-Channel: Postman\nX-CE-Locale: en-US\nAuthorization: {{authorization87}}\nX-CE-Meta: #cecp:1#\n",
			"url": "{{url}}/api/v2/consumption?CustomerId=9000TOU123TEST&AccountId=9000TOU123TEST&PremiseId=9000TOU123TEST&ServicePointId=SP9000TOU123TEST&Meterids=M9000TOU0123TEST&StartDate=2017-01-01T00:00:00-05:00&EndDate=2017-02-14T00:00:00-05:00&ResolutionKey=day&includecontent=true&IncludeResolutions=true&includeweather=true&zipcode=02481&Country=us",
			"preRequestScript": "",
			"pathVariables": {},
			"method": "GET",
			"data": [],
			"dataMode": "params",
			"version": 2,
			"tests": "tests[\"Status code is 200\"] = responseCode.code === 200;\n\ntests[\"Body matches ResolutionKey day\"] = responseBody.has('\"ResolutionKey\": \"day\"');\n\ntests[\"Body matches Resolutions Available\"] = responseBody.has('\"ResolutionsAvailable\"');\n\ntests[\"Body matches touid 3\"] =responseBody.has('\"TouKey\": \"shoulder1\"');\n\ntests[\"Body matches CommodityKey electric\"] = responseBody.has(' \"CommodityKey\": \"electric\"');\n\n\n\ntests[\"Body matches weather\"] = responseBody.has(\"Weather\");",
			"currentHelper": "normal",
			"helperAttributes": {},
			"time": 1487018228184,
			"name": "consumptionv2_get_responsesuccess_when_elecday_TOU3dayresweatherETtime",
			"description": "Retrieval for consumption get for client 87 for customer, \naccount and premise. Page index default. include content is true. \nThe resolutionkey (day) are\nparameters in the request. \nChecks that customer, account, resolutin key day, commodity key \nare returned in response.\nChecks that content node of uom and resolution are also returned.\nweather included.  ET time for request",
			"collectionId": "d2b08e59-c2df-c83a-8527-3ca8cbf380ea",
			"responses": []
		},
		{
			"id": "18d86be5-357f-a161-bcc6-9bd8d55a64ca",
			"headers": "X-DateTime: 04/24/2014 19:40:30\nX-CE-AccessKeyId: {{ceaccesskey87}}\nX-CE-MessageId: {{$guid}}\nX-CE-Channel: Postman\nX-CE-Locale: en-US\nAuthorization: {{authorization87}}\nX-CE-Meta: #cecp:1#\n",
			"url": "{{url}}/api/v2/consumption?CustomerId=9000TOU123TEST&AccountId=9000TOU123TEST&PremiseId=9000TOU123TEST&ServicePointId=SP9000TOU123TEST&Meterids=M9000TOU0123TEST, M9000TOUE4&StartDate=2017-02-04 T05:00:00&EndDate=2017-02-06 T05:00:00&ResolutionKey=day&includecontent=true&IncludeResolutions=true",
			"preRequestScript": "",
			"pathVariables": {},
			"method": "GET",
			"data": [],
			"dataMode": "params",
			"version": 2,
			"tests": "tests[\"Status code is 200\"] = responseCode.code === 200;\n\ntests[\"Body matches ResolutionKey month\"] = responseBody.has('\"ResolutionKey\": \"month\"');\n\ntests[\"Body matches Resolutions Available\"] = responseBody.has('\"ResolutionsAvailable\"');\n\ntests[\"Body matches touid 3\"] =responseBody.has('\"TouKey\": \"shoulder1\"');\ntests[\"Body matches CommodityKey electric\"] = responseBody.has(' \"CommodityKey\": \"electric\"');",
			"currentHelper": "normal",
			"helperAttributes": {},
			"time": 1487019922285,
			"name": "consumptionv2_get_responsesuccess_when_dayelec_TOU3multimetermonthres",
			"description": "Retrieval for consumption get for client 87 for customer, \naccount and premise. Page index default. include content is true. Multiple meters are tested.\nThe resolutionkey (month) are\nparameters in the request. \nChecks that customer, account, resolutin key day, commodity key are returned in response.\nChecks that content node of uom and resolution are also returned.",
			"collectionId": "d2b08e59-c2df-c83a-8527-3ca8cbf380ea",
			"responses": []
		},
		{
			"id": "1a026139-49be-7ee5-b708-ea3f4c6e224a",
			"name": "consumption_get_responsesuccess_when_30min_sum2multisvc",
			"description": "Retrieval for consumption get for client 87 for customer, \naccount and premise for 30 minute electric azure table storage. \nVerify usages are added up for both meters on same premise.\nMultiple services on same premise - don't specify the service point but include both meterids",
			"collectionId": "d2b08e59-c2df-c83a-8527-3ca8cbf380ea",
			"method": "GET",
			"headers": "X-DateTime: 04/24/2014 19:40:30\nX-CE-AccessKeyId: {{ceaccesskey87}}\nX-CE-MessageId: {{$guid}}\nX-CE-Channel: Postman\nX-CE-Locale: en-US\nAuthorization: {{authorization87}}\nX-CE-Meta: #cecp:1#",
			"dataMode": "params",
			"data": [],
			"rawModeData": "",
			"tests": "tests[\"Status code is 200\"] = responseCode.code === 200;\n\n\ntests[\"Body does match Resolutions Available\"] = responseBody.has('\"ResolutionsAvailable\"');\n\ntests[\"Body matches resolutionkey thirty\"] =responseBody.has('\"ResolutionKey\": \"thirty\"');",
			"preRequestScript": "",
			"url": "{{url}}/api/v2/consumption?CustomerId=1000001&AccountId=1000001&PremiseId=1000001&Meterids=M1_1000001_elec,M2_1000001_elec&ResolutionKey=thirty&includeresolutions=true&StartDate=2016-01-01T00:00&EndDate=2016-03-01T22:00:00",
			"responses": []
		},
		{
			"id": "30561f12-e3a7-fe64-28d4-150e006f6f28",
			"headers": "X-DateTime: 04/24/2014 19:40:30\nX-CE-AccessKeyId: {{ceaccesskey87}}\nX-CE-MessageId: {{$guid}}\nX-CE-Channel: Postman\nX-CE-Locale: en-US\nAuthorization: {{authorization87}}\nX-CE-Meta: #cecp:1#\n",
			"url": "{{url}}/api/v2/consumption?CustomerId=9000TOU123TEST&AccountId=9000TOU123TEST&PremiseId=9000TOU123TEST&ServicePointId=SP9000TOU123TEST&Meterids=M9000TOU0123TEST&StartDate=2017-01-01&EndDate=2017-02-14&ResolutionKey=day&includecontent=true&IncludeResolutions=true",
			"preRequestScript": "",
			"pathVariables": {},
			"method": "GET",
			"data": [],
			"dataMode": "params",
			"version": 2,
			"tests": "tests[\"Status code is 200\"] = responseCode.code === 200;\n\ntests[\"Body matches ResolutionKey day\"] = responseBody.has('\"ResolutionKey\": \"day\"');\n\ntests[\"Body matches Resolutions Available\"] = responseBody.has('\"ResolutionsAvailable\"');\n\ntests[\"Body matches touid 3\"] =responseBody.has('\"TouKey\": \"shoulder1\"');\n\ntests[\"Body matches CommodityKey electric\"] = responseBody.has(' \"CommodityKey\": \"electric\"');",
			"currentHelper": "normal",
			"helperAttributes": {},
			"time": 1487007802852,
			"name": "consumptionv2_get_responsesuccess_when_elecday_TOU3dayres",
			"description": "Retrieval for consumption get for client 87 for customer, \naccount and premise. Page index default. include content is true. \nThe resolutionkey (day) are\nparameters in the request. \nChecks that customer, account, resolutin key day, commodity key \nare returned in response.\nChecks that content node of uom and resolution are also returned.",
			"collectionId": "d2b08e59-c2df-c83a-8527-3ca8cbf380ea",
			"responses": []
		},
		{
			"id": "330642ec-1757-0f77-b25b-97bd770640d5",
			"headers": "X-DateTime: 04/24/2014 19:40:30\nX-CE-AccessKeyId: {{ceaccesskey87}}\nX-CE-MessageId: {{$guid}}\nX-CE-Channel: Postman\nX-CE-Locale: en-US\nAuthorization: {{authorization87}}\nX-CE-Meta: #cecp:1#\n",
			"url": "{{url}}/api/v2/consumption?CustomerId=9000TOU123TEST&AccountId=9000TOU123TEST&PremiseId=9000TOU123TEST&ServicePointId=SP9000TOU123TEST&Meterids=M9000TOU0123TEST&StartDate=2017-01-01&EndDate=2017-02-14&ResolutionKey=month&includecontent=true&IncludeResolutions=true",
			"preRequestScript": "",
			"pathVariables": {},
			"method": "GET",
			"data": [],
			"dataMode": "params",
			"version": 2,
			"tests": "tests[\"Status code is 200\"] = responseCode.code === 200;\n\ntests[\"Body matches ResolutionKey day\"] = responseBody.has('\"ResolutionKey\": \"month\"');\n\ntests[\"Body matches Resolutions Available\"] = responseBody.has('\"ResolutionsAvailable\"');\n\ntests[\"Body matches touid 3\"] =responseBody.has('\"TouKey\": \"shoulder1\"');\ntests[\"Body matches CommodityKey electric\"] = responseBody.has(' \"CommodityKey\": \"electric\"');",
			"currentHelper": "normal",
			"helperAttributes": {},
			"time": 1487007757891,
			"name": "consumptionv2_get_responsesuccess_when_dayelec_TOU3monthres",
			"description": "Retrieval for consumption get for client 87 for customer, \naccount and premise. Page index default. include content is true. \nThe resolutionkey (month) are\nparameters in the request. \nChecks that customer, account, resolutin key day, commodity key \nare returned in response.\nChecks that content node of uom and resolution are also returned.",
			"collectionId": "d2b08e59-c2df-c83a-8527-3ca8cbf380ea",
			"responses": []
		},
		{
			"id": "33e72b5e-0499-6b03-6417-f6c516a9d19a",
			"headers": "X-DateTime: 04/24/2014 19:40:30\nX-CE-AccessKeyId: {{ceaccesskey87}}\nX-CE-MessageId: {{$guid}}\nX-CE-Channel: Postman\nX-CE-Locale: en-US\nAuthorization: {{authorization87}}\nX-CE-Meta: #cecp:1#\n",
			"url": "{{url}}/api/v2/consumption?CustomerId=911111104&AccountId=933333304&PremiseId=922222204&Commoditykey=electric&ServicePointId=SP_M_944444404_ele&Meterids=955555504&StartDate=2015-12-21&EndDate=2016-02-02&ResolutionKey=day&includecontent=true&IncludeResolutions=false&IncludeAverageUsage=true",
			"preRequestScript": "",
			"pathVariables": {},
			"method": "GET",
			"data": [],
			"dataMode": "params",
			"version": 2,
			"tests": "tests[\"Status code is 200\"] = responseCode.code === 200;\r\n\r\ntests[\"Body matches ResolutionKey day\"] = responseBody.has('\"ResolutionKey\": \"day\"');\r\n\r\ntests[\"Body matches AverageUsage\"] = responseBody.has('\"AverageUsage\"');\r\n\r\ntests[\"Body matches UOMKey\"] =responseBody.has('\"UOMKey\": \"kwh\"');\r\n\r\ntests[\"Body matches CommodityKey electric\"] = responseBody.has(' \"CommodityKey\": \"electric\"');",
			"currentHelper": "normal",
			"helperAttributes": {},
			"time": 1474292485489,
			"name": "consumptionv2_get_AverageUsage_when_electric_Ray1",
			"description": "Retrieval for consumption get for client 87 for customer, \naccount and premise. Page index default. include content is true. \nThe resolutionkey (day) are\nparameters in the request. \nChecks that customer, account, resolution key day, commodity key and Average usage is returned in response.\nChecks that content node of uom and resolution are also returned.",
			"collectionId": "d2b08e59-c2df-c83a-8527-3ca8cbf380ea",
			"responses": []
		},
		{
			"id": "37091244-8624-16c0-ad8b-b4077f976fd2",
			"name": "consumption_get_responsesuccess_when_mixedcase60min_electric",
			"description": "Different case on get than actual data for customerid, test it does Retrieval for consumption get for client 87 for customer, \naccount and premise for 60 minute electric",
			"collectionId": "d2b08e59-c2df-c83a-8527-3ca8cbf380ea",
			"method": "GET",
			"headers": "X-DateTime: 04/24/2014 19:40:30\nX-CE-AccessKeyId: {{ceaccesskey87}}\nX-CE-MessageId: {{$guid}}\nX-CE-Channel: Postman\nX-CE-Locale: en-US\nAuthorization: {{authorization87}}\nX-CE-Meta: #cecp:1#",
			"dataMode": "params",
			"data": [],
			"rawModeData": "",
			"tests": "tests[\"Status code is 200\"] = responseCode.code === 200;\n\n\ntests[\"Body does match Resolutions Available\"] = responseBody.has('\"ResolutionsAvailable\"');\n\ntests[\"Body matches resolutionkey hour\"] =responseBody.has('\"ResolutionKey\": \"hour\"');",
			"preRequestScript": "",
			"url": "{{url}}/api/v2/consumption?CustomerId=9000e1&AccountId=9000E1&PremiseId=9000E1P&ServicePointId=SP_9000e1&Meterids=m9000e1&ResolutionKey=hour&includeresolutions=true&StartDate=2016-04-01&EndDate=2016-05-17",
			"responses": []
		},
		{
			"id": "391d563d-7b79-e2dc-864a-6fe3cad89c16",
			"headers": "X-DateTime: 04/24/2014 19:40:30\nX-CE-AccessKeyId: {{ceaccesskey87}}\nX-CE-MessageId: {{$guid}}\nX-CE-Channel: Postman\nX-CE-Locale: en-US\nAuthorization: {{authorization87}}\nX-CE-Meta: #cecp:1#\n",
			"url": "{{url}}/api/v2/consumption?CustomerId=3CommCust1&AccountId=3CommAcct1&PremiseId=3CommPrem1&ServicePointId=3CommEServP1&Meterids=3CommEMeter1&ResolutionKey=hour&includeresolutions=true&StartDate=2016-12-31&EndDate=2017-01-10",
			"preRequestScript": "",
			"pathVariables": {},
			"method": "GET",
			"data": [],
			"dataMode": "params",
			"tests": "tests[\"Status code is 200\"] = responseCode.code === 200;\n\n\ntests[\"Body does match Resolutions Available\"] = responseBody.has('\"ResolutionsAvailable\"');\n\ntests[\"Body matches resolutionkey hour\"] =responseBody.has('\"ResolutionKey\": \"hour\"');",
			"currentHelper": "normal",
			"helperAttributes": {},
			"time": 1484926207258,
			"name": "consumption_get_responsesuccess_when_60min_electric_UnSpecTime",
			"description": "Retrieval for consumption get for client 87 for customer, \naccount and premise for 60 minute electric",
			"collectionId": "d2b08e59-c2df-c83a-8527-3ca8cbf380ea",
			"responses": []
		},
		{
			"id": "3f641946-62f6-0e63-a61c-8095648ab612",
			"headers": "X-DateTime: 04/24/2014 19:40:30\nX-CE-AccessKeyId: {{ceaccesskey87}}\nX-CE-MessageId: {{$guid}}\nX-CE-Channel: Postman\nX-CE-Locale: en-US\nAuthorization: {{authorization87}}\nX-CE-Meta: #cecp:1#\n",
			"url": "{{url}}/api/v2/consumption?CustomerId=3CommCust1&AccountId=3CommAcct1&PremiseId=3CommPrem1&ServicePointId=3CommEServP1&Meterids=3CommEMeter1&ResolutionKey=hour&includeresolutions=true&StartDate=2016-12-31T00:00:00-00:00&EndDate=2017-01-10T00:00:00-00:00",
			"preRequestScript": "",
			"pathVariables": {},
			"method": "GET",
			"data": [],
			"dataMode": "params",
			"tests": "tests[\"Status code is 200\"] = responseCode.code === 200;\n\n\ntests[\"Body does match Resolutions Available\"] = responseBody.has('\"ResolutionsAvailable\"');\n\ntests[\"Body matches resolutionkey hour\"] =responseBody.has('\"ResolutionKey\": \"hour\"');",
			"currentHelper": "normal",
			"helperAttributes": {},
			"time": 1484926277959,
			"name": "consumption_get_responsesuccess_when_60min_electric_GMT_Time",
			"description": "Retrieval for consumption get for client 87 for customer, \naccount and premise for 60 minute electric",
			"collectionId": "d2b08e59-c2df-c83a-8527-3ca8cbf380ea",
			"responses": []
		},
		{
			"id": "481b52bb-7454-7e0d-a39e-e054ccb9fd02",
			"headers": "X-DateTime: 04/24/2014 19:40:30\nX-CE-AccessKeyId: {{ceaccesskey87}}\nX-CE-MessageId: {{$guid}}\nX-CE-Channel: Postman\nX-CE-Locale: en-US\nAuthorization: {{authorization87}}\nX-CE-Meta: #cecp:1#\n",
			"url": "{{url}}/api/v2/consumption?CustomerId=9000TOU123TEST&AccountId=9000TOU123TEST&PremiseId=9000TOU123TEST&ServicePointId=SP9000TOU123TEST&Meterids=M9000TOU0123TEST&StartDate=2017-01-01&EndDate=2017-02-14&ResolutionKey=day&includecontent=true&IncludeResolutions=true&includeweather=true&zipcode=02481&Country=us",
			"preRequestScript": "",
			"pathVariables": {},
			"method": "GET",
			"data": [],
			"dataMode": "params",
			"version": 2,
			"tests": "tests[\"Status code is 200\"] = responseCode.code === 200;\n\ntests[\"Body matches ResolutionKey day\"] = responseBody.has('\"ResolutionKey\": \"day\"');\n\ntests[\"Body matches Resolutions Available\"] = responseBody.has('\"ResolutionsAvailable\"');\n\ntests[\"Body matches touid 3\"] =responseBody.has('\"TouKey\": \"shoulder1\"');\n\ntests[\"Body matches CommodityKey electric\"] = responseBody.has(' \"CommodityKey\": \"electric\"');\n\n\n\ntests[\"Body matches weather\"] = responseBody.has(\"Weather\");",
			"currentHelper": "normal",
			"helperAttributes": {},
			"time": 1487008188055,
			"name": "consumptionv2_get_responsesuccess_when_elecday_TOU3dayresweather",
			"description": "Retrieval for consumption get for client 87 for customer, \naccount and premise. Page index default. include content is true. \nThe resolutionkey (day) are\nparameters in the request. \nChecks that customer, account, resolutin key day, commodity key \nare returned in response.\nChecks that content node of uom and resolution are also returned.\nweather included.",
			"collectionId": "d2b08e59-c2df-c83a-8527-3ca8cbf380ea",
			"responses": []
		},
		{
			"id": "48e8c986-5473-7fb2-7c96-a7e47403cf2e",
			"headers": "X-DateTime: 04/24/2014 19:40:30\nX-CE-AccessKeyId: {{ceaccesskey87}}\nX-CE-MessageId: {{$guid}}\nX-CE-Channel: Postman\nX-CE-Locale: en-US\nAuthorization: {{authorization87}}\nX-CE-Meta: #cecp:1#\n",
			"url": "{{url}}/api/v2/consumption?CustomerId=lrltest&AccountId=lrltest&PremiseId=lrltest&Commoditykey=electric&ServicePointId=lrltest&Meterids=lrltest&StartDate=2016-04-01&EndDate=2016-05-01&ResolutionKey=fifteen&IncludeResolutions=false",
			"preRequestScript": "",
			"pathVariables": {},
			"method": "GET",
			"data": [],
			"dataMode": "params",
			"tests": "tests[\"Status code is 200\"] = responseCode.code === 200;\n\ntests[\"CustomerId in response\"] = responseBody.has(' \"CustomerId\": \"lrltest\"');\ntests[\"AccountId in response\"] = responseBody.has(' \"AccountId\": \"lrltest\"');\n\ntests[\"Body matches ResolutionKey 15min\"] = responseBody.has('\"ResolutionKey\": \"fifteen\"');\n\ntests[\"Body does not match Resolutions Available\"] = !responseBody.has('\"ResolutionsAvailable\"');\n\n",
			"currentHelper": "normal",
			"helperAttributes": {},
			"time": 1470071671017,
			"name": "consumption_get_responsesuccess_when_15min_elec",
			"description": "Retrieval for consumption get for client 87 for customer, \naccount and premise. Page index default. include content is true.  \nThe resolutionkey (15min), commoditykey  are parameters in the request. \nChecks that customer, account, resolution key fifteen are returned in response.\nWithout include resolutions so available resolutions should not be returned.",
			"collectionId": "d2b08e59-c2df-c83a-8527-3ca8cbf380ea",
			"responses": []
		},
		{
			"id": "51d082da-84cf-568f-4369-32da0cc71739",
			"headers": "X-DateTime: 04/24/2014 19:40:30\nX-CE-AccessKeyId: {{ceaccesskey87}}\nX-CE-MessageId: {{$guid}}\nX-CE-Channel: Postman\nX-CE-Locale: en-US\nAuthorization: {{authorization87}}\nX-CE-Meta: #cecp:1#\n",
			"url": "{{url}}/api/v2/consumption?CustomerId=3CommCust1&AccountId=3CommAcct1&PremiseId=3CommPrem1&ServicePointId=3CommEServP1&Meterids=3CommEMeter1&ResolutionKey=hour&includeresolutions=true&StartDate=2016-12-31T00:00:00%2B08:00&EndDate=2017-01-10T00:00:00%2B08:00",
			"preRequestScript": "",
			"pathVariables": {},
			"method": "GET",
			"data": [],
			"dataMode": "params",
			"tests": "tests[\"Status code is 200\"] = responseCode.code === 200;\n\n\ntests[\"Body does match Resolutions Available\"] = responseBody.has('\"ResolutionsAvailable\"');\n\ntests[\"Body matches resolutionkey hour\"] =responseBody.has('\"ResolutionKey\": \"hour\"');",
			"currentHelper": "normal",
			"helperAttributes": {},
			"time": 1484927365052,
			"name": "consumption_get_responsesuccess_when_60min_electric_HK_Time",
			"description": "Retrieval for consumption get for client 87 for customer, \naccount and premise for 60 minute electric",
			"collectionId": "d2b08e59-c2df-c83a-8527-3ca8cbf380ea",
			"responses": []
		},
		{
			"id": "53f67345-d641-320a-2d03-63a331bd11bc",
			"headers": "X-DateTime: 04/24/2014 19:40:30\nX-CE-AccessKeyId: {{ceaccesskey87}}\nX-CE-MessageId: {{$guid}}\nX-CE-Channel: Postman\nX-CE-Locale: en-US\nAuthorization: {{authorization87}}\nX-CE-Meta: #cecp:1#\n",
			"url": "{{url}}/api/v2/consumption?CustomerId=721564538&AccountId=5124568914&PremiseId=5124568923&ServicePointId=SP_M_7864664214_gas&Meterids=M8889125680&ResolutionKey=hour&includeresolutions=true&StartDate=2016-06-01T00:00&EndDate=2016-07-02T22:00:00",
			"preRequestScript": "",
			"pathVariables": {},
			"method": "GET",
			"data": [],
			"dataMode": "params",
			"version": 2,
			"tests": "tests[\"Status code is 200\"] = responseCode.code === 200;\n\n\ntests[\"Body does match Resolutions Available\"] = responseBody.has('\"ResolutionsAvailable\"');\n\ntests[\"Body matches resolutionkey hour\"] =responseBody.has('\"ResolutionKey\": \"hour\"');\n\n\ntests[\"Body matches mcf\"] = responseBody.has('\"UOMKey\": \"mcf\"');\n\n\ntests[\"Body matches no tou\"] = responseBody.has('\"TouKey\": \"notou\"');",
			"currentHelper": "normal",
			"helperAttributes": {},
			"time": 1472075157962,
			"name": "consumption_get_responsesuccess_when_60min_gas_mcf",
			"description": "Retrieval for consumption get for client 87 for customer, \naccount and premise for 60 minute gas mcf. Verifies notou since is regular (0) touid",
			"collectionId": "d2b08e59-c2df-c83a-8527-3ca8cbf380ea",
			"responses": []
		},
		{
			"id": "72a8dc46-44e0-7914-a0db-819c7a76be9a",
			"name": "consumption_get_responsesuccess_when_day_SingleAccount1",
			"description": "Retrieval for consumption get for client 87 for customer, \naccount and premise. Page index default. include content is true. \nThe resolutionkey (day) are\nparameters in the request. \nChecks that customer, account, resolutin key day, commodity key \nare returned in response.\nChecks that content node of uom and resolution are also returned.",
			"collectionId": "d2b08e59-c2df-c83a-8527-3ca8cbf380ea",
			"method": "GET",
			"headers": "X-DateTime: 04/24/2014 19:40:30\nX-CE-AccessKeyId: {{ceaccesskey87}}\nX-CE-MessageId: {{$guid}}\nX-CE-Channel: Postman\nX-CE-Locale: en-US\nAuthorization: {{authorization87}}\nX-CE-Meta: #cecp:1#",
			"dataMode": "params",
			"data": [],
			"rawModeData": "",
			"tests": "tests[\"Status code is 200\"] = responseCode.code === 200;\n\ntests[\"CustomerId in response\"] = responseBody.has(' \"CustomerId\": \"lrltest421\"');\ntests[\"AccountId in response\"] = responseBody.has(' \"AccountId\": \"lrltest421\"');\n\ntests[\"Body matches CommodityKey water\"] = responseBody.has(' \"CommodityKey\": \"water\"'); \n\ntests[\"Body matches ResolutionKey day\"] = responseBody.has('\"ResolutionKey\": \"day\"');\n\ntests[\"Body matches Resolutions Available\"] = responseBody.has('\"ResolutionsAvailable\"');\n\ntests[\"Body matches Content of uom\"] =responseBody.has('\"key\": \"water\"');",
			"preRequestScript": "",
			"url": "{{url}}/api/v2/consumption?CustomerId=lrltest421&AccountId=lrltest421&PremiseId=lrltest421&ServicePointId=lrltest421&Meterids=lrltest421&StartDate=2015-04-01&EndDate=2016-05-17&ResolutionKey=day&includecontent=true&IncludeResolutions=true",
			"responses": []
		},
		{
			"id": "76471a25-a05e-689a-ce5a-6dd28906d73b",
			"name": "consumption_get_responsesuccess_when_day_weatherchart_ca",
			"description": "Retrieval for consumption get for client 87 for customer, \naccount and premise. Page index default. include content is true. \nThe resolutionkey (day) are\nparameters in the request. \nChecks that customer, account, resolutin key day, commodity key \nare returned in response.\nChecks that weather temperature for country CA is returned.\n",
			"collectionId": "d2b08e59-c2df-c83a-8527-3ca8cbf380ea",
			"method": "GET",
			"headers": "X-DateTime: 04/24/2014 19:40:30\nX-CE-AccessKeyId: {{ceaccesskey87}}\nX-CE-MessageId: {{$guid}}\nX-CE-Channel: Postman\nX-CE-Locale: en-US\nAuthorization: {{authorization87}}\nX-CE-Meta: #cecp:1#",
			"dataMode": "params",
			"data": [],
			"rawModeData": "",
			"tests": "tests[\"Status code is 200\"] = responseCode.code === 200;\n\ntests[\"CustomerId in response\"] = responseBody.has(' \"CustomerId\": \"9000e1\"');\ntests[\"AccountId in response\"] = responseBody.has(' \"AccountId\": \"9000E1\"');\n\ntests[\"Body matches CommodityKey electric\"] = responseBody.has(' \"CommodityKey\": \"electric\"'); \n\ntests[\"Body matches Resolutions Available\"] = responseBody.has('\"ResolutionsAvailable\"');\n\ntests[\"Body matches Content of uom\"] =responseBody.has('\"UOMKey\": \"kwh\"');\n\ntests[\"Body matches Weather\"] = responseBody.has('\"Weather\"');\n\ntests[\"Body matches Date\"] = responseBody.has('\"Date\"');\n\ntests[\"Body matches AvgTemp\"] = responseBody.has('\"AvgTemp\"');",
			"preRequestScript": "",
			"url": "{{url}}/api/v2/consumption?CustomerId=9000e1&AccountId=9000E1&PremiseId=9000E1P&ServicePointId=SP_9000e1&Meterids=m9000e1&ResolutionKey=hour&includeresolutions=true&StartDate=2015-01-01&EndDate=2016-12-31&includeweather=true&zipcode=H3R1K2&Country=ca",
			"responses": []
		},
		{
			"id": "79b1510a-fcef-dfe0-c1bc-53391453e373",
			"name": "consumption_get_responsesuccess_when_day_weatherchart_nocountry",
			"description": "Retrieval for consumption get for client 87 for customer, \naccount and premise. Page index default. include content is true. \nThe resolutionkey (day) are\nparameters in the request. \nChecks that customer, account, resolutin key day, commodity key \nare returned in response.\nChecks that response throws exception since country is not passed in the API for weather temperature.",
			"collectionId": "d2b08e59-c2df-c83a-8527-3ca8cbf380ea",
			"method": "GET",
			"headers": "X-DateTime: 04/24/2014 19:40:30\nX-CE-AccessKeyId: {{ceaccesskey87}}\nX-CE-MessageId: {{$guid}}\nX-CE-Channel: Postman\nX-CE-Locale: en-US\nAuthorization: {{authorization87}}\nX-CE-Meta: #cecp:1#",
			"dataMode": "params",
			"data": [],
			"rawModeData": "",
			"tests": "tests[\"Status code is 200\"] = responseCode.code === 200;\n\ntests[\"Body matches exception\"] = responseBody.has('\"Country is required for weather data, US/CA\"');",
			"preRequestScript": "",
			"url": "{{url}}/api/v2/consumption?CustomerId=9000e1&AccountId=9000E1&PremiseId=9000E1P&ServicePointId=SP_9000e1&Meterids=m9000e1&ResolutionKey=hour&includeresolutions=true&StartDate=2015-01-01&EndDate=2016-12-31&includeweather=true&zipcode=02481",
			"responses": []
		},
		{
			"id": "86c94b69-3132-231d-8ff8-93ed9f6b1f71",
			"headers": "X-DateTime: 04/24/2014 19:40:30\nX-CE-AccessKeyId: {{ceaccesskey87}}\nX-CE-MessageId: {{$guid}}\nX-CE-Channel: Postman\nX-CE-Locale: en-US\nAuthorization: {{authorization87}}\nX-CE-Meta: #cecp:1#\n",
			"url": "{{url}}/api/v2/consumption?CustomerId=3CommGCust10&AccountId=3CommGAcct10&PremiseId=3CommGPrem10&Commoditykey=gas&ServicePointId=3CommGServP10&Meterids=3CommGMeter10&StartDate=2016-08-  01&EndDate=2016-09-12&ResolutionKey=fifteen&includecontent=true&IncludeResolutions=false&IncludeAverageUsage=true",
			"preRequestScript": "",
			"pathVariables": {},
			"method": "GET",
			"data": [],
			"dataMode": "params",
			"version": 2,
			"tests": "tests[\"Status code is 200\"] = responseCode.code === 200;\r\n\r\ntests[\"Body matches ResolutionKey day\"] = responseBody.has('\"ResolutionKey\": \"fifteen\"');\r\n\r\ntests[\"Body matches AverageUsage\"] = responseBody.has('\"AverageUsage\"');\r\n\r\ntests[\"Body matches UOMKey\"] =responseBody.has('\"UOMKey\": \"ccf\"');\r\n\r\ntests[\"Body matches CommodityKey electric\"] = responseBody.has(' \"CommodityKey\": \"gas\"');",
			"currentHelper": "normal",
			"helperAttributes": {},
			"time": 1474291949923,
			"name": "consumptionv2_get_AverageUsage_when_electric_30min",
			"description": "Retrieval for consumption get for client 87 for customer, \naccount and premise. Page index default. include content is true. \nThe resolutionkey (day) are\nparameters in the request. \nChecks that customer, account, resolution key day, commodity key and Average usage is returned in response.\nChecks that content node of uom and resolution are also returned.",
			"collectionId": "d2b08e59-c2df-c83a-8527-3ca8cbf380ea",
			"responses": []
		},
		{
			"id": "8c0200a6-beeb-6a71-42a0-db54cd60294c",
			"headers": "X-DateTime: 04/24/2014 19:40:30\nX-CE-AccessKeyId: {{ceaccesskey87}}\nX-CE-MessageId: {{$guid}}\nX-CE-Channel: Postman\nX-CE-Locale: en-US\nAuthorization: {{authorization87}}\nX-CE-Meta: #cecp:1#\n",
			"url": "{{url}}/api/v2/consumption?CustomerId=9000TOU12TEST&AccountId=9000TOU12TEST&PremiseId=9000TOU12TEST&ServicePointId=SP9000TOU12TEST&Meterids=M9000TOU12TEST&StartDate=2017-01-01&EndDate=2017-02-14&ResolutionKey=day&includecontent=true&IncludeResolutions=true",
			"preRequestScript": "",
			"pathVariables": {},
			"method": "GET",
			"data": [],
			"dataMode": "params",
			"version": 2,
			"tests": "tests[\"Status code is 200\"] = responseCode.code === 200;\n\ntests[\"Body matches ResolutionKey day\"] = responseBody.has('\"ResolutionKey\": \"day\"');\n\ntests[\"Body matches Resolutions Available\"] = responseBody.has('\"ResolutionsAvailable\"');\n\ntests[\"Body matches touid 3\"] =responseBody.has('\"TouKey\": \"shoulder1\"');\n\ntests[\"Body matches CommodityKey electric\"] = responseBody.has(' \"CommodityKey\": \"electric\"');",
			"currentHelper": "normal",
			"helperAttributes": {},
			"time": 1487008053044,
			"name": "consumptionv2_get_responsesuccess_when_elecday_TOU2dayres",
			"description": "Retrieval for consumption get for client 87 for customer, \naccount and premise. Page index default. include content is true. \nThe resolutionkey (day) are\nparameters in the request. \nChecks that customer, account, resolutin key day, commodity key \nare returned in response.\nChecks that content node of uom and resolution are also returned.",
			"collectionId": "d2b08e59-c2df-c83a-8527-3ca8cbf380ea",
			"responses": []
		},
		{
			"id": "91b9976d-4553-d4a2-987f-6abf68f2da9d",
			"name": "consumption_get_responsesuccess_when_60min_gas",
			"description": "Retrieval for consumption get for client 87 for customer, \naccount and premise for 60 minute gas",
			"collectionId": "d2b08e59-c2df-c83a-8527-3ca8cbf380ea",
			"method": "GET",
			"headers": "X-DateTime: 04/24/2014 19:40:30\nX-CE-AccessKeyId: {{ceaccesskey87}}\nX-CE-MessageId: {{$guid}}\nX-CE-Channel: Postman\nX-CE-Locale: en-US\nAuthorization: {{authorization87}}\nX-CE-Meta: #cecp:1#",
			"dataMode": "params",
			"data": [],
			"rawModeData": "",
			"tests": "tests[\"Status code is 200\"] = responseCode.code === 200;\n\n\ntests[\"Body does match Resolutions Available\"] = responseBody.has('\"ResolutionsAvailable\"');\n\ntests[\"Body matches resolutionkey hour\"] =responseBody.has('\"ResolutionKey\": \"hour\"');",
			"preRequestScript": "",
			"url": "{{url}}/api/v2/consumption?CustomerId=993774751&AccountId=1218337093&PremiseId=1218337000&ServicePointId=SP_M_1218337000_gas&Meterids=M1218337000&ResolutionKey=hour&includeresolutions=true&StartDate=2015-01-01&EndDate=2016-05-17",
			"responses": []
		},
		{
			"id": "93435892-671f-a2b6-9229-1156848547ca",
			"name": "consumption_get_responsesuccess_when_day_weatherchart_us",
			"description": "Retrieval for consumption get for client 87 for customer, \naccount and premise. Page index default. include content is true. \nThe resolutionkey (day) are\nparameters in the request. \nChecks that customer, account, resolutin key day, commodity key \nare returned in response.\nChecks that weather temperature for country US is returned.",
			"collectionId": "d2b08e59-c2df-c83a-8527-3ca8cbf380ea",
			"method": "GET",
			"headers": "X-DateTime: 04/24/2014 19:40:30\nX-CE-AccessKeyId: {{ceaccesskey87}}\nX-CE-MessageId: {{$guid}}\nX-CE-Channel: Postman\nX-CE-Locale: en-US\nAuthorization: {{authorization87}}\nX-CE-Meta: #cecp:1#",
			"dataMode": "params",
			"data": [],
			"rawModeData": "",
			"tests": "tests[\"Status code is 200\"] = responseCode.code === 200;\n\ntests[\"CustomerId in response\"] = responseBody.has(' \"CustomerId\": \"9000e1\"');\ntests[\"AccountId in response\"] = responseBody.has(' \"AccountId\": \"9000E1\"');\n\ntests[\"Body matches CommodityKey electric\"] = responseBody.has(' \"CommodityKey\": \"electric\"'); \n\ntests[\"Body matches Resolutions Available\"] = responseBody.has('\"ResolutionsAvailable\"');\n\ntests[\"Body matches Content of uom\"] =responseBody.has('\"UOMKey\": \"kwh\"');\n\ntests[\"Body matches Weather\"] = responseBody.has('\"Weather\"');\n\ntests[\"Body matches Date\"] = responseBody.has('\"Date\"');\n\ntests[\"Body matches AvgTemp\"] = responseBody.has('\"AvgTemp\"');",
			"preRequestScript": "",
			"url": "{{url}}/api/v2/consumption?CustomerId=9000e1&AccountId=9000E1&PremiseId=9000E1P&ServicePointId=SP_9000e1&Meterids=m9000e1&ResolutionKey=hour&includeresolutions=true&StartDate=2015-01-01&EndDate=2016-12-31&includeweather=true&zipcode=02481&Country=us",
			"responses": []
		},
		{
			"id": "94427061-ba0c-9a49-ea6b-f9b2943b4df5",
			"headers": "X-DateTime: 04/24/2014 19:40:30\nX-CE-AccessKeyId: {{ceaccesskey87}}\nX-CE-MessageId: {{$guid}}\nX-CE-Channel: Postman\nX-CE-Locale: en-US\nAuthorization: {{authorization87}}\nX-CE-Meta: #cecp:1#\n",
			"url": "{{url}}/api/v2/consumption?CustomerId=9000TOUGAS&AccountId=9000TOUGAS&PremiseId=9000TOUGAS&ServicePointId=SP9000TOUGAS&Meterids=M9000TOUGAS&StartDate=2017-01-01&EndDate=2017-02-14&ResolutionKey=day&includecontent=true&IncludeResolutions=true",
			"preRequestScript": "",
			"pathVariables": {},
			"method": "GET",
			"data": [],
			"dataMode": "params",
			"version": 2,
			"tests": "tests[\"Status code is 200\"] = responseCode.code === 200;\n\ntests[\"Body matches ResolutionKey day\"] = responseBody.has('\"ResolutionKey\": \"day\"');\n\ntests[\"Body matches CommodityKey gas\"] = responseBody.has(' \"CommodityKey\": \"gas\"');\n\ntests[\"Body matches Resolutions Available\"] = responseBody.has('\"ResolutionsAvailable\"');\n\ntests[\"Body matches touid 3\"] =responseBody.has('\"TouKey\": \"shoulder1\"');",
			"currentHelper": "normal",
			"helperAttributes": {},
			"time": 1487007975808,
			"name": "consumptionv2_get_responsesuccess_when_daygas_TOU3dayres",
			"description": "Retrieval for consumption get for client 87 for customer, \naccount and premise. Page index default. include content is true. Gas commodity\nThe resolutionkey (day) are\nparameters in the request. \nChecks that customer, account, resolutin key day, commodity key \nare returned in response.\nChecks that content node of uom and resolution are also returned.",
			"collectionId": "d2b08e59-c2df-c83a-8527-3ca8cbf380ea",
			"responses": []
		},
		{
			"id": "9cbdf29e-f318-7d09-2aaa-b2dad56d512b",
			"name": "consumption_get_responsesuccess_when_60min_waterwoincluderes",
			"description": "Retrieval for consumption get for client 87 for customer, \naccount and premise. Page index default. include content is true.  \nThe resolutionkey (60min), commoditykey (water) are parameters in the request. Checks that customer, account, resolutin key day, commodity key gas are returned in response.\nChecks that content node of uom and resolution are also returned. \nWithout include resolutions",
			"collectionId": "d2b08e59-c2df-c83a-8527-3ca8cbf380ea",
			"method": "GET",
			"headers": "X-DateTime: 04/24/2014 19:40:30\nX-CE-AccessKeyId: {{ceaccesskey87}}\nX-CE-MessageId: {{$guid}}\nX-CE-Channel: Postman\nX-CE-Locale: en-US\nAuthorization: {{authorization87}}\nX-CE-Meta: #cecp:1#",
			"dataMode": "params",
			"data": [],
			"rawModeData": "",
			"tests": "tests[\"Status code is 200\"] = responseCode.code === 200;\n\ntests[\"CustomerId in response\"] = responseBody.has(' \"CustomerId\": \"lrltest421\"');\ntests[\"AccountId in response\"] = responseBody.has(' \"AccountId\": \"lrltest421\"');\n\ntests[\"Body matches CommodityKey water\"] = responseBody.has(' \"CommodityKey\": \"water\"');\n\ntests[\"Body matches ResolutionKey day\"] = responseBody.has('\"ResolutionKey\": \"hour\"');\n\ntests[\"Body does not match Resolutions Available\"] = !responseBody.has('\"ResolutionsAvailable\"');\n\ntests[\"Body matches Content of uom\"] =responseBody.has('\"key\": \"water\"');",
			"preRequestScript": "",
			"url": "{{url}}/api/v2/consumption?CustomerId=lrltest421&AccountId=lrltest421&PremiseId=lrltest421&Commoditykey=water&ServicePointId=BPSP_001&Meterids=lrltest421&StartDate=2015-04-01&EndDate=2016-05-17&ResolutionKey=hour&includecontent=true&IncludeResolutions=false",
			"responses": []
		},
		{
			"id": "b33c26cc-5ccc-3667-5f53-6abbff1b9669",
			"name": "consumption_get_responsesuccess_when_30min_multisvc2elec ",
			"description": "Retrieval for consumption get for client 87 for customer, \naccount and premise for 30 minute electric azure table storage. Multiple services on same premise",
			"collectionId": "d2b08e59-c2df-c83a-8527-3ca8cbf380ea",
			"method": "GET",
			"headers": "X-DateTime: 04/24/2014 19:40:30\nX-CE-AccessKeyId: {{ceaccesskey87}}\nX-CE-MessageId: {{$guid}}\nX-CE-Channel: Postman\nX-CE-Locale: en-US\nAuthorization: {{authorization87}}\nX-CE-Meta: #cecp:1#",
			"dataMode": "params",
			"data": [],
			"rawModeData": "",
			"tests": "tests[\"Status code is 200\"] = responseCode.code === 200;\n\n\ntests[\"Body does match Resolutions Available\"] = responseBody.has('\"ResolutionsAvailable\"');\n\ntests[\"Body matches resolutionkey thirty\"] =responseBody.has('\"ResolutionKey\": \"thirty\"');",
			"preRequestScript": "",
			"url": "{{url}}/api/v2/consumption?CustomerId=1000001&AccountId=1000001&PremiseId=1000001&Meterids=M2_1000001_elec&ResolutionKey=thirty&includeresolutions=true&StartDate=2016-01-01T00:00&EndDate=2016-03-01T22:00:00",
			"responses": []
		},
		{
			"id": "be097189-eb0e-39aa-2e53-ef929f42c523",
			"headers": "X-DateTime: 04/24/2014 19:40:30\nX-CE-AccessKeyId: {{ceaccesskey87}}\nX-CE-MessageId: {{$guid}}\nX-CE-Channel: Postman\nX-CE-Locale: en-US\nAuthorization: {{authorization87}}\nX-CE-Meta: #cecp:1#\n",
			"url": "{{url}}/api/v2/consumption?CustomerId=9000TOUE5&AccountId=9000TOUE5&PremiseId=9000TOUE5&ServicePointId=SP9000TOUE5&Meterids=M9000TOUE5&StartDate=2017-01-01&EndDate=2017-02-14&ResolutionKey=day&includecontent=true&IncludeResolutions=true",
			"preRequestScript": "",
			"pathVariables": {},
			"method": "GET",
			"data": [],
			"dataMode": "params",
			"version": 2,
			"tests": "tests[\"Status code is 200\"] = responseCode.code === 200;\n\ntests[\"Body matches ResolutionKey day\"] = responseBody.has('\"ResolutionKey\": \"day\"');\n\ntests[\"Body matches Resolutions Available\"] = responseBody.has('\"ResolutionsAvailable\"');\n\ntests[\"Body matches touid 4\"] =responseBody.has('\"TouKey\": \"shoulder2\"');\n\ntests[\"Body matches touid 5\"] =responseBody.has('\"TouKey\": \"criticalpeak\"');",
			"currentHelper": "normal",
			"helperAttributes": {},
			"time": 1487007865292,
			"name": "consumptionv2_get_responsesuccess_when_dayelec_TOU5dayres",
			"description": "Retrieval for consumption get for client 87 for customer, \naccount and premise. Page index default. include content is true. \nThe resolutionkey (day) are\nparameters in the request. \nChecks that customer, account, resolutin key day, commodity key \nare returned in response.\nTou up to 5 Critical Peak\nChecks that content node of uom and resolution are also returned.",
			"collectionId": "d2b08e59-c2df-c83a-8527-3ca8cbf380ea",
			"responses": []
		},
		{
			"id": "bf406fab-54a5-7455-018d-8af022a26c39",
			"headers": "X-DateTime: 04/24/2014 19:40:30\nX-CE-AccessKeyId: {{ceaccesskey87}}\nX-CE-MessageId: {{$guid}}\nX-CE-Channel: Postman\nX-CE-Locale: en-US\nAuthorization: {{authorization87}}\nX-CE-Meta: #cecp:1#\n",
			"url": "{{url}}/api/v2/consumption?CustomerId=3CommCust1&AccountId=3CommAcct1&PremiseId=3CommPrem1&ServicePointId=3CommEServP1&Meterids=3CommEMeter1&ResolutionKey=hour&includeresolutions=true&StartDate=2016-12-31T00:00:00-05:00&EndDate=2017-01-10T00:00:00-05:00",
			"preRequestScript": "",
			"pathVariables": {},
			"method": "GET",
			"data": [],
			"dataMode": "params",
			"tests": "tests[\"Status code is 200\"] = responseCode.code === 200;\n\n\ntests[\"Body does match Resolutions Available\"] = responseBody.has('\"ResolutionsAvailable\"');\n\ntests[\"Body matches resolutionkey hour\"] =responseBody.has('\"ResolutionKey\": \"hour\"');",
			"currentHelper": "normal",
			"helperAttributes": {},
			"time": 1484926355945,
			"name": "consumption_get_responsesuccess_when_60min_electric_ET_Time",
			"description": "Retrieval for consumption get for client 87 for customer, \naccount and premise for 60 minute electric",
			"collectionId": "d2b08e59-c2df-c83a-8527-3ca8cbf380ea",
			"responses": []
		},
		{
			"id": "c89f611b-b928-fd5c-9bcd-0de70fa9ff7f",
			"headers": "X-DateTime: 04/24/2014 19:40:30\nX-CE-AccessKeyId: {{ceaccesskey87}}\nX-CE-MessageId: {{$guid}}\nX-CE-Channel: Postman\nX-CE-Locale: en-US\nAuthorization: {{authorization87}}\nX-CE-Meta: #cecp:1#\n",
			"url": "{{url}}/api/v2/consumption?CustomerId=3CommGCust10&AccountId=3CommGAcct10&PremiseId=3CommGPrem10&Commoditykey=gas&ServicePointId=3CommGServP10&Meterids=3CommGMeter10&StartDate=2016-08-  01&EndDate=2016-09-12&ResolutionKey=fifteen&includecontent=true&IncludeResolutions=false&IncludeAverageUsage=true",
			"preRequestScript": "",
			"pathVariables": {},
			"method": "GET",
			"data": [],
			"dataMode": "params",
			"version": 2,
			"tests": "tests[\"Status code is 200\"] = responseCode.code === 200;\r\n\r\ntests[\"Body matches ResolutionKey day\"] = responseBody.has('\"ResolutionKey\": \"fifteen\"');\r\n\r\ntests[\"Body matches AverageUsage\"] = responseBody.has('\"AverageUsage\"');\r\n\r\ntests[\"Body matches UOMKey\"] =responseBody.has('\"UOMKey\": \"ccf\"');\r\n\r\ntests[\"Body matches CommodityKey electric\"] = responseBody.has(' \"CommodityKey\": \"gas\"');",
			"currentHelper": "normal",
			"helperAttributes": {},
			"time": 1474291949923,
			"name": "consumptionv2_get_AverageUsage_when_gas_15min",
			"description": "Retrieval for consumption get for client 87 for customer, \naccount and premise. Page index default. include content is true. \nThe resolutionkey (day) are\nparameters in the request. \nChecks that customer, account, resolution key day, commodity key and Average usage is returned in response.\nChecks that content node of uom and resolution are also returned.",
			"collectionId": "d2b08e59-c2df-c83a-8527-3ca8cbf380ea",
			"responses": []
		},
		{
			"id": "cd732998-3fef-9e2c-5ee0-790c7072267d",
			"headers": "X-DateTime: 04/24/2014 19:40:30\nX-CE-AccessKeyId: {{ceaccesskey87}}\nX-CE-MessageId: {{$guid}}\nX-CE-Channel: Postman\nX-CE-Locale: en-US\nAuthorization: {{authorization87}}\nX-CE-Meta: #cecp:1#\n",
			"url": "{{url}}/api/v2/consumption?CustomerId=911111104&AccountId=933333304&PremiseId=922222204&Commoditykey=electric&ServicePointId=SP_M_944444404_ele&Meterids=955555504&StartDate=2015-12-21&EndDate=2016-02-02&ResolutionKey=day&includecontent=true&IncludeResolutions=false&IncludeAverageUsage=true",
			"preRequestScript": "",
			"pathVariables": {},
			"method": "GET",
			"data": [],
			"dataMode": "params",
			"version": 2,
			"tests": "tests[\"Status code is 200\"] = responseCode.code === 200;\r\n\r\ntests[\"Body matches ResolutionKey day\"] = responseBody.has('\"ResolutionKey\": \"day\"');\r\n\r\ntests[\"Body matches AverageUsage\"] = responseBody.has('\"AverageUsage\"');\r\n\r\ntests[\"Body matches UOMKey\"] =responseBody.has('\"UOMKey\": \"kwh\"');\r\n\r\ntests[\"Body matches CommodityKey electric\"] = responseBody.has(' \"CommodityKey\": \"electric\"');",
			"currentHelper": "normal",
			"helperAttributes": {},
			"time": 1474292485489,
			"name": "consumptionv2_get_AverageUsage_when_electric_daily",
			"description": "Retrieval for consumption get for client 87 for customer, \naccount and premise. Page index default. include content is true. \nThe resolutionkey (day) are\nparameters in the request. \nChecks that customer, account, resolution key day, commodity key and Average usage is returned in response.\nChecks that content node of uom and resolution are also returned.",
			"collectionId": "d2b08e59-c2df-c83a-8527-3ca8cbf380ea",
			"responses": []
		},
		{
			"id": "dbbb2ea4-4d1e-62e6-4e56-97af5d935240",
			"name": "consumption_get_responsesuccess_when_nodata15min",
			"description": "Retrieval for consumption get for client 87 for customer, \naccount and premise for 15 minute data not found when there is hourly and monthly",
			"collectionId": "d2b08e59-c2df-c83a-8527-3ca8cbf380ea",
			"method": "GET",
			"headers": "X-DateTime: 04/24/2014 19:40:30\nX-CE-AccessKeyId: {{ceaccesskey87}}\nX-CE-MessageId: {{$guid}}\nX-CE-Channel: Postman\nX-CE-Locale: en-US\nAuthorization: {{authorization87}}\nX-CE-Meta: #cecp:1#",
			"dataMode": "params",
			"data": [],
			"rawModeData": "",
			"tests": "tests[\"Status code is 200\"] = responseCode.code === 200;\n\n\ntests[\"Body does match Resolutions Available\"] = responseBody.has('\"ResolutionsAvailable\"');\n\ntests[\"Body matches Message no data found\"] =responseBody.has('\"Message\": \"No data found\"');",
			"preRequestScript": "",
			"url": "{{url}}/api/v2/consumption?CustomerId=993774751&AccountId=1218337093&PremiseId=1218337000&ServicePointId=SP_M_1218337000_gas&Meterids=M1218337000&ResolutionKey=fifteen&includeresolutions=true&StartDate=2015-07-01&EndDate=2016-07-17",
			"responses": []
		},
		{
			"id": "e97cad32-5f2c-7a41-9e63-e0d97579ab15",
			"name": "consumption_get_responsesuccess_when_noreskey",
			"description": "Retrieval for consumption get for client 87 for customer, \naccount and premise. When no resolution key, returns smallest available. \nIn this case is hourly.",
			"collectionId": "d2b08e59-c2df-c83a-8527-3ca8cbf380ea",
			"method": "GET",
			"headers": "X-DateTime: 04/24/2014 19:40:30\nX-CE-AccessKeyId: {{ceaccesskey87}}\nX-CE-MessageId: {{$guid}}\nX-CE-Channel: Postman\nX-CE-Locale: en-US\nAuthorization: {{authorization87}}\nX-CE-Meta: #cecp:1#",
			"dataMode": "params",
			"data": [],
			"rawModeData": "",
			"tests": "tests[\"Status code is 200\"] = responseCode.code === 200;\n\ntests[\"CustomerId in response\"] = responseBody.has(' \"CustomerId\": \"993774751\"');\ntests[\"AccountId in response\"] = responseBody.has(' \"AccountId\": \"1218337093\"');\n\ntests[\"Body matches ResolutionKey day\"] = responseBody.has('\"ResolutionKey\": \"hour\"');\n\ntests[\"Body does match Resolutions Available\"] = responseBody.has('\"ResolutionsAvailable\"');\n\ntests[\"Body matches Content of uom\"] =responseBody.has('\"UOMKey\": \"ccf\"');",
			"preRequestScript": "",
			"url": "{{url}}/api/v2/consumption?CustomerId=993774751&AccountId=1218337093&PremiseId=1218337000&ServicePointId=SP_M_1218337000_gas&Meterids=M1218337000&includeresolutions=true&StartDate=2015-01-01&EndDate=2016-01-17",
			"responses": []
		},
		{
			"id": "e9ebaf41-3266-11fb-37a0-244c2a94ad4c",
			"headers": "X-DateTime: 04/24/2014 19:40:30\nX-CE-AccessKeyId: {{ceaccesskey87}}\nX-CE-MessageId: {{$guid}}\nX-CE-Channel: Postman\nX-CE-Locale: en-US\nAuthorization: {{authorization87}}\nX-CE-Meta: #cecp:1#\n",
			"url": "{{url}}/api/v2/consumption?CustomerId=911111102&AccountId=933333302&PremiseId=922222202&Commoditykey=water&ServicePointId=SP_M_944444402_wat&Meterids=955555502&StartDate=2016-08-30&EndDate=2016-09-12&ResolutionKey=hour&includecontent=true&IncludeResolutions=false&IncludeAverageUsage=true",
			"preRequestScript": "",
			"pathVariables": {},
			"method": "GET",
			"data": [],
			"dataMode": "params",
			"version": 2,
			"tests": "tests[\"Status code is 200\"] = responseCode.code === 200;\n\ntests[\"Body matches ResolutionKey day\"] = responseBody.has('\"ResolutionKey\": \"day\"');\n\ntests[\"Body matches Resolutions Available\"] = responseBody.has('\"ResolutionsAvailable\"');\n\ntests[\"Body matches touid 3\"] =responseBody.has('\"TouKey\": \"shoulder1\"');\n\ntests[\"Body matches CommodityKey electric\"] = responseBody.has(' \"CommodityKey\": \"electric\"');",
			"currentHelper": "normal",
			"helperAttributes": {},
			"time": 1474292496231,
			"name": "consumptionv2_get_AverageUsage_when_water_60min",
			"description": "Retrieval for consumption get for client 87 for customer, \naccount and premise. Page index default. include content is true. \nThe resolutionkey (day) areparameters in the request. \nChecks that customer, account, resolution key day, commodity key and Average usage is returned in response.\nChecks that content node of uom and resolution are also returned.",
			"collectionId": "d2b08e59-c2df-c83a-8527-3ca8cbf380ea",
			"responses": []
		},
		{
			"id": "f108eeab-c7e4-897d-8ea7-13b361a309af",
			"headers": "X-DateTime: 04/24/2014 19:40:30\nX-CE-AccessKeyId: {{ceaccesskey87}}\nX-CE-MessageId: {{$guid}}\nX-CE-Channel: Postman\nX-CE-Locale: en-US\nAuthorization: {{authorization87}}\nX-CE-Meta: #cecp:1#\n",
			"url": "{{url}}/api/v2/consumption?CustomerId=9000TOUW&AccountId=9000TOUW&PremiseId=9000TOUW&ServicePointId=SP9000TOUW&Meterids=M9000TOUW&StartDate=2017-01-01&EndDate=2017-02-14&ResolutionKey=day&includecontent=true&IncludeResolutions=true",
			"preRequestScript": "",
			"pathVariables": {},
			"method": "GET",
			"data": [],
			"dataMode": "params",
			"version": 2,
			"tests": "tests[\"Status code is 200\"] = responseCode.code === 200;\n\ntests[\"Body matches ResolutionKey day\"] = responseBody.has('\"ResolutionKey\": \"day\"');\n\ntests[\"Body matches CommodityKey water\"] = responseBody.has(' \"CommodityKey\": \"water\"');\n\ntests[\"Body matches Resolutions Available\"] = responseBody.has('\"ResolutionsAvailable\"');\n\ntests[\"Body matches touid 3\"] =responseBody.has('\"TouKey\": \"shoulder1\"');",
			"currentHelper": "normal",
			"helperAttributes": {},
			"time": 1487008009805,
			"name": "consumptionv2_get_responsesuccess_when_daywater_TOU3dayres",
			"description": "Retrieval for consumption get for client 87 for customer, \naccount and premise. Page index default. include content is true. water commodity\nThe resolutionkey (day) are\nparameters in the request. \nChecks that customer, account, resolutin key day, commodity key \nare returned in response.\nChecks that content node of uom and resolution are also returned.",
			"collectionId": "d2b08e59-c2df-c83a-8527-3ca8cbf380ea",
			"responses": []
		},
		{
			"id": "f32a0165-b0f0-dcb2-d4d8-e4bc5cbba355",
			"name": "consumption_get_responsesuccess_when_30min_multisvcelec",
			"description": "Retrieval for consumption get for client 87 for customer, \naccount and premise for 30 minute electric azure table storage. Multiple services on same premise",
			"collectionId": "d2b08e59-c2df-c83a-8527-3ca8cbf380ea",
			"method": "GET",
			"headers": "X-DateTime: 04/24/2014 19:40:30\nX-CE-AccessKeyId: {{ceaccesskey87}}\nX-CE-MessageId: {{$guid}}\nX-CE-Channel: Postman\nX-CE-Locale: en-US\nAuthorization: {{authorization87}}\nX-CE-Meta: #cecp:1#",
			"dataMode": "params",
			"data": [],
			"rawModeData": "",
			"tests": "tests[\"Status code is 200\"] = responseCode.code === 200;\n\n\ntests[\"Body does match Resolutions Available\"] = responseBody.has('\"ResolutionsAvailable\"');\n\ntests[\"Body matches resolutionkey thirty\"] =responseBody.has('\"ResolutionKey\": \"thirty\"');",
			"preRequestScript": "",
			"url": "{{url}}/api/v2/consumption?CustomerId=1000001&AccountId=1000001&PremiseId=1000001&Meterids=M1_1000001_elec&ResolutionKey=thirty&includeresolutions=true&StartDate=2016-01-01T00:00&EndDate=2016-03-01T22:00:00",
			"responses": []
		},
		{
			"id": "f4a2aa7d-9874-3823-d829-a9b1e796f45c",
			"name": "consumption_get_responsesuccess_when_60min_electric",
			"description": "Retrieval for consumption get for client 87 for customer, \naccount and premise for 60 minute electric",
			"collectionId": "d2b08e59-c2df-c83a-8527-3ca8cbf380ea",
			"method": "GET",
			"headers": "X-DateTime: 04/24/2014 19:40:30\nX-CE-AccessKeyId: {{ceaccesskey87}}\nX-CE-MessageId: {{$guid}}\nX-CE-Channel: Postman\nX-CE-Locale: en-US\nAuthorization: {{authorization87}}\nX-CE-Meta: #cecp:1#",
			"dataMode": "params",
			"data": [],
			"rawModeData": "",
			"tests": "tests[\"Status code is 200\"] = responseCode.code === 200;\n\n\ntests[\"Body does match Resolutions Available\"] = responseBody.has('\"ResolutionsAvailable\"');\n\ntests[\"Body matches resolutionkey hour\"] =responseBody.has('\"ResolutionKey\": \"hour\"');",
			"preRequestScript": "",
			"url": "{{url}}/api/v2/consumption?CustomerId=9000E1&AccountId=9000E1&PremiseId=9000E1P&ServicePointId=SP_9000E1&Meterids=M9000E1&ResolutionKey=hour&includeresolutions=true&StartDate=2016-04-01&EndDate=2016-05-17",
			"responses": []
		}
	]
}