{
	"variables": [],
	"info": {
		"name": "GreenButtonAmi",
		"_postman_id": "41343766-90db-ffde-8152-114470321204",
		"description": "",
		"schema": "https://schema.getpostman.com/json/collection/v2.0.0/collection.json"
	},
	"item": [
		{
			"name": "GET GreenButtonAmi Xml single gas met 60",
			"event": [
				{
					"listen": "test",
					"script": {
						"type": "text/javascript",
						"exec": "tests[\"Status code is 200\"] = responseCode.code === 200;\n\ntests[\"commodity gas\"] = responseBody.has(\"<commodity>7</commodity>\");\n\ntests[\"Body matches 60 min\"] = responseBody.has(\"<duration>3600</duration>\");"
					}
				}
			],
			"request": {
				"url": "{{url}}/api/v1/greenbuttonami?CustomerId=GBTest99&accountId=GBTest99&premiseId=GBTest99&meterids=M_GBTest99sp1_gas&OutputFormat=Xml&StartDate=2016-06-01&EndDate=2016-07-15",
				"method": "GET",
				"header": [
					{
						"key": "X-DateTime",
						"value": "04/24/2014 19:40:30",
						"description": ""
					},
					{
						"key": "X-CE-AccessKeyId",
						"value": "{{ceaccesskey87}}",
						"description": ""
					},
					{
						"key": "X-CE-MessageId",
						"value": "{{$guid}}",
						"description": ""
					},
					{
						"key": "X-CE-Channel",
						"value": "Postman",
						"description": ""
					},
					{
						"key": "X-CE-Locale",
						"value": "en-US",
						"description": ""
					},
					{
						"key": "Authorization",
						"value": "{{authorization87}}",
						"description": ""
					}
				],
				"body": {
					"mode": "formdata",
					"formdata": []
				},
				"description": ""
			},
			"response": []
		},
		{
			"name": "GET GreenButtonAmi Xml JPM singleday electric 15",
			"event": [
				{
					"listen": "test",
					"script": {
						"type": "text/javascript",
						"exec": "tests[\"Status code is 200\"] = responseCode.code === 200;\n\ntests[\"commodity electric\"] = responseBody.has(\"<commodity>1</commodity>\");\n\ntests[\"Body matches <duration>900</duration>\"] = responseBody.has(\"<duration>900</duration>\");"
					}
				}
			],
			"request": {
				"url": "{{url}}/api/v1/greenbuttonami?CustomerId=GBTest99&accountId=GBTest99&premiseId=GBTest99&meterids=singleday&OutputFormat=Xml&StartDate=2016-07-01&EndDate=2016-07-01",
				"method": "GET",
				"header": [
					{
						"key": "X-DateTime",
						"value": "04/24/2014 19:40:30",
						"description": ""
					},
					{
						"key": "X-CE-AccessKeyId",
						"value": "{{ceaccesskey87}}",
						"description": ""
					},
					{
						"key": "X-CE-MessageId",
						"value": "{{$guid}}",
						"description": ""
					},
					{
						"key": "X-CE-Channel",
						"value": "Postman",
						"description": ""
					},
					{
						"key": "X-CE-Locale",
						"value": "en-US",
						"description": ""
					},
					{
						"key": "Authorization",
						"value": "{{authorization87}}",
						"description": ""
					}
				],
				"body": {
					"mode": "formdata",
					"formdata": []
				},
				"description": ""
			},
			"response": []
		},
		{
			"name": "GET GreenButtonAmi Xml JPM single electric 30 min",
			"event": [
				{
					"listen": "test",
					"script": {
						"type": "text/javascript",
						"exec": "tests[\"Status code is 200\"] = responseCode.code === 200;\n\ntests[\"commodity electric\"] = responseBody.has(\"<commodity>1</commodity>\");\n\ntests[\"Body matches <duration>1800</duration>\"] = responseBody.has(\"<duration>1800</duration>\");"
					}
				}
			],
			"request": {
				"url": "{{url}}/api/v1/greenbuttonami?CustomerId=GBTest99&accountId=GBTest99&premiseId=GBTest99&meterids=M_GBelectricJuly2_elc&OutputFormat=Xml&StartDate=2016-07-02&EndDate=2016-07-2",
				"method": "GET",
				"header": [
					{
						"key": "X-DateTime",
						"value": "04/24/2014 19:40:30",
						"description": ""
					},
					{
						"key": "X-CE-AccessKeyId",
						"value": "{{ceaccesskey87}}",
						"description": ""
					},
					{
						"key": "X-CE-MessageId",
						"value": "{{$guid}}",
						"description": ""
					},
					{
						"key": "X-CE-Channel",
						"value": "Postman",
						"description": ""
					},
					{
						"key": "X-CE-Locale",
						"value": "en-US",
						"description": ""
					},
					{
						"key": "Authorization",
						"value": "{{authorization87}}",
						"description": ""
					}
				],
				"body": {
					"mode": "formdata",
					"formdata": []
				},
				"description": ""
			},
			"response": []
		}
	]
}