{
	"variables": [],
	"info": {
		"name": "IntegrationInsightstoDWScenarioTests",
		"_postman_id": "901c9cbb-ab14-8b7c-fde5-3afe60dd85ef",
		"description": "Creates new profile and actions for a new customer. Run ETL_256 job and verify actions get is bringing back data afterwards.",
		"schema": "https://schema.getpostman.com/json/collection/v2.0.0/collection.json"
	},
	"item": [
		{
			"name": "actionplanv1_post_responsesuccess_whensubactionkeyswsourceutility",
			"event": [
				{
					"listen": "test",
					"script": {
						"type": "text/javascript",
						"exec": "tests[\"Status code is 200\"] = responseCode.code === 200;\ntests[\"Empty body returned - with no errors\"] = responseBody.has('{}');\n\n"
					}
				},
				{
					"listen": "prerequest",
					"script": {
						"type": "text/javascript",
						"exec": "var dNow = new Date();\nvar utc = new Date(dNow.getTime() + dNow.getTimezoneOffset() * 60000)\nvar utcdate =   (\"0\" + (utc.getMonth() + 1)).slice(-2) + '/' + (\"0\" + utc.getDate()).slice(-2) + '/' + utc.getFullYear() + ' ' + (\"0\" + utc.getHours()).slice(-2) + ':' + (\"0\" + utc.getMinutes()).slice(-2) + ':' + (\"0\" + utc.getSeconds()).slice(-2);\npostman.setGlobalVariable(\"utcdatetime\", utcdate);\n//customeridnew\nvar custidnew = \"QAIntTestActPlan\" + \"_\" + utcdate;\npostman.setGlobalVariable(\"customeridnew\",custidnew);"
					}
				}
			],
			"request": {
				"url": "{{url}}/api/v1/actionplan",
				"method": "POST",
				"header": [
					{
						"key": "X-DateTime",
						"value": "04/24/2014 19:40:30",
						"description": ""
					},
					{
						"key": "X-CE-AccessKeyId",
						"value": "3588433F99244358A51BD39DB01C6DDE",
						"description": ""
					},
					{
						"key": "X-CE-MessageId",
						"value": "{{$guid}}",
						"description": ""
					},
					{
						"key": "X-CE-Channel",
						"value": "Postman",
						"description": ""
					},
					{
						"key": "X-CE-Locale",
						"value": "en-US",
						"description": ""
					},
					{
						"key": "Authorization",
						"value": "{{authorization256}}",
						"description": ""
					},
					{
						"key": "X-CE-Meta",
						"value": "#cecp:1#",
						"description": ""
					},
					{
						"key": "Content-Type",
						"value": "application/json",
						"description": ""
					}
				],
				"body": {
					"mode": "raw",
					"raw": "{ \"Customer\": \n {\"Id\": \"{{customeridnew}}\",\n  \"Accounts\": \n  [\n    {\"Id\": \"{{customeridnew}}_prem1\",\"Premises\": \n     [\n       {\"Id\": \"{{customeridnew}}_acct1prem1\",\"ActionStatuses\": \n       [\n         {\n           \"ActionKey\": \"installprogramthermostat\",\n           \"SubActionKey\": \"Energy Savings Program 1 xxxxxxxxxxxxxxxxxxxxxxxxxxxxxxx\",\n           \"Status\": \"completed\",\n           \"StatusDate\": \"2015-02-02 09:54:15.640\",\n           \"SourceKey\": \"utility\",\n            \"AdditionalInfo\":\n           [\n                  {\n                    \"Key\": \"annualsavingsestimate\",\n                    \"Value\": \"60\"\n                  },\n                  {\n                    \"Key\": \"commodity\",\n                    \"Value\": \"electric\"\n                  },\n         \t\t{\n                    \"Key\": \"annualcost\",\n                    \"Value\": \"60.544444444444444444444444444444444444444444444444444444444444\"\n                  },\n                 {\n                    \"Key\": \"incentiveamount\",\n                    \"Value\": \"20.544444444444444444444444444444444444444444444444444444444555555555555555444\"\n                  },\n                 {\n                    \"Key\": \"incentivetype\",\n                    \"Value\": \"rebate\"\n                  },\n                  {\n                    \"Key\": \"upfrontcost\",\n                    \"Value\": \"50.544444444444444444444444444444444444444444444444444444444555555555555555444\"\n                  },\n                ]\n         },\n         {\n           \"ActionKey\": \"shortershowers\",\n           \"SubActionKey\": \"Program2 shorter showers 2015\",\n           \"Status\": \"presented\",\n           \"SourceKey\": \"utility\",\n              \"AdditionalInfo\":\n           [\n                  {\n                    \"Key\": \"annualsavingsestimate\",\n                    \"Value\": \"50\"\n                  },\n                  {\n                    \"Key\": \"commodity\",\n                    \"Value\": \"gas\"\n                  },\n         \t\t{\n                    \"Key\": \"annualcost\",\n                    \"Value\": \"30.544444444444444444444444444444444444444444444444444444444444\"\n                  },\n                 {\n                    \"Key\": \"incentiveamount\",\n                    \"Value\": \"20.544444444444444444444444444444444444444444444444444444444555555555555555444\"\n                  },\n                ]\n         }\n       ]\n       },\n        {\"Id\": \"{{customeridnew}}_acct1prem2\",\"ActionStatuses\": \n       [\n         {\n           \"ActionKey\": \"installprogramthermostat\",\n            \"Status\": \"considering\",\n           \"SourceKey\": \"utility\",\n            \"AdditionalInfo\":\n           [\n                  {\n                    \"Key\": \"annualsavingsestimate\",\n                    \"Value\": \"50\"\n                  },\n                  {\n                    \"Key\": \"commodity\",\n                    \"Value\": \"gas\"\n                  },\n         \t\t{\n                    \"Key\": \"annualcost\",\n                    \"Value\": \"30.544444444444444444444444444444444444444444444444444444444444\"\n                  },\n                 {\n                    \"Key\": \"incentiveamount\",\n                    \"Value\": \"20.544444444444444444444444444444444444444444444444444444444555555555555555444\"\n                  },\n                 {\n                    \"Key\": \"upfrontcost\",\n                    \"Value\": \"50.544444444444444444444444444444444444444444444444444444444555555555555555444\"\n                  },\n                ]\n         },\n         {\n           \"ActionKey\": \"dishwashbyhand\",\n           \"Status\": \"considering\",\n           \"StatusDate\": \"2015-02-02 09:54:15.640\",\n           \"SourceKey\": \"utility\",\n            \"AdditionalInfo\":\n           [\n                  {\n                    \"Key\": \"annualsavingsestimate\",\n                    \"Value\": \"50\"\n                  },\n                  {\n                    \"Key\": \"commodity\",\n                    \"Value\": \"water\"\n                  },\n         \t\t{\n                    \"Key\": \"annualcost\",\n                    \"Value\": \"30.544444444444444444444444444444444444444444444444444444444444\"\n                  },\n                 {\n                    \"Key\": \"incentiveamount\",\n                    \"Value\": \"20.544444444444444444444444444444444444444444444444444444444555555555555555444\"\n                  },\n                ]\n         },\n         {\n           \"ActionKey\": \"shortershowers\",\n           \"SubActionKey\": \"Program2\",\n           \"Status\": \"selected\",\n           \"StatusDate\": \"2015-02-16\",\n           \"SourceKey\": \"utility\"\n         },\n          {\n           \"ActionKey\": \"shortershowers\",\n           \"SubActionKey\": \"Program1\",\n           \"Status\": \"completed\",\n           \"StatusDate\": \"2015-01-16\",\n           \"SourceKey\": \"utility\"\n         },\n       ]\n       }\n     ]\n    },\n    {\"Id\": \"{{customeridnew}}_acct2\",\"Premises\": \n     [\n       {\"Id\": \"{{customeridnew}}_acct2prem3\",\"ActionStatuses\": \n       [\n         {\n           \"ActionKey\": \"runfulldishwasher\",\n           \"Status\": \"cancelled\",\n           \"SourceKey\": \"utility\",\n           \"AdditionalInfo\":\n           [\n                  {\n                    \"Key\": \"annualsavingsestimate\",\n                    \"Value\": \"50\"\n                  },\n                  {\n                    \"Key\": \"commodity\",\n                    \"Value\": \"electric\"\n                  },\n         \t\t{\n                    \"Key\": \"annualcost\",\n                    \"Value\": \"30.544444444444444444444444444444444444444444444444444444444444\"\n                  },\n                 {\n                    \"Key\": \"incentiveamount\",\n                    \"Value\": \"20.544444444444444444444444444444444444444444444444444444444555555555555555444\"\n                  },\n                ]\n         },\n         {\n           \"ActionKey\": \"lowerheattemp\",\n           \"Status\": \"completed\",\n           \"StatusDate\": \"2015-02-02 09:54:15.640\",\n           \"SourceKey\": \"utility\",\n             \"AdditionalInfo\":\n           [\n                  {\n                    \"Key\": \"annualsavingsestimate\",\n                    \"Value\": \"100.66\"\n                  },\n                  {\n                    \"Key\": \"commodity\",\n                    \"Value\": \"gas\"\n                  },\n         \t\t{\n                    \"Key\": \"annualcost\",\n                    \"Value\": \"55.544444444444444444444444444444444444444444444444444444444444\"\n                  },\n                 {\n                    \"Key\": \"incentiveamount\",\n                    \"Value\": \"25.544444444444444444444444444444444444444444444444444444444555555555555555444\"\n                  },\n                ]\n         }\n       ]\n       }\n     ]\n    }\n  ]\n }\n}"
				},
				"description": "verifies that gets successful response - for an authorized basic user posting to actionplan controller endpoint with one premise one account for one customer with source utility. Subaction items are included "
			},
			"response": []
		},
		{
			"name": "actionplanv1_get_responsesuccess_whenfilterbycustomeridwsubactkeys_sourceutility",
			"event": [
				{
					"listen": "test",
					"script": {
						"type": "text/javascript",
						"exec": "tests[\"Status code is 200\"] = responseCode.code === 200;\ntests[\"Body matches customerid url parameter supplied\"] = responseBody.has(\"QAIntTestActPlan_\");\ntests[\"Body matches status\"] = responseBody.has('ActionStatuses');\n\n\ntests[\"Body matches subaction key for action shortershowers\"] = responseBody.has('\"SubActionKey\": \"Program2 shorter showers 2015\"');\n\n\ntests[\"Body matches subactionkey for action installprogramthermostat\"] = responseBody.has(\"Energy Savings Program 1 xxxxxxxxxxxxxxxxxxxxxxxxxxxxxxx\");"
					}
				}
			],
			"request": {
				"url": "{{url}}/api/v1/actionplan?CustomerId={{customeridnew}}",
				"method": "GET",
				"header": [
					{
						"key": "X-DateTime",
						"value": "04/24/2014 19:40:30",
						"description": ""
					},
					{
						"key": "X-CE-AccessKeyId",
						"value": "3588433F99244358A51BD39DB01C6DDE",
						"description": ""
					},
					{
						"key": "X-CE-MessageId",
						"value": "{{$guid}}",
						"description": ""
					},
					{
						"key": "X-CE-Channel",
						"value": "Postman",
						"description": ""
					},
					{
						"key": "X-CE-Locale",
						"value": "en-US",
						"description": ""
					},
					{
						"key": "Authorization",
						"value": "{{authorization256}}",
						"description": ""
					},
					{
						"key": "X-CE-Meta",
						"value": "#cecp:1#",
						"description": ""
					}
				],
				"body": {
					"mode": "formdata",
					"formdata": []
				},
				"description": "verifies that gets success code - for an authorized basic user accessing actionplan controller endpoint that has been enabled for them. Filter by customerid. Data has subaction keys with source utility."
			},
			"response": []
		},
		{
			"name": "actionplanv1_post_responsesuccess_whenmultiandnullsubactionkeys_multisourcekeys",
			"event": [
				{
					"listen": "test",
					"script": {
						"type": "text/javascript",
						"exec": "tests[\"Status code is 200\"] = responseCode.code === 200;\ntests[\"Empty body returned - with no errors\"] = responseBody.has('{}');\n\n"
					}
				},
				{
					"listen": "prerequest",
					"script": {
						"type": "text/javascript",
						"exec": "var dNow = new Date();\nvar utc = new Date(dNow.getTime() + dNow.getTimezoneOffset() * 60000)\nvar utcdate = (\"0\" + (utc.getMonth() + 1)).slice(-2) + '/' + (\"0\" + utc.getDate()).slice(-2) + '/' + utc.getFullYear() + ' ' + (\"0\" + utc.getHours()).slice(-2) + ':' + (\"0\" + utc.getMinutes()).slice(-2) + ':' + (\"0\" + utc.getSeconds()).slice(-2);\npostman.setGlobalVariable(\"utcdatetime\", utcdate);\n//customeridnew\nvar custidnew = \"QAInt2TestActPlan\" + \"_\" + utcdate;\npostman.setGlobalVariable(\"customeridnew\",custidnew);"
					}
				}
			],
			"request": {
				"url": "{{url}}/api/v1/actionplan",
				"method": "POST",
				"header": [
					{
						"key": "X-DateTime",
						"value": "04/24/2014 19:40:30",
						"description": ""
					},
					{
						"key": "X-CE-AccessKeyId",
						"value": "3588433F99244358A51BD39DB01C6DDE",
						"description": ""
					},
					{
						"key": "X-CE-MessageId",
						"value": "{{$guid}}",
						"description": ""
					},
					{
						"key": "X-CE-Channel",
						"value": "Postman",
						"description": ""
					},
					{
						"key": "X-CE-Locale",
						"value": "en-US",
						"description": ""
					},
					{
						"key": "Authorization",
						"value": "{{authorization256}}",
						"description": ""
					},
					{
						"key": "X-CE-Meta",
						"value": "#cecp:1#",
						"description": ""
					},
					{
						"key": "Content-Type",
						"value": "application/json",
						"description": ""
					}
				],
				"body": {
					"mode": "raw",
					"raw": "{ \"Customer\": \n {\"Id\": \"{{customeridnew}}\",\n  \"Accounts\": \n  [\n    {\"Id\": \"{{customeridnew}}_acct1\",\"Premises\": \n     [{\"Id\": \"{{customeridnew}}_acct1prem1\",\"ActionStatuses\": \n       [\n        {\n           \"ActionKey\": \"dishwashbyhand\",\n           \"Status\": \"selected\",\n           \"StatusDate\": \"2015-01-15 09:54:15.640\",\n           \"SourceKey\": \"utility\",\n            \"AdditionalInfo\":\n           [\n                  {\n                    \"Key\": \"annualsavingsestimate\",\n                    \"Value\": \"60\"\n                  },\n                  {\n                    \"Key\": \"commodity\",\n                    \"Value\": \"electric\"\n                  },\n           ]\n         },\n         {\n           \"ActionKey\": \"sealairducts\",\n           \"SubActionKey\": \"Program efficiency\",\n           \"Status\": \"selected\",\n           \"StatusDate\": \"2015-02-17 09:54:15.640\",\n           \"SourceKey\": \"customer\"\n         },\n         {\n           \"ActionKey\": \"replacewindow\",\n           \"SubActionKey\": \"Program3\",\n           \"Status\": \"completed\",\n           \"StatusDate\": \"2014-12-10 09:54:15.640\",\n           \"SourceKey\": \"utility\",\n           \"AdditionalInfo\":\n           [\n                  {\n                    \"Key\": \"annualsavingsestimate\",\n                    \"Value\": \"60\"\n                  },\n                  {\n                    \"Key\": \"commodity\",\n                    \"Value\": \"electric\"\n                  },\n         \t\t{\n                    \"Key\": \"annualcost\",\n                    \"Value\": \"60.544444444444444444444444444444444444444444444444444444444444\"\n                  },\n                 {\n                    \"Key\": \"incentiveamount\",\n                    \"Value\": \"20.544444444444444444444444444444444444444444444444444444444555555555555555444\"\n                  },\n                 {\n                    \"Key\": \"incentivetype\",\n                    \"Value\": \"rebate\"\n                  },\n                  {\n                    \"Key\": \"upfrontcost\",\n                    \"Value\": \"50.544444444444444444444444444444444444444444444444444444444555555555555555444\"\n                  },\n            ]\n         },\n         {\n           \"ActionKey\": \"replacewindow\",\n           \"SubActionKey\": \"Program2\",\n           \"Status\": \"completed\",\n           \"StatusDate\": \"2014-11-14 09:54:15.640\",\n           \"SourceKey\": \"utility\"\n         },\n          {\n           \"ActionKey\": \"replacewindow\",\n           \"SubActionKey\": \"Program1\",\n           \"Status\": \"completed\",\n           \"StatusDate\": \"2014-10-23 09:54:15.640\",\n           \"SourceKey\": \"customer\",\n           \"AdditionalInfo\":\n           [\n                 {\n                    \"Key\": \"incentiveamount\",\n                    \"Value\": \"700.0000000000000\"\n                  },\n                 {\n                    \"Key\": \"incentivetype\",\n                    \"Value\": \"loan\"\n                  }, \n            ]\n         }\n         ]\n         \n     }\n     ]\n        \n    }\n    ]\n     \n }}"
				},
				"description": "verifies that gets successful response - \nfor an authorized basic user posting to \nactionplan controller endpoint with 3 subaction keys for \nsame action.\nA different action key with null subaction. \nMultiple sources\nVerify that post is successful."
			},
			"response": []
		},
		{
			"name": "actionplanv1_get_responsesuccess_whenmultiandnullsubactionkeys_multisourcekeys",
			"event": [
				{
					"listen": "test",
					"script": {
						"type": "text/javascript",
						"exec": "tests[\"Status code is 200\"] = responseCode.code === 200;\ntests[\"Body matches customerid url parameter supplied\"] = responseBody.has(\"QAInt2TestActPlan_\");\ntests[\"Body matches status\"] = responseBody.has('ActionStatuses');\n\ntests[\"Body matches subactionkey for action replacewindow\"] = responseBody.has('\"SubActionKey\": \"Program1\"');"
					}
				}
			],
			"request": {
				"url": "{{url}}/api/v1/actionplan?CustomerId={{customeridnew}}",
				"method": "GET",
				"header": [
					{
						"key": "X-DateTime",
						"value": "04/24/2014 19:40:30",
						"description": ""
					},
					{
						"key": "X-CE-AccessKeyId",
						"value": "3588433F99244358A51BD39DB01C6DDE",
						"description": ""
					},
					{
						"key": "X-CE-MessageId",
						"value": "{{$guid}}",
						"description": ""
					},
					{
						"key": "X-CE-Channel",
						"value": "Postman",
						"description": ""
					},
					{
						"key": "X-CE-Locale",
						"value": "en-US",
						"description": ""
					},
					{
						"key": "Authorization",
						"value": "{{authorization256}}",
						"description": ""
					},
					{
						"key": "X-CE-Meta",
						"value": "#cecp:1#",
						"description": ""
					}
				],
				"body": {
					"mode": "formdata",
					"formdata": []
				},
				"description": "verifies that gets success code - \nfor an authorized basic user accessing\nactionplan controller endpoint that has \nbeen enabled for them. \nFilter by customerid. \nData has subaction keys with multiple source keys.\nSome action keys have no subactionkeys"
			},
			"response": []
		},
		{
			"name": "profilev1_post_responsesuccess_whennewcustomerwoneaccount_validation",
			"event": [
				{
					"listen": "test",
					"script": {
						"type": "text/javascript",
						"exec": "tests[\"Status code is 200\"] = responseCode.code === 200;\n "
					}
				}
			],
			"request": {
				"url": "{{url}}/api/v1/profile",
				"method": "POST",
				"header": [
					{
						"key": "X-DateTime",
						"value": "04/24/2014 19:40:30",
						"description": ""
					},
					{
						"key": "X-CE-AccessKeyId",
						"value": "3588433F99244358A51BD39DB01C6DDE",
						"description": ""
					},
					{
						"key": "X-CE-MessageId",
						"value": "b0c33e73-bfdc-c7c5-8a23-43f620ba0f6d",
						"description": ""
					},
					{
						"key": "X-CE-Channel",
						"value": "Postman",
						"description": ""
					},
					{
						"key": "X-CE-Locale",
						"value": "en-US",
						"description": ""
					},
					{
						"key": "Authorization",
						"value": "{{authorization256}}",
						"description": ""
					},
					{
						"key": "X-CE-Meta",
						"value": "#cecp:1#",
						"description": ""
					},
					{
						"key": "Content-Type",
						"value": "application/json",
						"description": ""
					}
				],
				"body": {
					"mode": "raw",
					"raw": "{ \"Customer\": \n {\"Id\": \"{{customeridnew}}\",\n  \"Attributes\": \n  [\n    {\"AttributeKey\": \"greenprogram.enrollmentstatus\",\n     \"AttributeValue\": \"greenprogram.enrollmentstatus.enrolled\",\n     \"SourceKey\": \"utility\"},\n    {\"AttributeKey\": \"savingsplan.enrollmentstatus\",\n     \"AttributeValue\": \"savingsplan.enrollmentstatus.enrolled\",\n     \"SourceKey\": \"utility\"}\n  ],\n  \"Accounts\": \n  [\n    {\"Id\": \"{{customeridnew}}_acct1\",\"Attributes\": \n     [\n       {\"AttributeKey\": \"paperlessbilling.enrollmentstatus\",\n        \"AttributeValue\": \"paperlessbilling.enrollmentstatus.enrolled\",\n        \"SourceKey\": \"utility\"\n       },\n       {\"AttributeKey\": \"budgetbilling.enrollmentstatus\",\n        \"AttributeValue\": \"budgetbilling.enrollmentstatus.enrolled\",\n        \"SourceKey\": \"utility\"}\n     ],\n     \"Premises\": \n     [\n       {\"Id\": \"{{customeridnew}}_acct1prem1\",\"Attributes\": \n        [\n          {\"AttributeKey\": \"heatsystem.style\",\n           \"AttributeValue\": \"heatsystem.style.airsourceheatpump\",\n           \"SourceKey\": \"utility\"\n          },\n          {\"AttributeKey\": \"house.yearbuilt\",\n           \"AttributeValue\": \"2000\",\n           \"SourceKey\": \"utility\"\n          },\n           {\"AttributeKey\": \"house.people\",\n           \"AttributeValue\": \"2\",\n           \"SourceKey\": \"utility\"\n          },\n            {\"AttributeKey\": \"house.totalarea\",\n           \"AttributeValue\": \"1312\",\n           \"SourceKey\": \"utility\"\n          },\n          {\"AttributeKey\": \"waterheater.year\",\n           \"AttributeValue\": \"2014\",\n           \"SourceKey\": \"utility\"\n          }\n        ]\n       }\n     ]\n    }\n  ]\n },\n \"Validate\": true}"
				},
				"description": "Verifies that posted successfully 200 return code when posting profile attributes for one customer. Validate set to true"
			},
			"response": []
		},
		{
			"name": "profilev1_get_responsesuccess_whenfilterbynewcustomerid",
			"event": [
				{
					"listen": "test",
					"script": {
						"type": "text/javascript",
						"exec": "tests[\"Status code is 200\"] = responseCode.code === 200;\ntests[\"Body matches some-customerid url parameter supplied\"] = responseBody.has('QAInt2TestActPlan_');\n"
					}
				}
			],
			"request": {
				"url": "{{url}}/api/v1/profile?CustomerId={{customeridnew}}&StartDate=1/1/2014&EndDate=7/27/2015&IncludeContent=true",
				"method": "GET",
				"header": [
					{
						"key": "X-DateTime",
						"value": "04/24/2014 19:40:30",
						"description": ""
					},
					{
						"key": "X-CE-AccessKeyId",
						"value": "3588433F99244358A51BD39DB01C6DDE",
						"description": ""
					},
					{
						"key": "X-CE-MessageId",
						"value": "{{$guid}}",
						"description": ""
					},
					{
						"key": "X-CE-Channel",
						"value": "Postman",
						"description": ""
					},
					{
						"key": "X-CE-Locale",
						"value": "en-US",
						"description": ""
					},
					{
						"key": "Authorization",
						"value": "{{authorization256}}",
						"description": ""
					},
					{
						"key": "X-CE-Meta",
						"value": "#cecp:1#",
						"description": ""
					}
				],
				"body": {
					"mode": "formdata",
					"formdata": []
				},
				"description": "verifies that gets success code - for an authorized basic user accessing profile controller endpoint that has been enabled for them. \nNew customer created in previous post test case.  Filter by customerid for all accounts, \npremises, sources. "
			},
			"response": []
		},
		{
			"name": "actionv1_get_responsesuccess_whennewcustomeridandmeasure",
			"event": [
				{
					"listen": "test",
					"script": {
						"type": "text/javascript",
						"exec": "tests[\"Status code is 200\"] = responseCode.code === 200; \ntests[\"Body matches Actions (recommendations) for client\"] = responseBody.has('Actions');\ntests[\"Body matches AdditionalMeasurements\"] = responseBody.has('AdditionalMeasurements');\ntests[\"Body matches customerid url parameter supplied\"] = responseBody.has(\"QAIntTestActPlan_\");\n"
					}
				}
			],
			"request": {
				"url": "{{url}}/api/v1/action?customerid={{customeridnew}}&MeasurementKeys=trees,co2,points",
				"method": "GET",
				"header": [
					{
						"key": "X-DateTime",
						"value": "04/24/2014 19:40:30",
						"description": ""
					},
					{
						"key": "X-CE-AccessKeyId",
						"value": "3588433F99244358A51BD39DB01C6DDE",
						"description": ""
					},
					{
						"key": "X-CE-MessageId",
						"value": "{{$guid}}",
						"description": ""
					},
					{
						"key": "X-CE-Channel",
						"value": "Postman",
						"description": ""
					},
					{
						"key": "X-CE-Locale",
						"value": "en-US",
						"description": ""
					},
					{
						"key": "Authorization",
						"value": "{{authorization256}}",
						"description": ""
					},
					{
						"key": "X-CE-Meta",
						"value": "#cecp:1#",
						"description": ""
					}
				],
				"body": {
					"mode": "formdata",
					"formdata": []
				},
				"description": "Run ETL_256 job in environment tested prior to this testcase after a profile and actionplan post so that data flows back to Insightsdw/BI. Otherwise action will have no data found if customerid does not exist in insightsdw\\BI. verifies that gets success code - for an authorized basic user accessing actionplan controller endpoint that has been enabled for them. Get all actions and content for a customer id and measurements"
			},
			"response": []
		},
		{
			"name": "actionplanv1_post_responsesuccess_whencompletedacts_subactionkeyswsourceutility_mapped",
			"event": [
				{
					"listen": "test",
					"script": {
						"type": "text/javascript",
						"exec": "tests[\"Status code is 200\"] = responseCode.code === 200;\ntests[\"Empty body returned - with no errors\"] = responseBody.has('{}');\n\n"
					}
				},
				{
					"listen": "prerequest",
					"script": {
						"type": "text/javascript",
						"exec": "var dNow = new Date();\nvar utc = new Date(dNow.getTime() + dNow.getTimezoneOffset() * 60000)\nvar utcdate = (\"0\" + (utc.getMonth() + 1)).slice(-2) + '/' + (\"0\" + utc.getDate()).slice(-2) + '/' + utc.getFullYear() + ' ' + (\"0\" + utc.getHours()).slice(-2) + ':' + (\"0\" + utc.getMinutes()).slice(-2) + ':' + (\"0\" + utc.getSeconds()).slice(-2);\npostman.setGlobalVariable(\"utcdatetime\", utcdate);\n//customeridnew\nvar custidnew = \"QAIntTestActPlanMapped\" + \"_\" + utcdate;\npostman.setGlobalVariable(\"customeridnew\",custidnew);"
					}
				}
			],
			"request": {
				"url": "{{url}}/api/v1/actionplan",
				"method": "POST",
				"header": [
					{
						"key": "X-DateTime",
						"value": "04/24/2014 19:40:30",
						"description": ""
					},
					{
						"key": "X-CE-AccessKeyId",
						"value": "3588433F99244358A51BD39DB01C6DDE",
						"description": ""
					},
					{
						"key": "X-CE-MessageId",
						"value": "{{$guid}}",
						"description": ""
					},
					{
						"key": "X-CE-Channel",
						"value": "Postman",
						"description": ""
					},
					{
						"key": "X-CE-Locale",
						"value": "en-US",
						"description": ""
					},
					{
						"key": "Authorization",
						"value": "{{authorization256}}",
						"description": ""
					},
					{
						"key": "X-CE-Meta",
						"value": "#cecp:1#",
						"description": ""
					},
					{
						"key": "Content-Type",
						"value": "application/json",
						"description": ""
					}
				],
				"body": {
					"mode": "raw",
					"raw": "{ \"Customer\": \n {\"Id\": \"{{customeridnew}}\",\n  \"Accounts\": \n  [\n    {\"Id\": \"{{customeridnew}}_acct1\",\"Premises\": \n     [{\"Id\": \"{{customeridnew}}_prem1\",\"ActionStatuses\": \n       [\n         {\n           \"ActionKey\": \"replaceclotheswasher\",\n           \"Status\": \"completed\",\n           \"SourceKey\": \"utility\"\n         },\n         {\n           \"ActionKey\": \"insulatehotwaterpipes\",\n           \"Status\": \"completed\",\n          \"SourceKey\": \"utility\"\n         },\n         {\n           \"ActionKey\": \"lowflowfaucet\",\n           \"Status\": \"completed\",\n           \"SourceKey\": \"utility\"\n         },\n         {\n           \"ActionKey\": \"lowflowshower\",\n           \"Status\": \"completed\",\n           \"SourceKey\": \"utility\"\n         },\n         {\n           \"ActionKey\": \"sealairducts\",\n           \"Status\": \"completed\",\n           \"SourceKey\": \"utility\"\n         }\n         ]}]}]},\n \"Validate\": true}"
				},
				"description": "verifies that gets successful response - \nfor an authorized basic user posting to \nactionplan controller endpoint with \none premise one account for one customer \nwith source utility. \nSubaction items are included .\nStatus is completed for all actions for this test.\nAction items are measures defined as mapped.\nsee spreadsheet here:http://tfssp.aclaratech.com/tfs/SWDefaultCollection/EnergyPrism/CE%20Project%20Documents/CR33645%20UI%20ProjectMapping.xlsx \nfor list of mapped and unmapped"
			},
			"response": []
		},
		{
			"name": "actionplanv1_get_reponsesuccesswhencompletedacts_subactionkeyswsourceutility_mapped",
			"event": [
				{
					"listen": "test",
					"script": {
						"type": "text/javascript",
						"exec": "tests[\"Status code is 200\"] = responseCode.code === 200;\n\ntests[\"Body matches status\"] = responseBody.has('ActionStatuses');\ntests[\"Body matches measure replaceclotheswasher\"] = responseBody.has('\"ActionKey\": \"replaceclotheswasher\"');\ntests[\"Body matches measure insulatehotwaterpipes\"] = responseBody.has('\"ActionKey\": \"insulatehotwaterpipes\"');\ntests[\"Body matches measure lowflowfaucet\"] = responseBody.has('\"ActionKey\": \"lowflowfaucet\"');\ntests[\"Body matches measure lowflowshower\"] = responseBody.has('\"ActionKey\": \"lowflowshower\"');"
					}
				}
			],
			"request": {
				"url": "{{url}}/api/v1/actionplan?CustomerId={{customeridnew}}",
				"method": "GET",
				"header": [
					{
						"key": "X-DateTime",
						"value": "04/24/2014 19:40:30",
						"description": ""
					},
					{
						"key": "X-CE-AccessKeyId",
						"value": "3588433F99244358A51BD39DB01C6DDE",
						"description": ""
					},
					{
						"key": "X-CE-MessageId",
						"value": "{{$guid}}",
						"description": ""
					},
					{
						"key": "X-CE-Channel",
						"value": "Postman",
						"description": ""
					},
					{
						"key": "X-CE-Locale",
						"value": "en-US",
						"description": ""
					},
					{
						"key": "Authorization",
						"value": "{{authorization256}}",
						"description": ""
					},
					{
						"key": "X-CE-Meta",
						"value": "#cecp:1#",
						"description": ""
					}
				],
				"body": {
					"mode": "formdata",
					"formdata": []
				},
				"description": "verifies that gets success code - \nfor an authorized basic user accessing \nactionplan controller endpoint that has\nbeen enabled for them. \nFilter by customerid. \nData has subaction keys with source utility.\nVerify that measures that are mapped have all\nposted successfully - i.e. they come back in the\nget."
			},
			"response": []
		},
		{
			"name": "actionplanv1_post_responsesuccess_whencompletedacts_subactionkeyswsourceutility_unmapped",
			"event": [
				{
					"listen": "test",
					"script": {
						"type": "text/javascript",
						"exec": "tests[\"Status code is 200\"] = responseCode.code === 200;\ntests[\"Empty body returned - with no errors\"] = responseBody.has('{}');\n\n"
					}
				},
				{
					"listen": "prerequest",
					"script": {
						"type": "text/javascript",
						"exec": "var dNow = new Date();\nvar utc = new Date(dNow.getTime() + dNow.getTimezoneOffset() * 60000)\nvar utcdate = (\"0\" + (utc.getMonth() + 1)).slice(-2) + '/' + (\"0\" + utc.getDate()).slice(-2) + '/' + utc.getFullYear() + ' ' + (\"0\" + utc.getHours()).slice(-2) + ':' + (\"0\" + utc.getMinutes()).slice(-2) + ':' + (\"0\" + utc.getSeconds()).slice(-2);\npostman.setGlobalVariable(\"utcdatetime\", utcdate);\n//customeridnew\nvar custidnew = \"QAIntTestActPlanUnMap\" + \"_\" + utcdate;\npostman.setGlobalVariable(\"customeridnew\",custidnew);"
					}
				}
			],
			"request": {
				"url": "{{url}}/api/v1/actionplan",
				"method": "POST",
				"header": [
					{
						"key": "X-DateTime",
						"value": "04/24/2014 19:40:30",
						"description": ""
					},
					{
						"key": "X-CE-AccessKeyId",
						"value": "3588433F99244358A51BD39DB01C6DDE",
						"description": ""
					},
					{
						"key": "X-CE-MessageId",
						"value": "{{$guid}}",
						"description": ""
					},
					{
						"key": "X-CE-Channel",
						"value": "Postman",
						"description": ""
					},
					{
						"key": "X-CE-Locale",
						"value": "en-US",
						"description": ""
					},
					{
						"key": "Authorization",
						"value": "{{authorization256}}",
						"description": ""
					},
					{
						"key": "X-CE-Meta",
						"value": "#cecp:1#",
						"description": ""
					},
					{
						"key": "Content-Type",
						"value": "application/json",
						"description": ""
					}
				],
				"body": {
					"mode": "raw",
					"raw": "{ \"Customer\": \n {\"Id\": \"{{customeridnew}}\",\n  \"Accounts\": \n  [\n    {\"Id\": \"{{customeridnew}}_acct1\",\"Premises\": \n     [{\"Id\": \"{{customeridnew}}_prem1\",\"ActionStatuses\": \n       [\n         {\n           \"ActionKey\": \"audithome\",\n           \"Status\": \"completed\",\n           \"SourceKey\": \"utility\"\n         },\n         {\n           \"ActionKey\": \"insulatewall\",\n           \"Status\": \"completed\",\n           \"SourceKey\": \"utility\"\n         }\n           ]}]}]},\n \"Validate\": true}"
				},
				"description": "verifies that gets successful response - \nfor an authorized basic user posting to \nactionplan controller endpoint with \none premise one account for one customer \nwith source utility. \nSubaction items are included .\nStatus is completed for all actions for this test.\nAction items are measures defined as unmapped.\nsee spreadsheet here:http://tfssp.aclaratech.com/tfs/SWDefaultCollection/EnergyPrism/CE%20Project%20Documents/CR33645%20UI%20ProjectMapping.xlsx \nfor list of mapped and unmapped . Verify is in default content\n ;Select * FROM [InsightsMetadata].[cm].[vActions] WHERE \n actionkey IN ( 'auditblowerdoor','customizedprogram','replacedehumidifier','auditsitevisit', 'auditappliance', 'audithome', 'auditsystems', 'auditairsealing','audithvactest','insulatebasement','insulatewall')\n"
			},
			"response": []
		},
		{
			"name": "actionplanv1_get_reponsesuccesswhencompletedacts_subactionkeyswsourceutility_unmapped",
			"event": [
				{
					"listen": "test",
					"script": {
						"type": "text/javascript",
						"exec": "tests[\"Status code is 200\"] = responseCode.code === 200;\ntests[\"Body matches status\"] = responseBody.has('ActionStatuses');\n\n\ntests[\"Body matches measure audithome\"] = responseBody.has('\"ActionKey\": \"audithome\"');\ntests[\"Body matches measure insulatewall\"] = responseBody.has('\"ActionKey\": \"insulatewall\"');"
					}
				}
			],
			"request": {
				"url": "{{url}}/api/v1/actionplan?CustomerId={{customeridnew}}",
				"method": "GET",
				"header": [
					{
						"key": "X-DateTime",
						"value": "04/24/2014 19:40:30",
						"description": ""
					},
					{
						"key": "X-CE-AccessKeyId",
						"value": "3588433F99244358A51BD39DB01C6DDE",
						"description": ""
					},
					{
						"key": "X-CE-MessageId",
						"value": "{{$guid}}",
						"description": ""
					},
					{
						"key": "X-CE-Channel",
						"value": "Postman",
						"description": ""
					},
					{
						"key": "X-CE-Locale",
						"value": "en-US",
						"description": ""
					},
					{
						"key": "Authorization",
						"value": "{{authorization256}}",
						"description": ""
					},
					{
						"key": "X-CE-Meta",
						"value": "#cecp:1#",
						"description": ""
					}
				],
				"body": {
					"mode": "formdata",
					"formdata": []
				},
				"description": "verifies that gets success code - \nfor an authorized basic user accessing \nactionplan controller endpoint that has\nbeen enabled for them. \nFilter by customerid. \nData has subaction keys with source utility.\nVerify that measures that are unmapped have all\nposted successfully - i.e. they come back in the\nget."
			},
			"response": []
		},
		{
			"name": "actionplanv1_get_responsesuccess_whenfilterbycustomeridupdate_sourceutility",
			"event": [
				{
					"listen": "test",
					"script": {
						"type": "text/javascript",
						"exec": "tests[\"Status code is 200\"] = responseCode.code === 200;\ntests[\"Body matches customerid url parameter supplied\"] = responseBody.has(\"QAIntTestActPlan_\");\ntests[\"Body matches status\"] = responseBody.has('ActionStatuses');\n\n\ntests[\"Body matches subaction key for action shortershowers\"] = responseBody.has('\"SubActionKey\": \"Program2 shorter showers 2015\"');\n\n\ntests[\"Body matches subactionkey for action installprogramthermostat\"] = responseBody.has(\"Energy Savings Program 1 xxxxxxxxxxxxxxxxxxxxxxxxxxxxxxx\");"
					}
				}
			],
			"request": {
				"url": "{{url}}/api/v1/actionplan?CustomerId=custLRLtest_03-02-2015_03-28-56_9",
				"method": "GET",
				"header": [
					{
						"key": "X-DateTime",
						"value": "04/24/2014 19:40:30",
						"description": ""
					},
					{
						"key": "X-CE-AccessKeyId",
						"value": "3588433F99244358A51BD39DB01C6DDE",
						"description": ""
					},
					{
						"key": "X-CE-MessageId",
						"value": "{{$guid}}",
						"description": ""
					},
					{
						"key": "X-CE-Channel",
						"value": "Postman",
						"description": ""
					},
					{
						"key": "X-CE-Locale",
						"value": "en-US",
						"description": ""
					},
					{
						"key": "Authorization",
						"value": "{{authorization256}}",
						"description": ""
					},
					{
						"key": "X-CE-Meta",
						"value": "#cecp:1#",
						"description": ""
					}
				],
				"body": {
					"mode": "formdata",
					"formdata": []
				},
				"description": "verifies that gets success code - \nfor an authorized basic user \naccessing actionplan controller \nendpoint that has been enabled for them. \nFilter by customerid. \nData has updates for the 16 profile attributes on bulk load source utility"
			},
			"response": []
		},
		{
			"name": "profilev1_get_responsesuccess_whenfilterbyexistingcustomerid",
			"event": [
				{
					"listen": "test",
					"script": {
						"type": "text/javascript",
						"exec": "tests[\"Status code is 200\"] = responseCode.code === 200;\ntests[\"Body matches some-customerid url parameter supplied\"] = responseBody.has('QAIntTestActPlan_');\n"
					}
				}
			],
			"request": {
				"url": "{{url}}/api/v1/profile?CustomerId=custLRLtest_03-02-2015_03-28-56_9&StartDate=1/1/2014&EndDate=6/24/2015&IncludeContent=true",
				"method": "GET",
				"header": [
					{
						"key": "X-DateTime",
						"value": "04/24/2014 19:40:30",
						"description": ""
					},
					{
						"key": "X-CE-AccessKeyId",
						"value": "3588433F99244358A51BD39DB01C6DDE",
						"description": ""
					},
					{
						"key": "X-CE-MessageId",
						"value": "{{$guid}}",
						"description": ""
					},
					{
						"key": "X-CE-Channel",
						"value": "Postman",
						"description": ""
					},
					{
						"key": "X-CE-Locale",
						"value": "en-US",
						"description": ""
					},
					{
						"key": "Authorization",
						"value": "{{authorization256}}",
						"description": ""
					},
					{
						"key": "X-CE-Meta",
						"value": "#cecp:1#",
						"description": ""
					}
				],
				"body": {
					"mode": "formdata",
					"formdata": []
				},
				"description": "verifies that gets success code - for an authorized basic user accessing profile controller endpoint that has been enabled for them. \nExisting customer created on bulk load/csv file preimport process\nFilter by customerid for all accounts, \npremises, sources. "
			},
			"response": []
		},
		{
			"name": "actionplanv1_post_responsesuccess_whensubactionkeyswsourcecustomerupdate",
			"event": [
				{
					"listen": "test",
					"script": {
						"type": "text/javascript",
						"exec": "tests[\"Status code is 200\"] = responseCode.code === 200;\ntests[\"Empty body returned - with no errors\"] = responseBody.has('{}');\n\n"
					}
				},
				{
					"listen": "prerequest",
					"script": {
						"type": "text/javascript",
						"exec": " "
					}
				}
			],
			"request": {
				"url": "{{url}}/api/v1/actionplan",
				"method": "POST",
				"header": [
					{
						"key": "X-DateTime",
						"value": "04/24/2014 19:40:30",
						"description": ""
					},
					{
						"key": "X-CE-AccessKeyId",
						"value": "3588433F99244358A51BD39DB01C6DDE",
						"description": ""
					},
					{
						"key": "X-CE-MessageId",
						"value": "{{$guid}}",
						"description": ""
					},
					{
						"key": "X-CE-Channel",
						"value": "Postman",
						"description": ""
					},
					{
						"key": "X-CE-Locale",
						"value": "en-US",
						"description": ""
					},
					{
						"key": "Authorization",
						"value": "{{authorization256}}",
						"description": ""
					},
					{
						"key": "X-CE-Meta",
						"value": "#cecp:1#",
						"description": ""
					},
					{
						"key": "Content-Type",
						"value": "application/json",
						"description": ""
					}
				],
				"body": {
					"mode": "raw",
					"raw": "{ \"Customer\": \n {\"Id\": \"custLRLtest_03-05-2015_09-28-37_25\",\n  \"Accounts\": \n  [\n    {\"Id\": \"acctLRLtest_03-05-2015_09-28-37_25\",\"Premises\": \n     [{\"Id\": \"premLRLtest_03-05-2015_09-28-37_25\",\"ActionStatuses\": \n       [\n         {\n           \"ActionKey\": \"replacetorchiere\",\n           \"Status\": \"selected\",\n           \"StatusDate\": \"2015-03-17 09:54:15.640\",\n           \"SourceKey\": \"customer\"\n         },\n         {\n           \"ActionKey\": \"insulatehotwaterpipes\",\n           \"Status\": \"completed\",\n          \"SourceKey\": \"utility\"\n         },\n         {\n           \"ActionKey\": \"lowflowfaucet\",\n           \"Status\": \"completed\",\n           \"SourceKey\": \"utility\"\n         },\n         {\n           \"ActionKey\": \"lowflowshower\",\n           \"Status\": \"completed\",\n           \"SourceKey\": \"utility\"\n         },\n         {\n           \"ActionKey\": \"sealairducts\",\n           \"Status\": \"completed\",\n           \"SourceKey\": \"csr\"\n         }\n         ]}]}]},\n \"Validate\": true}"
				},
				"description": "verifies that gets successful response - for an authorized basic user posting to actionplan controller endpoint with one premise one account for one customer with source utility. Subaction items are included "
			},
			"response": []
		},
		{
			"name": "actionplanv1_get_responsesuccess_whenfilterbycustomeridupdatewsubactkeys_sourcemulti",
			"event": [
				{
					"listen": "test",
					"script": {
						"type": "text/javascript",
						"exec": "tests[\"Status code is 200\"] = responseCode.code === 200;\ntests[\"Body matches customerid url parameter supplied\"] = responseBody.has(\"QAIntTestActPlan_\");\ntests[\"Body matches status\"] = responseBody.has('ActionStatuses');\n\n\ntests[\"Body matches subaction key for action shortershowers\"] = responseBody.has('\"SubActionKey\": \"Program2 shorter showers 2015\"');\n\n\ntests[\"Body matches subactionkey for action installprogramthermostat\"] = responseBody.has(\"Energy Savings Program 1 xxxxxxxxxxxxxxxxxxxxxxxxxxxxxxx\");"
					}
				}
			],
			"request": {
				"url": "{{url}}/api/v1/actionplan?CustomerId=custLRLtest_03-05-2015_09-28-37_25",
				"method": "GET",
				"header": [
					{
						"key": "X-DateTime",
						"value": "04/24/2014 19:40:30",
						"description": ""
					},
					{
						"key": "X-CE-AccessKeyId",
						"value": "3588433F99244358A51BD39DB01C6DDE",
						"description": ""
					},
					{
						"key": "X-CE-MessageId",
						"value": "{{$guid}}",
						"description": ""
					},
					{
						"key": "X-CE-Channel",
						"value": "Postman",
						"description": ""
					},
					{
						"key": "X-CE-Locale",
						"value": "en-US",
						"description": ""
					},
					{
						"key": "Authorization",
						"value": "{{authorization256}}",
						"description": ""
					},
					{
						"key": "X-CE-Meta",
						"value": "#cecp:1#",
						"description": ""
					}
				],
				"body": {
					"mode": "formdata",
					"formdata": []
				},
				"description": "verifies that gets success code - for an authorized basic user accessing actionplan controller endpoint that has been enabled for them. Filter by customerid. Data has subaction keys with source utility."
			},
			"response": []
		},
		{
			"name": "profilev1_post_responsesuccess_whenexistcustomerwoneaccountupdate_validation",
			"event": [
				{
					"listen": "test",
					"script": {
						"type": "text/javascript",
						"exec": "tests[\"Status code is 200\"] = responseCode.code === 200;\n "
					}
				}
			],
			"request": {
				"url": "{{url}}/api/v1/profile",
				"method": "POST",
				"header": [
					{
						"key": "X-DateTime",
						"value": "04/24/2014 19:40:30",
						"description": ""
					},
					{
						"key": "X-CE-AccessKeyId",
						"value": "3588433F99244358A51BD39DB01C6DDE",
						"description": ""
					},
					{
						"key": "X-CE-MessageId",
						"value": "b0c33e73-bfdc-c7c5-8a23-43f620ba0f6d",
						"description": ""
					},
					{
						"key": "X-CE-Channel",
						"value": "Postman",
						"description": ""
					},
					{
						"key": "X-CE-Locale",
						"value": "en-US",
						"description": ""
					},
					{
						"key": "Authorization",
						"value": "{{authorization256}}",
						"description": ""
					},
					{
						"key": "X-CE-Meta",
						"value": "#cecp:1#",
						"description": ""
					},
					{
						"key": "Content-Type",
						"value": "application/json",
						"description": ""
					}
				],
				"body": {
					"mode": "raw",
					"raw": "{ \"Customer\": \n {\"Id\": \"custLRLtest_03-05-2015_09-28-37_25\",\n  \"Attributes\": \n  [\n    {\"AttributeKey\": \"greenprogram.enrollmentstatus\",\n     \"AttributeValue\": \"greenprogram.enrollmentstatus.enrolled\",\n     \"SourceKey\": \"utility\"},\n    {\"AttributeKey\": \"savingsplan.enrollmentstatus\",\n     \"AttributeValue\": \"savingsplan.enrollmentstatus.enrolled\",\n     \"SourceKey\": \"utility\"}\n  ],\n  \"Accounts\": \n  [\n    {\"Id\": \"acctLRLtest_03-05-2015_09-28-37_25\",\"Attributes\": \n     [\n       {\"AttributeKey\": \"paperlessbilling.enrollmentstatus\",\n        \"AttributeValue\": \"paperlessbilling.enrollmentstatus.enrolled\",\n        \"SourceKey\": \"utility\"\n       },\n       {\"AttributeKey\": \"budgetbilling.enrollmentstatus\",\n        \"AttributeValue\": \"budgetbilling.enrollmentstatus.enrolled\",\n        \"SourceKey\": \"utility\"}\n     ],\n     \"Premises\": \n     [\n       {\"Id\": \"premLRLtest_03-05-2015_09-28-37_25\",\"Attributes\": \n        [\n          {\"AttributeKey\": \"heatsystem.style\",\n           \"AttributeValue\": \"heatsystem.style.airsourceheatpump\",\n           \"SourceKey\": \"utility\"\n          },\n          {\"AttributeKey\": \"house.yearbuilt\",\n           \"AttributeValue\": \"2000\",\n           \"SourceKey\": \"utility\"\n          },\n           {\"AttributeKey\": \"house.people\",\n           \"AttributeValue\": \"2\",\n           \"SourceKey\": \"utility\"\n          },\n            {\"AttributeKey\": \"house.totalarea\",\n           \"AttributeValue\": \"1312\",\n           \"SourceKey\": \"utility\"\n          },\n          {\"AttributeKey\": \"waterheater.year\",\n           \"AttributeValue\": \"2015\",\n           \"SourceKey\": \"customer\"\n          },\n          {\"AttributeKey\": \"house.insulationqualitypoor\",\n           \"AttributeValue\": \"house.insulationqualitypoor.yes\",\n           \"SourceKey\": \"csr\"\n          },\n        ]\n       }\n     ]\n    }\n  ]\n },\n \"Validate\": true}"
				},
				"description": "Verifies that posted successfully \n200 return code when posting profile \nattributes for one customer.  This is existing customer from\nbulk load/csv file that had updates in postman (run ETL_256 after to verify makes it to the insightsdw \nValidate set to true.   \nSQL for verifying data is in insightsdw after ETL job run:  \nUSE [InsightsDW]\nGO\nDECLARE @return_value int\nEXEC @return_value = [dbo].[GetProfilePremiseAttributes]\n@ClientID = 256,\n@CustomerID = N'custLRLtest_03-05-2015_09-28-37_25'\nSELECT 'Return Value' = @return_value\nGO"
			},
			"response": []
		},
		{
			"name": "profilev1_get_responsesuccess_whenfilterbyupdatedcustomerid",
			"event": [
				{
					"listen": "test",
					"script": {
						"type": "text/javascript",
						"exec": "tests[\"Status code is 200\"] = responseCode.code === 200;\ntests[\"Body matches some-customerid url parameter supplied\"] = responseBody.has('QAIntTestActPlan_');\n"
					}
				}
			],
			"request": {
				"url": "{{url}}/api/v1/profile?CustomerId=custLRLtest_03-05-2015_09-28-37_25&StartDate=1/1/2014&EndDate=6/24/2015&IncludeContent=true",
				"method": "GET",
				"header": [
					{
						"key": "X-DateTime",
						"value": "04/24/2014 19:40:30",
						"description": ""
					},
					{
						"key": "X-CE-AccessKeyId",
						"value": "3588433F99244358A51BD39DB01C6DDE",
						"description": ""
					},
					{
						"key": "X-CE-MessageId",
						"value": "{{$guid}}",
						"description": ""
					},
					{
						"key": "X-CE-Channel",
						"value": "Postman",
						"description": ""
					},
					{
						"key": "X-CE-Locale",
						"value": "en-US",
						"description": ""
					},
					{
						"key": "Authorization",
						"value": "{{authorization87}}",
						"description": ""
					},
					{
						"key": "X-CE-Meta",
						"value": "#cecp:1#",
						"description": ""
					}
				],
				"body": {
					"mode": "formdata",
					"formdata": []
				},
				"description": "verifies that gets success code - for an authorized basic user accessing profile controller endpoint that has been enabled for them. \nExisting customer created on bulk load/csv file preimport process\nFilter by customerid for all accounts, \npremises, sources. "
			},
			"response": []
		},
		{
			"name": "webtokenapiv1_post_responsesuccesswithstatus_when_87Clientnewcustomer",
			"event": [
				{
					"listen": "test",
					"script": {
						"type": "text/javascript",
						"exec": "tests[\"Status code is 200\"] = responseCode.code === 200;\n\ntests[\"Body finds WebToken\"] = responseBody.has('\"WebToken\":');\n"
					}
				},
				{
					"listen": "prerequest",
					"script": {
						"type": "text/javascript",
						"exec": "var dNow = new Date();\nvar utc = new Date(dNow.getTime() + dNow.getTimezoneOffset() * 60000)\nvar utcdate = (\"0\" + (utc.getMonth() + 1)).slice(-2) + '/' + (\"0\" + utc.getDate()).slice(-2) + '/' + utc.getFullYear() + ' ' + (\"0\" + utc.getHours()).slice(-2) + ':' + (\"0\" + utc.getMinutes()).slice(-2) + ':' + (\"0\" + utc.getSeconds()).slice(-2);\npostman.setGlobalVariable(\"utcdatetime\", utcdate);\n\nvar newCust = \"QA256TestToken-\" + utcdate;\npostman.setGlobalVariable(\"customeridnew\", newCust);"
					}
				}
			],
			"request": {
				"url": "{{url}}/api/v1/webtoken",
				"method": "POST",
				"header": [
					{
						"key": "X-DateTime",
						"value": "04/24/2014 19:40:30",
						"description": ""
					},
					{
						"key": "X-CE-AccessKeyId",
						"value": "{{ceaccesskey87}}",
						"description": ""
					},
					{
						"key": "X-CE-MessageId",
						"value": "{{$guid}}",
						"description": ""
					},
					{
						"key": "X-CE-Channel",
						"value": "Postman",
						"description": ""
					},
					{
						"key": "X-CE-Locale",
						"value": "en-US",
						"description": ""
					},
					{
						"key": "X-CE-Meta",
						"value": "#cecp:1#",
						"description": ""
					},
					{
						"key": "Authorization",
						"value": "{{authorization87}}",
						"description": ""
					},
					{
						"key": "Content-Type",
						"value": "application/json",
						"description": ""
					}
				],
				"body": {
					"mode": "raw",
					"raw": "{\n  \"CustomerId\": \"{{customeridnew}}\",\n  \"AdditionalInfo\": \"SomeAdditionalInfo1:123456,SomeAdditionalInfo1=7890\"\n}\n"
				},
				"description": "verify that data returns successful response with status 'no customer found' when post for a new customer id is supplied. Creates webtoken even if Customer id does not exist in datawarehouse"
			},
			"response": []
		},
		{
			"name": "profilev1_post_responsesuccess_whenexistcustomerwoneaccountupdate_errorzip",
			"event": [
				{
					"listen": "test",
					"script": {
						"type": "text/javascript",
						"exec": "tests[\"Status code is 200\"] = responseCode.code === 200;\n "
					}
				}
			],
			"request": {
				"url": "{{url}}/api/v1/profile",
				"method": "POST",
				"header": [
					{
						"key": "X-DateTime",
						"value": "04/24/2014 19:40:30",
						"description": ""
					},
					{
						"key": "X-CE-AccessKeyId",
						"value": "3588433F99244358A51BD39DB01C6DDE",
						"description": ""
					},
					{
						"key": "X-CE-MessageId",
						"value": "b0c33e73-bfdc-c7c5-8a23-43f620ba0f6d",
						"description": ""
					},
					{
						"key": "X-CE-Channel",
						"value": "Postman",
						"description": ""
					},
					{
						"key": "X-CE-Locale",
						"value": "en-US",
						"description": ""
					},
					{
						"key": "Authorization",
						"value": "{{authorization256}}",
						"description": ""
					},
					{
						"key": "X-CE-Meta",
						"value": "#cecp:1#",
						"description": ""
					},
					{
						"key": "Content-Type",
						"value": "application/json",
						"description": ""
					}
				],
				"body": {
					"mode": "raw",
					"raw": "{ \"Customer\": \n {\"Id\": \"QAAccessTest_05182015130339\",\n  \"Attributes\": \n  [\n    {\"AttributeKey\": \"greenprogram.enrollmentstatus\",\n     \"AttributeValue\": \"greenprogram.enrollmentstatus.enrolled\",\n     \"SourceKey\": \"utility\"},\n    {\"AttributeKey\": \"savingsplan.enrollmentstatus\",\n     \"AttributeValue\": \"savingsplan.enrollmentstatus.enrolled\",\n     \"SourceKey\": \"utility\"}\n  ],\n  \"Accounts\": \n  [\n    {\"Id\": \"QAAccessTest_05182015130339\",\"Attributes\": \n     [\n       {\"AttributeKey\": \"paperlessbilling.enrollmentstatus\",\n        \"AttributeValue\": \"paperlessbilling.enrollmentstatus.enrolled\",\n        \"SourceKey\": \"utility\"\n       },\n       {\"AttributeKey\": \"budgetbilling.enrollmentstatus\",\n        \"AttributeValue\": \"budgetbilling.enrollmentstatus.enrolled\",\n        \"SourceKey\": \"utility\"}\n     ],\n     \"Premises\": \n     [\n       {\"Id\": \"QAAccessTest_05182015130339\",\"Attributes\": \n        [\n          {\"AttributeKey\": \"heatsystem.style\",\n           \"AttributeValue\": \"heatsystem.style.airsourceheatpump\",\n           \"SourceKey\": \"utility\"\n          },\n          {\"AttributeKey\": \"house.yearbuilt\",\n           \"AttributeValue\": \"2000\",\n           \"SourceKey\": \"utility\"\n          },\n           {\"AttributeKey\": \"house.people\",\n           \"AttributeValue\": \"2\",\n           \"SourceKey\": \"utility\"\n          },\n            {\"AttributeKey\": \"house.totalarea\",\n           \"AttributeValue\": \"1312\",\n           \"SourceKey\": \"utility\"\n          },\n          {\"AttributeKey\": \"waterheater.year\",\n           \"AttributeValue\": \"2015\",\n           \"SourceKey\": \"customer\"\n          },\n          {\"AttributeKey\": \"house.insulationqualitypoor\",\n           \"AttributeValue\": \"house.insulationqualitypoor.yes\",\n           \"SourceKey\": \"csr\"\n          },\n        ]\n       }\n     ]\n    }\n  ]\n },\n \"Validate\": true}"
				},
				"description": "Verifies that posted successfully \nfor zipcode for customer - make sure after generated billdisagg"
			},
			"response": []
		}
	]
}