{
	"id": "75f45764-0647-ed78-80eb-f8f802b7d841",
	"name": "NotificationStatsAPI_SenGrid",
	"description": "",
	"order": [
		"5ef09030-c5dd-4770-2426-cdd7c428e02e"
	],
	"folders": [],
	"timestamp": 0,
	"owner": "85107",
	"public": false,
	"published": false,
	"requests": [
		{
			"id": "5ef09030-c5dd-4770-2426-cdd7c428e02e",
			"headers": "Content-Type: application/json\n",
			"url": "http://aclaonotificationstatswebapiqa.azurewebsites.net/SendGridStats/post",
			"preRequestScript": null,
			"pathVariables": {},
			"method": "POST",
			"data": [],
			"dataMode": "raw",
			"tests": null,
			"currentHelper": "normal",
			"helperAttributes": {},
			"time": 1472484884743,
			"name": "NotificationStatsAPI Post_SendGrid",
			"description": "NotificationStatsAPI",
			"collectionId": "75f45764-0647-ed78-80eb-f8f802b7d841",
			"responses": [],
			"rawModeData": "[\r\n                {\r\n                                \"email\": \"example@test.com\",\r\n                                \"timestamp\": 1471618114,\r\n                                \"smtp-id\": \"\\u003c14c5d75ce93.dfd.64b469@ismtpd-555\\u003e\",\r\n                                \"event\": \"click\",\r\n                                \"category\": \"cat facts\",\r\n                                \"sg_event_id\": \"yYJuC4W0uwIY_xRio12_dQ==\",\r\n                                \"sg_message_id\": \"14c5d75ce93.dfd.64b469.filter0001.16648.5515E0B88.0\",\r\n                                \"useragent\": \"Mozilla/4.0 (compatible; MSIE 6.1; Windows XP; .NET CLR 1.1.4322; .NET CLR 2.0.50727)\",\r\n                                \"ip\": \"255.255.255.255\",\r\n                                \"url\": \"http://www.sendgrid.com/\",\r\n                                \"customKey\": \"test|2016-08-29_test_click\"\r\n                }, {\r\n                                \"email\": \"example@test.com\",\r\n                                \"timestamp\": 1471618114,\r\n                                \"smtp-id\": \"\\u003c14c5d75ce93.dfd.64b469@ismtpd-555\\u003e\",\r\n                                \"event\": \"bounce\",\r\n                                \"category\": \"cat facts\",\r\n                                \"sg_event_id\": \"ftd8e9aSpfx1TTsc-It5uw==\",\r\n                                \"sg_message_id\": \"14c5d75ce93.dfd.64b469.filter0001.16648.5515E0B88.0\",\r\n                                \"reason\": \"500 unknown recipient\",\r\n                                \"status\": \"5.0.0\",\r\n                                \"customKey\": \"test|2016-08-29_test_bounce\"\r\n                }, {\r\n                                \"email\": \"example@test.com\",\r\n                                \"timestamp\": 1471618114,\r\n                                \"smtp-id\": \"\\u003c14c5d75ce93.dfd.64b469@ismtpd-555\\u003e\",\r\n                                \"event\": \"dropped\",\r\n                                \"category\": \"cat facts\",\r\n                                \"sg_event_id\": \"1pWDZmKCtZi9aLFouCxtXw==\",\r\n                                \"sg_message_id\": \"14c5d75ce93.dfd.64b469.filter0001.16648.5515E0B88.0\",\r\n                                \"reason\": \"Bounced Address\",\r\n                                \"status\": \"5.0.0\",\r\n                                \"customKey\": \"test|2016-08-29_test_dropped\"\r\n                },             {\r\n                                \"email\": \"example@test.com\",\r\n                                \"timestamp\": 1471618114,\r\n                                \"smtp-id\": \"\\u003c14c5d75ce93.dfd.64b469@ismtpd-555\\u003e\",\r\n                                \"event\": \"open\",\r\n                                \"category\": \"cat facts\",\r\n                                \"sg_event_id\": \"xJm3-2sDr8jAQT0zVwna2w==\",\r\n                                \"sg_message_id\": \"14c5d75ce93.dfd.64b469.filter0001.16648.5515E0B88.0\",\r\n                                \"useragent\": \"Mozilla/4.0 (compatible; MSIE 6.1; Windows XP; .NET CLR 1.1.4322; .NET CLR 2.0.50727)\",\r\n                                \"ip\": \"255.255.255.255\",\r\n                                \"customKey\": \"test|2016-08-29_test_open\"\r\n                }\r\n]\r\n"
		}
	]
}