ClientId,MeterId,AccountNumber,ServicePointId,CommodityId,UOMId,VolumeFactor,Direction,ProjectedReadDate,TimeStamp,Timezone,IntValue0000,IntValue0100,IntValue0200,IntValue0300,IntValue0400,IntValue0500,IntValue0600,IntValue0700,IntValue0800,IntValue0900,IntValue1000,IntValue1100,IntValue1200,IntValue1300,IntValue1400,IntValue1500,IntValue1600,IntValue1700,IntValue1800,IntValue1900,IntValue2000,IntValue2100,IntValue2200,IntValue2300
87,3CommWMeter12,3CommAcct11,3CommWServP12,3,3,,,6/2/2016,7/31/2015,PDT,0.98,0.627,0.929,0.942,0.731,0.663,0.841,0.534,0.914,0.846,0.855,0.809,0.844,0.544,0.979,0.972,0.713,0.869,0.514,0.522,0.927,0.681,0.977,0.501
87,3CommWMeter12,3CommAcct11,3CommWServP12,3,3,,,6/2/2016,8/1/2015,PDT,0.617,0.674,0.774,0.514,0.994,0.731,0.574,0.914,0.915,0.771,0.798,0.892,0.965,0.726,0.594,0.799,0.589,0.963,0.569,0.994,0.554,1.008,1.021,0.711
87,3CommWMeter12,3CommAcct11,3CommWServP12,3,3,,,6/2/2016,8/2/2015,PDT,0.807,0.871,1.022,0.75,0.54,0.639,0.566,0.569,0.635,0.667,0.983,0.918,0.567,0.718,0.608,0.767,0.891,0.993,0.861,0.611,0.87,0.508,0.688,0.895
87,3CommWMeter12,3CommAcct11,3CommWServP12,3,3,,,6/2/2016,8/3/2015,PDT,0.596,0.987,0.599,0.623,0.817,0.932,0.552,0.936,0.786,0.822,0.887,0.526,0.527,0.708,0.776,0.859,0.997,0.538,0.908,0.6,0.622,0.626,0.994,0.809
87,3CommWMeter12,3CommAcct11,3CommWServP12,3,3,,,6/2/2016,8/4/2015,PDT,0.568,0.896,1.001,0.954,0.636,0.856,0.508,0.749,1.007,0.757,0.621,0.903,0.841,0.782,0.542,0.882,0.582,0.995,0.964,0.869,0.548,0.852,0.57,0.668
87,3CommWMeter12,3CommAcct11,3CommWServP12,3,3,,,6/2/2016,8/5/2015,PDT,0.762,0.572,0.683,0.591,0.96,0.989,0.75,0.97,0.771,0.71,0.649,0.534,0.776,0.501,0.638,0.831,0.937,0.656,0.959,0.946,0.906,0.536,0.664,0.673
87,3CommWMeter12,3CommAcct11,3CommWServP12,3,3,,,6/2/2016,8/6/2015,PDT,0.64,1.026,0.639,0.913,0.595,0.655,0.675,0.982,0.788,1,0.88,0.688,0.864,0.689,0.8,0.772,0.662,0.913,0.706,0.895,0.891,0.777,0.879,0.689
87,3CommWMeter12,3CommAcct11,3CommWServP12,3,3,,,6/2/2016,8/7/2015,PDT,0.935,0.723,0.515,0.715,0.518,1.021,0.51,0.667,0.905,0.728,0.75,0.606,0.602,0.638,0.821,0.9,0.741,0.838,0.925,0.788,0.732,0.998,1.009,0.77
87,3CommWMeter12,3CommAcct11,3CommWServP12,3,3,,,6/2/2016,8/8/2015,PDT,0.521,0.96,0.87,0.535,0.66,0.565,0.547,0.804,0.848,0.551,0.802,0.606,0.606,0.538,0.552,0.792,1.033,0.63,0.946,1.022,0.911,0.999,0.54,0.929
87,3CommWMeter12,3CommAcct11,3CommWServP12,3,3,,,6/2/2016,8/9/2015,PDT,0.524,0.652,0.551,1.032,0.682,0.962,0.923,0.917,0.63,0.804,0.935,0.79,0.691,0.779,0.717,0.76,0.906,0.981,1.038,0.989,0.938,0.935,0.995,0.857
87,3CommWMeter12,3CommAcct11,3CommWServP12,3,3,,,6/2/2016,8/10/2015,PDT,0.578,0.872,0.689,0.774,0.513,0.646,0.886,0.671,0.984,0.671,0.633,0.516,0.618,0.721,0.837,0.563,0.997,0.814,0.773,0.965,0.639,0.736,0.851,0.524
87,3CommWMeter12,3CommAcct11,3CommWServP12,3,3,,,6/2/2016,8/11/2015,PDT,0.571,0.802,0.775,0.707,0.929,0.897,0.548,1.041,0.615,0.824,0.91,0.805,0.884,0.955,0.891,0.908,0.953,0.623,0.786,0.513,0.816,0.885,0.932,0.504
87,3CommWMeter12,3CommAcct11,3CommWServP12,3,3,,,6/2/2016,8/12/2015,PDT,0.728,0.746,0.927,0.972,0.551,0.761,0.934,0.644,0.831,0.885,1.041,0.722,0.887,0.589,0.556,0.765,0.613,0.76,1.035,1.024,0.535,0.929,0.697,0.758
87,3CommWMeter12,3CommAcct11,3CommWServP12,3,3,,,6/2/2016,8/13/2015,PDT,0.677,0.871,0.868,0.558,0.505,0.606,0.53,0.616,0.881,0.544,1,0.779,1.006,0.59,0.59,1,0.916,0.953,0.858,0.888,0.797,0.658,0.892,0.762
87,3CommWMeter12,3CommAcct11,3CommWServP12,3,3,,,6/2/2016,8/14/2015,PDT,0.835,0.801,0.854,0.681,0.916,0.98,0.831,0.661,0.59,0.921,0.972,0.547,0.742,0.74,0.905,0.523,0.872,0.755,0.823,0.719,0.853,0.569,0.841,0.903
87,3CommWMeter12,3CommAcct11,3CommWServP12,3,3,,,6/2/2016,8/15/2015,PDT,0.974,0.856,0.85,0.722,0.977,0.951,0.523,0.833,1.015,0.987,0.713,0.643,0.897,0.726,0.603,0.719,0.574,0.974,0.561,1.011,0.758,0.589,1.024,0.588
87,3CommWMeter12,3CommAcct11,3CommWServP12,3,3,,,6/2/2016,8/16/2015,PDT,0.965,0.847,0.668,0.657,0.55,0.921,1.04,0.601,1.022,0.887,0.842,0.98,0.734,0.594,0.965,0.758,0.679,0.792,0.921,1.003,0.754,0.663,0.868,0.649
87,3CommWMeter12,3CommAcct11,3CommWServP12,3,3,,,6/2/2016,8/17/2015,PDT,0.533,0.56,0.955,0.736,0.632,0.987,1,0.996,0.9,0.944,0.714,0.87,0.819,0.899,0.999,0.941,0.691,0.588,0.501,0.683,0.995,0.901,0.593,0.606
87,3CommWMeter12,3CommAcct11,3CommWServP12,3,3,,,6/2/2016,8/18/2015,PDT,0.6,0.587,0.526,0.62,0.552,0.924,0.62,0.887,0.68,0.678,0.907,0.987,0.64,0.938,0.667,0.848,0.759,0.688,0.948,0.779,0.723,1.033,0.591,0.665
87,3CommWMeter12,3CommAcct11,3CommWServP12,3,3,,,6/2/2016,8/19/2015,PDT,0.562,0.704,0.997,0.936,0.77,0.987,0.944,0.756,0.812,0.914,0.761,0.773,0.944,0.976,0.921,0.752,0.576,0.746,0.866,0.773,0.745,0.513,0.994,0.991
87,3CommWMeter12,3CommAcct11,3CommWServP12,3,3,,,6/2/2016,8/20/2015,PDT,0.952,0.613,0.763,0.744,0.532,0.551,0.514,0.851,1.034,0.792,0.65,0.741,0.507,0.777,0.632,0.872,0.92,0.831,0.99,0.825,0.73,0.997,0.844,0.754
87,3CommWMeter12,3CommAcct11,3CommWServP12,3,3,,,6/2/2016,8/21/2015,PDT,0.608,0.67,0.661,0.76,0.726,0.889,0.949,0.827,0.55,0.709,0.905,0.801,0.656,0.822,0.897,0.573,0.849,0.736,0.983,0.872,0.806,0.81,0.509,1.026
87,3CommWMeter12,3CommAcct11,3CommWServP12,3,3,,,6/2/2016,8/22/2015,PDT,0.96,0.936,0.936,0.687,0.504,0.939,0.658,0.786,0.666,0.853,0.706,0.521,0.812,0.726,0.587,0.585,0.958,0.945,0.862,0.968,0.54,0.823,0.879,0.864
87,3CommWMeter12,3CommAcct11,3CommWServP12,3,3,,,6/2/2016,8/23/2015,PDT,0.945,0.586,0.812,0.665,0.514,0.973,0.539,0.665,0.991,0.886,1.034,0.609,0.517,0.724,0.677,0.893,0.947,0.812,0.963,0.72,0.91,0.848,0.898,0.587
87,3CommWMeter12,3CommAcct11,3CommWServP12,3,3,,,6/2/2016,8/24/2015,PDT,0.861,0.999,0.683,0.876,0.773,1.007,0.538,0.866,0.811,0.762,0.7,0.533,0.686,0.797,0.619,0.938,0.598,0.904,0.699,0.559,1.023,0.515,0.553,0.659
87,3CommWMeter12,3CommAcct11,3CommWServP12,3,3,,,6/2/2016,8/25/2015,PDT,0.619,0.887,0.539,0.911,0.795,0.87,0.942,0.985,0.895,1.029,0.622,0.743,0.671,0.7,0.945,0.837,0.615,0.971,0.564,0.76,0.827,0.513,0.55,0.806
87,3CommWMeter12,3CommAcct11,3CommWServP12,3,3,,,6/2/2016,8/26/2015,PDT,0.891,0.86,0.648,0.804,0.746,0.997,0.873,0.58,0.73,0.837,0.898,0.758,0.531,0.557,0.963,0.841,0.79,0.558,0.501,0.945,0.568,0.967,0.856,0.861
87,3CommWMeter12,3CommAcct11,3CommWServP12,3,3,,,6/2/2016,8/27/2015,PDT,0.881,0.984,0.77,0.84,0.977,0.855,0.718,0.723,0.614,0.736,0.945,0.975,0.916,1.003,0.846,0.811,0.559,0.821,0.586,0.835,0.706,0.775,0.721,0.622
87,3CommWMeter12,3CommAcct11,3CommWServP12,3,3,,,6/2/2016,8/28/2015,PDT,0.605,1.037,0.582,0.92,0.646,0.981,0.815,0.773,0.965,0.71,0.863,0.549,0.556,0.704,0.594,1.017,0.876,0.965,0.695,0.674,0.814,0.737,0.546,0.781
87,3CommWMeter12,3CommAcct11,3CommWServP12,3,3,,,6/2/2016,8/29/2015,PDT,0.749,0.884,0.966,0.645,0.7,0.95,0.871,0.959,0.771,0.939,0.846,0.591,0.968,0.712,0.644,0.541,0.941,0.716,0.782,0.774,0.892,0.939,0.979,0.82
87,3CommWMeter12,3CommAcct11,3CommWServP12,3,3,,,6/2/2016,8/30/2015,PDT,0.851,0.611,0.707,0.506,0.898,0.695,0.884,0.622,0.95,1.002,0.78,0.781,1.009,0.929,0.779,0.64,0.864,0.744,0.64,0.869,0.763,0.749,0.742,0.938
87,3CommWMeter12,3CommAcct11,3CommWServP12,3,3,,,6/2/2016,8/31/2015,PDT,0.62,0.879,0.771,0.621,1.019,0.838,0.615,0.836,0.667,0.501,0.889,0.851,0.588,0.757,0.646,0.674,0.721,0.568,1.008,0.924,0.773,1.034,0.856,0.865
87,3CommWMeter12,3CommAcct11,3CommWServP12,3,3,,,6/2/2016,9/1/2015,PDT,0.849,0.893,0.949,0.911,0.597,1.018,1.003,0.809,0.562,0.911,0.875,0.545,0.618,0.759,0.743,0.901,0.739,0.788,0.954,0.693,0.801,0.735,0.642,0.602
87,3CommWMeter12,3CommAcct11,3CommWServP12,3,3,,,6/2/2016,9/2/2015,PDT,1.021,0.841,0.951,0.57,0.652,0.666,0.647,0.725,0.805,0.511,0.821,0.844,0.545,0.685,0.812,0.949,0.836,0.663,0.564,0.942,0.867,0.839,0.849,0.667
87,3CommWMeter12,3CommAcct11,3CommWServP12,3,3,,,6/2/2016,9/3/2015,PDT,0.918,0.539,0.705,0.968,0.977,0.531,0.777,0.574,0.937,0.675,0.648,0.626,0.767,0.865,0.521,0.823,0.888,0.856,0.745,0.739,0.585,0.53,0.752,0.583
87,3CommWMeter12,3CommAcct11,3CommWServP12,3,3,,,6/2/2016,9/4/2015,PDT,0.91,0.632,0.508,0.885,0.917,0.749,0.631,0.557,0.929,0.508,1.024,0.707,0.567,0.509,0.772,0.812,0.693,0.509,0.602,0.897,0.809,0.892,0.768,0.71
87,3CommWMeter12,3CommAcct11,3CommWServP12,3,3,,,6/2/2016,9/5/2015,PDT,0.987,0.966,1.038,0.506,0.764,0.518,0.606,0.886,0.788,0.861,0.58,0.558,0.813,0.857,0.956,0.778,0.623,0.701,0.848,0.767,0.871,0.912,0.679,0.667
87,3CommWMeter12,3CommAcct11,3CommWServP12,3,3,,,6/2/2016,9/6/2015,PDT,0.895,1.023,0.949,1.04,0.771,0.811,0.643,0.69,0.934,0.634,0.621,0.797,0.718,0.508,0.594,0.512,0.61,0.972,0.539,0.975,0.515,0.631,0.876,0.55
87,3CommWMeter12,3CommAcct11,3CommWServP12,3,3,,,6/2/2016,9/7/2015,PDT,0.799,0.54,0.505,0.95,0.992,0.564,0.907,0.928,0.763,0.651,0.792,0.829,0.786,0.62,0.811,0.724,0.577,0.834,0.585,0.627,0.962,0.717,0.931,0.843
87,3CommWMeter12,3CommAcct11,3CommWServP12,3,3,,,6/2/2016,9/8/2015,PDT,0.792,0.85,0.897,0.857,0.84,0.715,0.996,0.601,0.74,0.745,0.574,0.518,0.51,0.895,0.806,0.549,0.624,0.649,0.958,0.858,0.585,0.669,0.796,0.581
87,3CommWMeter12,3CommAcct11,3CommWServP12,3,3,,,6/2/2016,9/9/2015,PDT,0.96,0.919,0.991,0.575,1.009,0.688,0.882,0.513,0.553,1.039,0.859,0.851,0.578,0.837,0.708,0.957,0.576,0.814,0.751,0.642,0.978,0.857,0.839,0.918
87,3CommWMeter12,3CommAcct11,3CommWServP12,3,3,,,6/2/2016,9/10/2015,PDT,0.502,1.014,0.551,0.678,0.724,1.002,0.542,0.748,0.683,0.747,0.811,0.919,1.024,0.506,1.002,0.958,0.528,0.515,0.521,0.953,0.763,0.548,0.551,0.662
87,3CommWMeter12,3CommAcct11,3CommWServP12,3,3,,,6/2/2016,9/11/2015,PDT,0.569,0.593,0.913,0.732,0.664,0.689,0.591,0.64,0.831,0.518,1.002,1.036,0.814,0.72,0.692,1.031,0.631,0.514,0.982,0.63,0.603,0.546,0.597,0.847
87,3CommWMeter12,3CommAcct11,3CommWServP12,3,3,,,6/2/2016,9/12/2015,PDT,0.532,0.799,0.619,1.002,0.888,0.841,0.757,0.653,1.025,0.626,0.581,0.751,0.871,0.604,1.035,0.885,0.963,0.607,0.532,0.768,0.584,0.815,0.961,0.836
87,3CommWMeter12,3CommAcct11,3CommWServP12,3,3,,,6/2/2016,9/13/2015,PDT,0.642,0.565,0.569,0.588,0.647,0.763,0.852,0.579,0.81,0.683,1.028,0.843,0.533,0.922,0.705,0.567,0.631,0.648,0.882,0.591,0.964,0.646,0.634,0.949
87,3CommWMeter12,3CommAcct11,3CommWServP12,3,3,,,6/2/2016,9/14/2015,PDT,1.029,1.019,0.885,0.566,0.953,0.762,0.961,0.89,0.745,0.52,0.606,0.601,0.631,0.784,0.713,1.036,1.001,0.611,1.029,0.96,0.528,0.91,0.87,0.702
87,3CommWMeter12,3CommAcct11,3CommWServP12,3,3,,,6/2/2016,9/15/2015,PDT,0.705,0.557,0.597,0.808,0.772,0.608,0.929,0.612,0.984,0.659,0.962,0.737,0.501,0.73,0.93,0.892,0.942,0.728,1.025,0.903,0.742,0.602,0.762,0.655
87,3CommWMeter12,3CommAcct11,3CommWServP12,3,3,,,6/2/2016,9/16/2015,PDT,0.752,1.002,0.813,1.012,0.768,0.673,0.961,0.799,0.907,0.923,0.988,0.888,0.984,0.669,1.039,0.572,0.905,0.531,0.737,0.929,0.84,1.023,0.607,0.933
87,3CommWMeter12,3CommAcct11,3CommWServP12,3,3,,,6/2/2016,9/17/2015,PDT,0.624,0.865,0.754,0.991,0.693,0.582,0.58,0.691,0.652,0.714,0.535,0.92,1.02,0.779,0.882,0.557,0.958,0.956,0.641,0.61,0.968,0.74,0.828,0.571
87,3CommWMeter12,3CommAcct11,3CommWServP12,3,3,,,6/2/2016,9/18/2015,PDT,0.932,0.649,0.611,0.682,0.609,0.918,0.798,0.507,0.782,0.59,0.558,0.705,0.739,0.658,0.709,0.753,0.702,0.974,1.021,0.589,0.853,0.901,0.799,0.529
87,3CommWMeter12,3CommAcct11,3CommWServP12,3,3,,,6/2/2016,9/19/2015,PDT,0.594,0.658,0.915,0.809,0.514,0.559,0.69,1.007,0.573,0.864,0.653,0.626,0.793,0.776,0.863,0.678,0.858,0.84,0.947,0.683,0.646,0.691,0.699,0.878
87,3CommWMeter12,3CommAcct11,3CommWServP12,3,3,,,6/2/2016,9/20/2015,PDT,0.775,0.783,0.764,0.73,0.509,0.612,0.75,0.93,1.036,0.908,1.034,0.682,0.679,0.782,0.694,0.867,0.644,0.543,0.607,0.93,0.546,0.565,0.779,1.01
87,3CommWMeter12,3CommAcct11,3CommWServP12,3,3,,,6/2/2016,9/21/2015,PDT,0.877,0.813,0.541,0.57,0.59,0.716,0.945,0.599,0.808,0.749,0.989,0.559,0.517,0.868,0.909,0.945,0.678,0.511,0.505,0.928,0.643,0.917,0.567,0.77
87,3CommWMeter12,3CommAcct11,3CommWServP12,3,3,,,6/2/2016,9/22/2015,PDT,0.989,1.006,0.666,0.707,0.967,0.734,0.68,1.017,0.698,0.982,0.873,0.685,0.839,0.852,1.005,0.644,1.007,1.04,0.946,0.723,0.961,0.702,0.84,1.041
87,3CommWMeter12,3CommAcct11,3CommWServP12,3,3,,,6/2/2016,9/23/2015,PDT,0.725,0.85,0.913,0.956,0.731,0.756,0.663,0.532,1.041,0.841,0.668,0.818,0.687,0.857,0.813,0.936,0.612,0.523,0.744,0.876,0.708,0.802,0.595,0.542
87,3CommWMeter12,3CommAcct11,3CommWServP12,3,3,,,6/2/2016,9/24/2015,PDT,0.524,0.986,0.781,0.809,0.918,0.51,0.636,0.703,0.919,1.026,0.979,0.67,0.653,0.975,0.723,0.753,0.736,0.833,0.796,1.019,0.525,0.935,0.937,0.92
87,3CommWMeter12,3CommAcct11,3CommWServP12,3,3,,,6/2/2016,9/25/2015,PDT,0.862,0.755,0.685,0.564,0.66,0.742,0.968,1.018,0.792,0.94,0.891,0.653,0.562,0.805,0.912,0.658,0.991,0.948,0.973,0.875,0.792,0.907,0.882,0.827
87,3CommWMeter12,3CommAcct11,3CommWServP12,3,3,,,6/2/2016,9/26/2015,PDT,0.806,0.991,0.842,0.677,0.742,0.536,0.991,0.933,0.817,0.963,0.718,0.801,0.658,1.029,0.855,1.037,1.029,0.891,0.52,0.57,0.73,0.669,0.661,0.574
87,3CommWMeter12,3CommAcct11,3CommWServP12,3,3,,,6/2/2016,9/27/2015,PDT,0.598,0.587,0.643,0.724,0.944,0.787,0.612,0.829,0.964,0.966,0.56,0.669,0.759,0.913,0.98,0.975,0.842,0.762,0.661,0.854,0.638,0.806,1.009,0.78
87,3CommWMeter12,3CommAcct11,3CommWServP12,3,3,,,6/2/2016,9/28/2015,PDT,1.018,0.59,1.039,0.865,1.006,0.793,0.895,0.761,0.879,0.583,0.596,0.833,0.767,0.991,0.918,0.553,0.916,1.019,0.698,0.738,0.781,0.673,0.649,0.951
87,3CommWMeter12,3CommAcct11,3CommWServP12,3,3,,,6/2/2016,9/29/2015,PDT,0.93,0.87,1.019,0.776,0.925,0.856,0.538,0.998,0.513,0.656,0.751,1.04,0.854,0.769,1.019,0.914,0.835,1.021,0.717,0.638,0.724,0.797,0.58,0.86
87,3CommWMeter12,3CommAcct11,3CommWServP12,3,3,,,6/2/2016,9/30/2015,PDT,0.932,0.582,0.669,0.7,0.694,0.646,1.003,0.85,0.78,0.96,1.016,0.828,0.541,0.63,0.743,0.988,0.993,0.859,0.698,0.857,0.881,0.573,1.033,0.641
87,3CommWMeter12,3CommAcct11,3CommWServP12,3,3,,,6/2/2016,10/1/2015,PDT,0.884,0.85,0.526,0.851,0.925,1.014,0.927,0.731,0.938,0.84,0.709,0.531,0.556,0.701,0.659,0.968,0.871,0.675,0.602,0.885,0.55,0.923,0.928,0.936
87,3CommWMeter12,3CommAcct11,3CommWServP12,3,3,,,6/2/2016,10/2/2015,PDT,0.899,1.019,0.589,1.03,0.621,0.694,0.661,0.584,0.697,0.869,0.966,0.682,0.933,0.51,0.661,1.034,0.828,0.528,0.977,0.522,1.027,0.513,0.544,1.012
87,3CommWMeter12,3CommAcct11,3CommWServP12,3,3,,,6/2/2016,10/3/2015,PDT,0.532,0.92,0.83,0.815,0.607,0.865,0.571,0.763,1.021,0.559,0.937,0.578,0.839,0.967,0.586,0.656,0.739,0.603,0.536,0.609,0.646,0.72,0.929,0.72
87,3CommWMeter12,3CommAcct11,3CommWServP12,3,3,,,6/2/2016,10/4/2015,PDT,0.613,0.693,1.022,0.773,0.874,0.728,0.516,0.715,0.705,0.682,0.75,0.629,0.645,0.555,0.536,0.556,0.901,0.519,0.9,0.955,0.652,0.961,0.738,0.829
87,3CommWMeter12,3CommAcct11,3CommWServP12,3,3,,,6/2/2016,10/5/2015,PDT,0.554,1.036,1.002,0.882,0.719,0.686,0.715,0.782,0.962,0.892,0.706,0.738,0.558,0.577,0.592,0.857,0.969,0.615,0.969,0.694,0.994,0.519,0.639,0.755
87,3CommWMeter12,3CommAcct11,3CommWServP12,3,3,,,6/2/2016,10/6/2015,PDT,0.545,0.598,1.007,0.756,0.926,0.9,1.039,0.509,0.823,0.797,1.031,0.984,0.879,0.813,1.042,0.741,0.999,0.878,0.513,0.864,0.878,0.986,0.782,0.872
87,3CommWMeter12,3CommAcct11,3CommWServP12,3,3,,,6/2/2016,10/7/2015,PDT,0.951,0.98,0.933,0.6,0.608,0.869,0.834,0.618,0.955,0.916,0.622,0.595,0.576,0.744,0.925,0.582,0.734,0.838,0.58,0.521,0.929,0.976,0.865,0.571
87,3CommWMeter12,3CommAcct11,3CommWServP12,3,3,,,6/2/2016,10/8/2015,PDT,0.962,0.983,0.529,0.913,0.857,0.707,1.013,0.793,0.778,0.709,0.671,0.911,0.967,0.622,0.574,0.808,0.904,1.031,0.687,0.988,0.989,0.773,0.794,0.77
87,3CommWMeter12,3CommAcct11,3CommWServP12,3,3,,,6/2/2016,10/9/2015,PDT,0.909,0.959,0.67,0.699,0.709,0.869,0.782,0.952,1.042,0.636,0.701,0.876,0.905,0.567,0.797,0.703,0.863,0.595,0.983,0.527,0.676,0.679,0.919,0.589
87,3CommWMeter12,3CommAcct11,3CommWServP12,3,3,,,6/2/2016,10/10/2015,PDT,0.986,0.814,0.927,0.58,0.579,0.651,1.03,0.594,0.867,0.616,0.815,1.015,1.024,0.963,0.768,0.612,0.791,0.915,0.782,0.518,0.803,0.624,0.685,0.859
87,3CommWMeter12,3CommAcct11,3CommWServP12,3,3,,,6/2/2016,10/11/2015,PDT,0.504,0.875,0.977,0.765,0.844,0.801,0.668,0.736,0.857,0.583,0.509,0.913,0.905,0.597,0.667,0.521,0.97,0.516,0.926,0.919,0.722,0.636,0.618,0.563
87,3CommWMeter12,3CommAcct11,3CommWServP12,3,3,,,6/2/2016,10/12/2015,PDT,0.939,0.657,0.696,0.827,0.696,0.633,0.592,0.527,0.629,0.669,1.003,0.977,0.92,0.779,1.019,0.914,0.862,0.784,0.885,0.592,0.841,0.504,1.025,0.927
87,3CommWMeter12,3CommAcct11,3CommWServP12,3,3,,,6/2/2016,10/13/2015,PDT,0.693,0.503,0.752,0.781,0.911,1.01,0.621,1.037,1.012,0.813,0.842,1.041,0.963,0.7,0.531,0.716,0.637,0.679,0.735,0.732,0.616,0.577,0.664,0.533
87,3CommWMeter12,3CommAcct11,3CommWServP12,3,3,,,6/2/2016,10/14/2015,PDT,0.631,0.571,0.513,0.797,0.835,0.599,0.863,0.914,0.741,1.036,0.776,0.723,1,0.703,0.545,0.915,0.523,0.829,0.865,0.623,0.886,0.85,0.753,0.977
87,3CommWMeter12,3CommAcct11,3CommWServP12,3,3,,,6/2/2016,10/15/2015,PDT,0.549,0.728,1.008,0.652,0.865,0.918,1.029,0.524,0.675,0.672,0.617,0.652,0.793,0.594,1.003,0.991,0.579,0.954,0.844,0.537,0.663,0.62,0.964,1.001
87,3CommWMeter12,3CommAcct11,3CommWServP12,3,3,,,6/2/2016,10/16/2015,PDT,0.585,0.553,0.906,0.637,0.992,0.997,0.501,0.859,0.961,0.961,0.965,1.003,0.601,0.969,0.809,0.895,0.506,0.539,1.024,0.515,0.812,0.535,0.67,0.969
87,3CommWMeter12,3CommAcct11,3CommWServP12,3,3,,,6/2/2016,10/17/2015,PDT,0.65,1.036,0.622,0.544,0.542,0.556,0.96,0.895,0.558,0.995,1.03,0.805,0.523,0.768,0.546,0.838,0.816,1.041,0.745,0.629,0.541,0.957,0.778,0.773
87,3CommWMeter12,3CommAcct11,3CommWServP12,3,3,,,6/2/2016,10/18/2015,PDT,0.938,0.916,0.624,0.648,1.027,0.945,0.778,0.958,0.707,0.929,0.531,0.509,0.575,0.958,0.985,0.932,0.538,0.859,0.695,1.024,0.684,1.033,0.524,0.849
87,3CommWMeter12,3CommAcct11,3CommWServP12,3,3,,,6/2/2016,10/19/2015,PDT,0.535,0.855,0.965,0.752,0.773,0.974,0.554,0.848,0.935,0.814,0.512,0.86,0.508,1.027,0.886,0.607,0.603,0.96,1.013,0.746,0.734,0.617,0.939,0.709
87,3CommWMeter12,3CommAcct11,3CommWServP12,3,3,,,6/2/2016,10/20/2015,PDT,0.901,1.025,1.003,0.699,0.624,0.78,0.619,0.633,0.72,0.611,0.693,0.687,1.03,0.559,0.576,0.938,0.916,0.964,0.648,0.837,0.548,0.959,0.989,0.899
87,3CommWMeter12,3CommAcct11,3CommWServP12,3,3,,,6/2/2016,10/21/2015,PDT,0.706,0.732,0.698,0.838,0.645,0.801,1.038,0.848,0.624,1.008,1.006,0.993,0.839,0.76,0.889,0.843,1.022,0.549,0.719,0.625,0.699,0.993,1.016,0.551
87,3CommWMeter12,3CommAcct11,3CommWServP12,3,3,,,6/2/2016,10/22/2015,PDT,0.771,0.954,0.939,0.841,0.524,0.966,0.6,0.705,0.932,0.643,0.936,1.039,0.957,0.924,0.628,0.969,0.513,0.885,0.782,0.727,0.997,0.576,0.708,0.915
87,3CommWMeter12,3CommAcct11,3CommWServP12,3,3,,,6/2/2016,10/23/2015,PDT,0.748,1.023,0.57,0.71,0.83,0.576,0.893,0.999,0.861,0.622,0.838,0.712,0.992,0.787,0.672,0.825,0.619,0.889,0.556,0.556,0.988,0.858,0.86,0.894
87,3CommWMeter12,3CommAcct11,3CommWServP12,3,3,,,6/2/2016,10/24/2015,PDT,0.507,0.57,0.952,0.68,0.788,0.848,0.564,0.893,0.679,0.869,0.857,0.972,0.827,0.539,0.743,0.72,0.503,0.965,1.038,1.015,0.811,0.924,0.907,0.598
87,3CommWMeter12,3CommAcct11,3CommWServP12,3,3,,,6/2/2016,10/25/2015,PDT,1.011,0.639,0.537,0.935,0.658,0.582,0.932,0.988,0.765,0.629,0.856,0.726,0.678,0.634,0.945,0.865,0.862,1.007,0.795,0.632,0.643,0.966,0.958,0.799
87,3CommWMeter12,3CommAcct11,3CommWServP12,3,3,,,6/2/2016,10/26/2015,PDT,0.796,0.847,0.754,0.894,0.952,0.531,0.815,0.858,0.599,0.672,0.739,0.601,0.546,0.925,0.843,0.847,0.881,0.862,0.513,0.648,1.021,0.696,0.522,0.821
87,3CommWMeter12,3CommAcct11,3CommWServP12,3,3,,,6/2/2016,10/27/2015,PDT,0.928,0.517,0.851,0.91,1.012,0.642,0.646,0.941,0.612,0.519,0.999,0.827,0.574,0.58,0.727,0.69,0.754,0.725,0.593,0.846,0.743,0.905,0.536,0.645
87,3CommWMeter12,3CommAcct11,3CommWServP12,3,3,,,6/2/2016,10/28/2015,PDT,0.906,0.766,0.756,0.95,0.842,0.662,0.659,0.728,0.986,0.966,0.516,0.749,0.53,0.503,0.661,0.885,0.778,0.61,1.041,0.515,0.652,0.917,1.032,0.524
87,3CommWMeter12,3CommAcct11,3CommWServP12,3,3,,,6/2/2016,10/29/2015,PDT,0.719,0.934,1.003,0.722,0.688,0.7,0.573,0.825,0.711,0.733,0.825,0.789,0.814,0.976,0.849,0.511,0.854,0.874,0.515,0.643,0.662,0.644,0.844,0.648
87,3CommWMeter12,3CommAcct11,3CommWServP12,3,3,,,6/2/2016,10/30/2015,PDT,0.581,0.829,0.686,1.024,0.911,0.935,0.624,0.874,0.753,0.566,0.523,0.878,0.957,0.696,0.794,0.64,0.64,0.696,0.922,0.967,0.754,0.592,0.827,0.638
87,3CommWMeter12,3CommAcct11,3CommWServP12,3,3,,,6/2/2016,10/31/2015,PDT,0.595,1.024,0.57,0.772,0.604,0.558,0.553,0.529,0.81,0.617,0.874,0.598,0.622,0.581,0.688,0.789,0.875,0.761,0.572,0.649,0.992,0.764,0.521,0.51
87,3CommWMeter12,3CommAcct11,3CommWServP12,3,3,,,6/2/2016,11/1/2015,PDT,0.522,0.839,0.852,0.843,0.567,0.716,0.814,0.613,1.007,0.839,0.907,0.826,0.608,1.035,0.784,0.694,0.993,0.992,0.974,0.636,0.679,0.562,0.668,1.015
87,3CommWMeter12,3CommAcct11,3CommWServP12,3,3,,,6/2/2016,11/2/2015,PDT,0.825,0.703,0.955,0.762,0.992,1.004,0.785,0.887,0.656,0.699,0.849,0.942,0.976,0.936,0.838,0.757,0.857,0.612,0.768,0.956,0.692,0.961,0.716,0.896
87,3CommWMeter12,3CommAcct11,3CommWServP12,3,3,,,6/2/2016,11/3/2015,PDT,0.827,0.608,0.883,0.884,1.031,1.017,0.544,0.866,0.698,0.789,0.793,0.952,0.974,0.71,0.782,0.613,0.845,0.991,1.038,0.726,0.958,0.905,0.726,0.928
87,3CommWMeter12,3CommAcct11,3CommWServP12,3,3,,,6/2/2016,11/4/2015,PDT,1.004,0.904,0.909,0.98,0.514,0.847,0.903,0.883,0.803,0.91,0.578,0.975,0.627,0.525,0.629,0.729,0.798,0.558,0.52,0.536,0.682,0.942,0.63,0.842
87,3CommWMeter12,3CommAcct11,3CommWServP12,3,3,,,6/2/2016,11/5/2015,PDT,0.648,0.55,0.915,0.545,0.64,0.694,0.888,0.621,1.007,0.9,0.806,0.546,0.661,0.782,0.553,0.549,0.744,0.698,1.009,0.942,0.501,0.57,0.557,0.545
87,3CommWMeter12,3CommAcct11,3CommWServP12,3,3,,,6/2/2016,11/6/2015,PDT,0.619,0.837,0.669,0.872,0.709,1.035,0.765,1.041,0.592,0.661,1.02,1.03,0.715,0.814,0.603,0.537,0.892,0.802,0.794,0.932,0.601,0.706,0.664,0.57
87,3CommWMeter12,3CommAcct11,3CommWServP12,3,3,,,6/2/2016,11/7/2015,PDT,0.507,0.745,0.553,0.571,0.998,0.841,0.754,0.914,0.501,0.545,0.906,0.715,0.704,0.856,0.583,0.728,0.538,0.751,0.506,0.936,0.663,0.693,0.693,0.964
87,3CommWMeter12,3CommAcct11,3CommWServP12,3,3,,,6/2/2016,11/8/2015,PDT,0.892,1.01,0.918,1.013,0.928,0.759,0.857,0.83,0.759,0.565,0.82,0.995,0.653,0.951,0.739,0.948,1.021,0.947,0.508,0.835,1.007,0.656,0.857,0.946
87,3CommWMeter12,3CommAcct11,3CommWServP12,3,3,,,6/2/2016,11/9/2015,PDT,0.683,0.548,0.764,0.751,0.753,1.006,0.587,0.96,0.782,0.63,0.91,0.971,0.796,0.809,0.715,0.654,0.92,0.752,0.818,0.653,1.034,0.666,0.605,0.954
87,3CommWMeter12,3CommAcct11,3CommWServP12,3,3,,,6/2/2016,11/10/2015,PDT,0.634,0.661,0.697,1.022,0.785,0.808,0.88,0.805,0.93,0.672,0.869,0.744,0.773,0.58,0.829,0.544,0.654,0.55,0.974,0.671,0.582,0.782,0.535,1.036
87,3CommWMeter12,3CommAcct11,3CommWServP12,3,3,,,6/2/2016,11/11/2015,PDT,0.622,0.579,0.612,0.644,0.934,0.699,0.794,0.984,0.898,0.543,1.017,0.727,1.009,0.528,0.694,0.946,0.846,0.903,0.884,0.984,0.737,0.729,0.524,0.752
87,3CommWMeter12,3CommAcct11,3CommWServP12,3,3,,,6/2/2016,11/12/2015,PDT,0.539,0.521,0.912,0.992,0.779,1.04,0.858,0.547,0.818,0.554,0.677,0.98,0.854,0.804,1.038,0.724,0.915,0.849,0.846,1.031,0.745,0.585,0.662,1.035
87,3CommWMeter12,3CommAcct11,3CommWServP12,3,3,,,6/2/2016,11/13/2015,PDT,0.803,0.975,0.718,0.908,0.521,0.926,0.649,0.942,0.649,0.654,1.032,0.762,0.85,0.977,0.534,0.658,0.824,0.904,0.541,0.978,0.66,0.672,0.782,0.786
87,3CommWMeter12,3CommAcct11,3CommWServP12,3,3,,,6/2/2016,11/14/2015,PDT,0.524,0.905,0.843,0.991,0.942,0.878,0.677,0.885,0.625,0.854,0.922,0.804,0.866,0.714,0.725,0.954,0.959,0.729,0.522,0.597,0.999,1.017,0.661,0.542
87,3CommWMeter12,3CommAcct11,3CommWServP12,3,3,,,6/2/2016,11/15/2015,PDT,0.545,0.979,0.582,0.539,1.019,0.535,0.947,0.683,0.952,0.557,0.926,0.613,0.971,0.826,0.592,0.533,0.851,0.515,0.762,0.956,1.019,0.776,0.763,0.799
87,3CommWMeter12,3CommAcct11,3CommWServP12,3,3,,,6/2/2016,11/16/2015,PDT,0.856,0.808,0.906,0.62,0.964,0.867,0.676,0.907,0.72,0.598,0.916,0.981,0.508,0.724,0.898,0.647,0.893,0.611,0.861,0.58,0.632,0.766,0.875,0.823
87,3CommWMeter12,3CommAcct11,3CommWServP12,3,3,,,6/2/2016,11/17/2015,PDT,0.907,0.592,0.549,0.777,0.835,0.688,0.7,0.597,0.963,0.539,0.503,0.572,0.593,0.564,0.769,0.961,0.818,0.872,0.669,0.691,1.023,1.025,0.649,0.811
87,3CommWMeter12,3CommAcct11,3CommWServP12,3,3,,,6/2/2016,11/18/2015,PDT,1.006,0.772,1.027,0.903,0.854,0.538,0.581,0.592,0.554,0.988,0.594,0.535,0.894,1.019,0.523,0.734,0.861,0.806,1.015,0.582,0.998,0.66,0.519,0.792
87,3CommWMeter12,3CommAcct11,3CommWServP12,3,3,,,6/2/2016,11/19/2015,PDT,0.699,0.709,0.869,0.655,0.569,0.938,0.845,0.796,0.516,0.643,0.742,0.657,0.623,0.925,1.007,0.928,1.041,0.554,0.559,1.034,0.701,0.596,0.816,0.692
87,3CommWMeter12,3CommAcct11,3CommWServP12,3,3,,,6/2/2016,11/20/2015,PDT,0.674,0.944,0.587,0.815,0.778,0.946,0.504,0.915,0.98,0.819,0.596,0.526,0.727,0.524,0.831,0.609,0.842,0.95,0.714,0.536,0.729,0.934,0.802,0.886
87,3CommWMeter12,3CommAcct11,3CommWServP12,3,3,,,6/2/2016,11/21/2015,PDT,0.552,0.711,0.527,0.71,0.589,0.657,0.501,1.024,0.759,0.577,0.665,0.821,0.78,0.654,0.817,0.507,0.866,0.765,0.755,0.832,0.95,0.802,0.97,0.932
87,3CommWMeter12,3CommAcct11,3CommWServP12,3,3,,,6/2/2016,11/22/2015,PDT,0.8,0.975,0.622,0.505,0.864,0.804,0.739,0.774,0.546,0.552,0.817,0.557,0.796,0.519,0.681,0.925,0.996,0.556,0.902,1.031,0.89,0.907,0.805,0.794
87,3CommWMeter12,3CommAcct11,3CommWServP12,3,3,,,6/2/2016,11/23/2015,PDT,0.627,0.575,0.608,0.955,0.564,0.919,0.983,0.93,0.975,0.729,0.798,0.978,0.556,0.757,0.972,0.929,0.792,0.596,0.584,0.512,0.509,0.631,0.997,0.965
87,3CommWMeter12,3CommAcct11,3CommWServP12,3,3,,,6/2/2016,11/24/2015,PDT,0.807,0.923,0.961,0.755,0.612,0.91,0.569,0.533,0.896,0.786,0.728,0.579,0.672,0.723,0.989,0.798,0.722,0.814,0.778,0.728,0.751,0.563,0.674,0.601
87,3CommWMeter12,3CommAcct11,3CommWServP12,3,3,,,6/2/2016,11/25/2015,PDT,0.603,0.723,0.71,0.88,0.623,0.948,0.838,0.602,0.522,0.74,0.52,0.628,0.543,0.683,0.692,0.801,1.001,0.561,0.635,0.892,0.811,0.689,0.985,0.976
87,3CommWMeter12,3CommAcct11,3CommWServP12,3,3,,,6/2/2016,11/26/2015,PDT,0.946,0.742,0.934,0.697,0.598,0.641,0.89,0.942,0.732,0.941,1.031,0.576,0.958,0.608,0.615,0.602,0.621,0.818,0.615,0.73,0.851,0.664,1.014,0.842
87,3CommWMeter12,3CommAcct11,3CommWServP12,3,3,,,6/2/2016,11/27/2015,PDT,0.863,0.555,0.927,0.711,0.817,0.533,0.656,0.808,0.617,0.618,0.923,0.734,0.555,0.981,0.716,0.977,0.666,0.977,0.868,0.872,0.729,0.524,0.902,0.664
87,3CommWMeter12,3CommAcct11,3CommWServP12,3,3,,,6/2/2016,11/28/2015,PDT,0.996,0.882,0.577,0.731,0.647,0.604,0.705,0.807,0.898,0.76,0.921,0.931,0.595,0.721,0.536,0.978,0.54,0.857,0.738,0.685,0.807,0.588,0.839,0.814
87,3CommWMeter12,3CommAcct11,3CommWServP12,3,3,,,6/2/2016,11/29/2015,PDT,0.988,0.925,0.585,0.574,0.558,1.035,0.754,0.767,0.864,0.766,0.627,0.96,0.585,0.852,0.987,0.877,0.911,0.724,0.528,0.625,0.996,0.71,0.895,1.02
87,3CommWMeter12,3CommAcct11,3CommWServP12,3,3,,,6/2/2016,11/30/2015,PDT,0.991,0.745,0.842,0.66,0.949,1.005,0.694,0.935,0.872,0.567,0.838,0.708,0.728,0.764,0.828,0.698,0.507,0.798,0.618,0.729,0.817,0.803,0.84,0.841
87,3CommWMeter12,3CommAcct11,3CommWServP12,3,3,,,6/2/2016,12/1/2015,PDT,0.542,0.7,0.682,0.95,0.728,0.717,0.872,0.621,0.718,0.508,0.571,0.618,0.818,0.502,0.754,0.637,0.931,0.65,0.772,0.738,0.698,0.907,0.716,0.944
87,3CommWMeter12,3CommAcct11,3CommWServP12,3,3,,,6/2/2016,12/2/2015,PDT,0.736,0.936,0.56,0.515,0.939,0.654,0.699,0.638,0.548,0.68,0.859,0.747,0.93,0.974,1.019,0.723,0.933,0.869,0.661,0.6,0.664,0.956,0.654,0.732
87,3CommWMeter12,3CommAcct11,3CommWServP12,3,3,,,6/2/2016,12/3/2015,PDT,0.768,0.802,0.938,1.032,0.663,0.866,0.82,0.722,0.579,0.997,0.559,0.512,1.041,0.53,0.936,0.838,1.012,0.981,0.925,0.804,0.746,0.807,0.599,0.942
87,3CommWMeter12,3CommAcct11,3CommWServP12,3,3,,,6/2/2016,12/4/2015,PDT,0.812,0.974,0.936,0.752,0.68,0.66,0.761,1.032,0.646,0.971,0.91,0.788,0.692,0.8,0.944,0.525,0.601,0.595,0.844,0.687,0.953,0.605,1.03,0.922
87,3CommWMeter12,3CommAcct11,3CommWServP12,3,3,,,6/2/2016,12/5/2015,PDT,0.993,0.572,0.771,0.946,1.039,0.508,0.969,0.613,0.652,0.836,0.571,0.542,0.599,0.787,0.874,1.027,0.934,0.707,0.806,0.528,0.811,0.653,0.631,0.814
87,3CommWMeter12,3CommAcct11,3CommWServP12,3,3,,,6/2/2016,12/6/2015,PDT,0.852,0.637,0.531,0.508,0.838,0.799,0.54,0.501,1.016,0.688,1.01,0.62,0.833,0.775,0.728,0.918,0.956,0.634,0.862,0.794,0.672,0.644,0.955,0.859
87,3CommWMeter12,3CommAcct11,3CommWServP12,3,3,,,6/2/2016,12/7/2015,PDT,0.719,0.91,0.878,0.808,0.642,0.878,0.643,0.884,0.688,0.67,0.909,0.679,0.93,0.576,1.03,0.528,0.702,0.59,0.914,0.655,0.702,1.012,1.021,0.956
87,3CommWMeter12,3CommAcct11,3CommWServP12,3,3,,,6/2/2016,12/8/2015,PDT,0.67,0.554,0.815,0.984,1.017,0.519,1.032,0.733,0.668,0.892,0.65,0.725,0.651,0.911,0.96,0.638,0.8,0.787,0.824,0.574,1.023,0.598,0.992,0.941
87,3CommWMeter12,3CommAcct11,3CommWServP12,3,3,,,6/2/2016,12/9/2015,PDT,0.723,1.039,0.932,0.865,0.863,0.538,0.919,0.912,0.572,0.989,0.648,1.023,0.998,0.779,0.671,0.768,0.923,0.731,0.515,0.758,0.78,0.662,0.884,1.037
87,3CommWMeter12,3CommAcct11,3CommWServP12,3,3,,,6/2/2016,12/10/2015,PDT,0.931,0.633,0.96,0.661,0.684,0.535,0.999,0.689,0.61,0.529,0.799,0.948,0.613,0.607,0.629,0.946,0.525,0.96,0.971,0.783,0.983,0.61,0.695,0.648
87,3CommWMeter12,3CommAcct11,3CommWServP12,3,3,,,6/2/2016,12/11/2015,PDT,0.697,0.837,0.551,0.653,0.77,1.008,0.947,0.802,0.805,0.928,0.556,0.872,0.553,0.959,1.007,0.73,0.737,0.606,0.74,0.824,0.675,0.766,0.638,1.005
87,3CommWMeter12,3CommAcct11,3CommWServP12,3,3,,,6/2/2016,12/12/2015,PDT,0.54,0.5,0.96,0.709,0.531,1.037,0.677,0.889,0.52,0.922,0.751,0.952,0.918,1.037,0.928,0.867,0.655,0.501,0.559,0.849,0.634,0.78,0.945,0.712
87,3CommWMeter12,3CommAcct11,3CommWServP12,3,3,,,6/2/2016,12/13/2015,PDT,0.758,0.701,0.785,0.874,0.593,0.617,0.564,0.616,0.548,0.819,0.612,0.61,0.934,0.97,0.753,0.505,0.868,0.733,1.033,0.645,0.544,0.996,0.619,0.654
87,3CommWMeter12,3CommAcct11,3CommWServP12,3,3,,,6/2/2016,12/14/2015,PDT,0.529,0.819,0.573,0.993,1.029,0.505,1.015,0.711,0.588,0.595,0.609,0.972,0.921,0.799,0.93,0.749,0.55,0.66,0.766,0.537,1.023,0.802,0.924,0.781
87,3CommWMeter12,3CommAcct11,3CommWServP12,3,3,,,6/2/2016,12/15/2015,PDT,0.824,0.879,0.875,0.767,0.97,0.958,0.613,0.528,0.627,1.031,0.567,0.825,0.554,0.692,1.025,0.819,0.825,0.794,0.806,0.632,0.869,1.009,0.793,0.844
87,3CommWMeter12,3CommAcct11,3CommWServP12,3,3,,,6/2/2016,12/16/2015,PDT,0.831,1.031,0.616,0.834,0.622,0.515,0.872,0.719,0.881,0.725,0.581,0.539,0.909,0.552,0.807,0.586,0.836,0.502,0.867,0.742,0.606,0.986,0.705,0.78
87,3CommWMeter12,3CommAcct11,3CommWServP12,3,3,,,6/2/2016,12/17/2015,PDT,0.739,0.768,0.844,0.567,0.961,1.017,0.892,0.743,0.915,0.9,0.973,0.871,0.9,0.651,0.558,0.826,0.682,0.953,0.99,0.724,1.018,0.607,0.918,0.573
87,3CommWMeter12,3CommAcct11,3CommWServP12,3,3,,,6/2/2016,12/18/2015,PDT,0.543,1.015,0.62,0.921,0.566,0.876,0.52,0.77,0.716,0.556,0.856,1.04,0.764,0.852,0.586,0.569,0.771,0.753,0.718,0.81,0.779,0.888,0.517,0.728
87,3CommWMeter12,3CommAcct11,3CommWServP12,3,3,,,6/2/2016,12/19/2015,PDT,1.029,0.568,1.032,0.566,0.583,0.953,0.641,0.96,0.753,0.771,0.518,0.51,0.819,0.956,0.943,1.005,1.007,0.77,1.019,0.906,0.704,1.02,0.74,0.59
87,3CommWMeter12,3CommAcct11,3CommWServP12,3,3,,,6/2/2016,12/20/2015,PDT,0.947,0.957,0.995,0.772,0.87,0.512,1.008,0.935,0.53,0.961,0.976,0.501,0.698,0.546,0.731,0.951,0.736,0.585,0.957,0.587,0.916,0.921,0.685,0.923
87,3CommWMeter12,3CommAcct11,3CommWServP12,3,3,,,6/2/2016,12/21/2015,PDT,0.522,0.736,0.923,0.64,0.867,0.84,0.89,0.506,0.511,0.929,0.532,0.837,0.784,0.703,0.873,0.87,1.041,0.538,0.549,1.012,0.7,0.667,0.669,0.681
87,3CommWMeter12,3CommAcct11,3CommWServP12,3,3,,,6/2/2016,12/22/2015,PDT,0.986,0.547,0.812,0.554,0.972,0.542,0.934,0.905,0.614,0.615,0.674,0.535,0.648,0.968,0.735,0.895,0.791,1.04,0.979,0.645,0.989,0.533,0.54,0.791
87,3CommWMeter12,3CommAcct11,3CommWServP12,3,3,,,6/2/2016,12/23/2015,PDT,0.57,0.943,0.983,0.531,0.843,0.961,0.828,0.969,0.819,0.784,0.74,0.944,0.738,0.982,0.593,0.93,0.539,0.613,0.921,0.829,1.009,0.693,0.842,1
87,3CommWMeter12,3CommAcct11,3CommWServP12,3,3,,,6/2/2016,12/24/2015,PDT,0.948,0.6,0.737,0.763,0.924,0.59,0.895,0.809,0.73,0.527,0.883,0.729,0.527,0.968,0.717,0.511,0.954,0.892,0.516,0.974,0.743,0.984,1.019,0.603
87,3CommWMeter12,3CommAcct11,3CommWServP12,3,3,,,6/2/2016,12/25/2015,PDT,0.87,0.589,0.594,0.651,0.654,0.699,0.929,0.984,0.621,0.701,0.883,0.711,0.861,0.62,0.701,0.775,0.724,0.815,0.537,0.565,0.839,0.555,0.505,0.797
87,3CommWMeter12,3CommAcct11,3CommWServP12,3,3,,,6/2/2016,12/26/2015,PDT,1.011,0.71,0.557,0.893,0.754,0.771,0.516,0.686,0.615,0.685,0.846,0.804,0.949,0.608,0.502,0.521,0.546,0.96,0.687,0.754,0.841,0.539,0.69,0.76
87,3CommWMeter12,3CommAcct11,3CommWServP12,3,3,,,6/2/2016,12/27/2015,PDT,0.944,0.595,0.921,0.737,0.84,0.597,0.59,0.685,0.5,0.747,0.761,0.57,0.635,0.938,0.653,0.969,0.665,0.893,0.989,0.875,0.842,0.676,0.632,0.978
87,3CommWMeter12,3CommAcct11,3CommWServP12,3,3,,,6/2/2016,12/28/2015,PDT,0.942,0.974,0.609,0.898,0.812,0.523,0.664,0.709,0.665,0.509,0.748,0.805,0.641,0.636,0.994,0.712,0.681,0.901,0.939,0.569,0.592,0.976,0.881,0.906
87,3CommWMeter12,3CommAcct11,3CommWServP12,3,3,,,6/2/2016,12/29/2015,PDT,0.891,1.014,0.57,0.578,0.523,0.574,0.688,0.863,0.581,0.624,0.659,0.613,0.975,0.508,0.547,0.797,0.855,0.771,0.961,1.027,0.66,0.802,0.763,0.654
87,3CommWMeter12,3CommAcct11,3CommWServP12,3,3,,,6/2/2016,12/30/2015,PDT,0.756,0.698,1.031,0.789,0.594,0.738,0.87,0.956,1.039,0.576,0.507,0.917,1.024,0.892,0.665,0.648,0.556,0.872,0.952,0.623,0.523,0.694,0.803,0.515
87,3CommWMeter12,3CommAcct11,3CommWServP12,3,3,,,6/2/2016,12/31/2015,PDT,0.525,0.689,0.603,0.848,0.68,0.932,0.504,0.842,0.538,0.804,0.618,0.587,0.881,0.935,0.923,0.737,0.806,0.695,0.863,0.693,0.847,0.811,0.535,0.997
87,3CommWMeter12,3CommAcct11,3CommWServP12,3,3,,,6/2/2016,1/1/2016,PDT,0.964,0.862,0.864,0.551,0.718,0.919,0.843,0.759,0.962,0.944,0.917,0.804,0.833,0.83,0.654,0.537,0.662,0.821,0.78,0.535,0.588,0.642,0.97,1.019
87,3CommWMeter12,3CommAcct11,3CommWServP12,3,3,,,6/2/2016,1/2/2016,PDT,0.932,0.832,0.511,0.62,0.806,0.57,0.551,1.031,0.621,0.95,0.867,0.883,0.54,0.735,0.882,0.679,0.507,0.578,0.544,0.999,0.903,0.548,0.806,0.917
87,3CommWMeter12,3CommAcct11,3CommWServP12,3,3,,,6/2/2016,1/3/2016,PDT,0.562,0.585,0.714,0.958,0.848,0.961,0.939,0.559,1.034,0.873,0.545,0.798,0.536,0.583,0.856,0.863,0.644,0.761,1.015,0.995,0.671,0.616,0.575,0.591
87,3CommWMeter12,3CommAcct11,3CommWServP12,3,3,,,6/2/2016,1/4/2016,PDT,0.821,0.615,0.866,0.961,0.96,0.524,0.533,0.671,0.883,0.932,0.535,0.734,1.032,0.793,0.992,0.509,0.871,0.749,0.702,0.52,0.81,0.706,0.678,0.941
87,3CommWMeter12,3CommAcct11,3CommWServP12,3,3,,,6/2/2016,1/5/2016,PDT,0.922,0.54,1.034,0.571,0.65,0.955,0.618,0.588,0.532,0.965,0.68,0.912,0.556,0.941,0.771,0.654,1.041,0.656,0.876,0.662,0.905,0.907,0.505,0.656
87,3CommWMeter12,3CommAcct11,3CommWServP12,3,3,,,6/2/2016,1/6/2016,PDT,0.636,0.982,0.695,0.603,0.673,0.943,0.523,0.615,0.671,1.009,0.81,0.708,0.75,0.736,0.833,0.918,0.502,0.676,0.82,0.677,0.907,0.733,0.609,0.966
87,3CommWMeter12,3CommAcct11,3CommWServP12,3,3,,,6/2/2016,1/7/2016,PDT,0.79,0.749,0.544,0.575,0.996,0.516,0.649,0.973,0.7,0.832,0.625,0.568,0.948,0.743,0.531,0.955,0.55,0.61,0.827,0.959,0.98,0.654,0.872,1.008
87,3CommWMeter12,3CommAcct11,3CommWServP12,3,3,,,6/2/2016,1/8/2016,PDT,0.959,0.642,0.537,1.021,0.95,0.599,0.804,0.883,0.546,0.586,0.718,0.938,0.981,0.529,0.894,1.036,0.927,1.001,0.766,0.969,0.652,0.949,0.855,0.735
87,3CommWMeter12,3CommAcct11,3CommWServP12,3,3,,,6/2/2016,1/9/2016,PDT,0.922,0.814,0.912,0.944,0.615,0.771,0.928,0.932,0.93,0.806,0.697,0.906,0.624,0.948,0.709,0.932,0.559,1.024,0.977,0.579,0.762,0.947,0.975,0.749
87,3CommWMeter12,3CommAcct11,3CommWServP12,3,3,,,6/2/2016,1/10/2016,PDT,0.977,1.014,0.962,0.627,0.744,0.698,0.502,0.634,0.964,0.725,0.676,0.764,0.613,0.961,1.04,0.993,0.786,0.999,0.521,0.75,0.579,0.542,0.559,0.934
87,3CommWMeter12,3CommAcct11,3CommWServP12,3,3,,,6/2/2016,1/11/2016,PDT,0.524,0.947,0.501,0.859,1.026,0.591,0.592,0.56,1.02,0.592,0.552,0.6,0.849,0.644,0.563,0.615,0.977,0.515,0.549,0.938,0.595,0.517,0.678,0.956
87,3CommWMeter12,3CommAcct11,3CommWServP12,3,3,,,6/2/2016,1/12/2016,PDT,0.946,0.527,0.609,0.658,0.725,0.526,0.882,0.809,0.725,0.657,0.615,0.659,0.862,1.037,0.616,0.517,0.805,0.849,0.773,0.804,0.593,1.031,0.55,0.877
87,3CommWMeter12,3CommAcct11,3CommWServP12,3,3,,,6/2/2016,1/13/2016,PDT,0.902,1.039,1.001,0.876,0.718,1.021,0.849,0.818,0.693,0.518,0.757,1.036,0.917,0.832,0.94,0.852,1.039,0.564,0.922,0.732,0.819,1.011,0.794,0.867
87,3CommWMeter12,3CommAcct11,3CommWServP12,3,3,,,6/2/2016,1/14/2016,PDT,0.847,0.728,0.596,0.816,0.88,0.582,0.741,0.619,0.814,0.82,0.628,0.926,0.603,0.993,0.612,0.657,0.698,0.687,0.55,0.651,0.691,0.945,1.019,0.575
87,3CommWMeter12,3CommAcct11,3CommWServP12,3,3,,,6/2/2016,1/15/2016,PDT,0.714,0.877,0.791,0.814,0.758,0.654,0.738,0.71,0.932,0.862,0.739,0.889,0.664,0.694,0.63,0.615,0.669,0.711,1.011,0.64,0.617,1.04,1.024,0.61
87,3CommWMeter12,3CommAcct11,3CommWServP12,3,3,,,6/2/2016,1/16/2016,PDT,0.615,0.985,0.934,0.696,0.724,0.94,0.872,0.641,1.021,0.683,0.68,0.566,0.553,0.776,0.905,0.736,0.903,0.771,0.649,1.039,0.905,0.858,0.78,0.885
87,3CommWMeter12,3CommAcct11,3CommWServP12,3,3,,,6/2/2016,1/17/2016,PDT,0.775,1.018,0.617,0.703,0.887,0.815,0.989,1.029,1.005,0.957,0.783,0.558,0.81,0.858,0.854,0.557,0.804,0.549,0.914,0.748,0.692,0.957,0.515,0.541
87,3CommWMeter12,3CommAcct11,3CommWServP12,3,3,,,6/2/2016,1/18/2016,PDT,0.955,0.806,0.989,0.948,0.775,0.991,0.572,0.592,0.59,0.525,0.865,1.002,0.869,0.869,1.006,0.676,0.737,0.948,0.99,0.784,0.765,0.84,0.528,0.942
87,3CommWMeter12,3CommAcct11,3CommWServP12,3,3,,,6/2/2016,1/19/2016,PDT,0.733,0.952,0.685,0.667,1.023,0.877,0.58,0.889,0.611,0.726,1.017,0.684,0.884,0.553,0.575,1.041,0.501,0.724,0.688,0.998,0.7,0.93,0.518,0.9
87,3CommWMeter12,3CommAcct11,3CommWServP12,3,3,,,6/2/2016,1/20/2016,PDT,0.806,1.017,0.642,0.834,0.641,0.589,0.671,1.007,0.821,1.003,0.766,0.529,0.936,0.547,0.875,0.678,0.771,0.864,0.981,0.902,0.685,0.581,0.698,0.802
87,3CommWMeter12,3CommAcct11,3CommWServP12,3,3,,,6/2/2016,1/21/2016,PDT,0.984,0.89,0.735,0.551,0.676,0.867,0.69,0.678,0.537,0.869,0.716,0.627,1.015,0.876,0.627,0.668,0.993,0.625,0.666,0.953,0.685,0.735,0.997,0.699
87,3CommWMeter12,3CommAcct11,3CommWServP12,3,3,,,6/2/2016,1/22/2016,PDT,0.535,1.019,0.572,0.945,0.695,0.711,0.963,1.012,0.984,1.02,0.682,0.502,0.531,0.791,0.945,0.544,0.539,1.018,0.578,0.965,0.524,0.858,0.823,1.011
87,3CommWMeter12,3CommAcct11,3CommWServP12,3,3,,,6/2/2016,1/23/2016,PDT,0.754,0.887,1.035,0.779,0.954,0.724,0.618,0.985,0.764,0.54,0.563,0.584,0.907,0.74,0.851,0.721,0.927,0.779,1.036,0.508,0.761,0.843,0.772,1.008
87,3CommWMeter12,3CommAcct11,3CommWServP12,3,3,,,6/2/2016,1/24/2016,PDT,0.835,0.511,0.876,0.582,1.031,0.801,0.738,0.517,0.713,0.832,0.674,0.903,0.661,0.786,0.997,0.799,0.928,0.527,0.674,0.823,0.563,0.883,0.66,0.948
87,3CommWMeter12,3CommAcct11,3CommWServP12,3,3,,,6/2/2016,1/25/2016,PDT,0.634,0.932,1.04,0.938,0.684,1.036,0.76,0.543,0.601,0.713,0.848,0.511,0.785,0.952,0.73,0.727,0.531,0.82,0.549,0.661,0.731,0.705,0.613,0.62
87,3CommWMeter12,3CommAcct11,3CommWServP12,3,3,,,6/2/2016,1/26/2016,PDT,0.739,1.035,0.737,0.579,0.564,0.92,0.583,0.574,1.021,0.95,0.85,0.959,0.605,0.838,0.506,0.534,0.873,0.737,0.774,0.516,0.863,0.775,0.673,0.894
87,3CommWMeter12,3CommAcct11,3CommWServP12,3,3,,,6/2/2016,1/27/2016,PDT,0.731,1.029,0.976,0.627,0.958,0.872,0.54,0.959,0.75,0.715,0.809,0.642,0.768,0.58,0.971,0.834,0.925,0.853,0.597,0.967,0.849,0.981,1.003,0.695
87,3CommWMeter12,3CommAcct11,3CommWServP12,3,3,,,6/2/2016,1/28/2016,PDT,0.938,0.557,0.899,0.959,0.647,0.604,0.64,0.605,0.692,0.576,0.641,0.923,0.552,0.759,0.821,0.768,0.519,0.515,0.596,0.675,0.694,0.612,0.559,1.014
87,3CommWMeter12,3CommAcct11,3CommWServP12,3,3,,,6/2/2016,1/29/2016,PDT,0.598,0.597,0.981,0.727,0.915,0.644,0.569,0.775,0.531,0.742,0.659,0.626,0.664,0.777,0.588,0.528,0.631,0.509,0.757,0.772,0.567,0.844,0.535,0.57
87,3CommWMeter12,3CommAcct11,3CommWServP12,3,3,,,6/2/2016,1/30/2016,PDT,0.607,0.85,0.505,0.516,0.508,0.54,0.531,0.65,1.025,0.622,0.844,0.578,0.62,0.903,0.585,0.519,0.95,0.776,0.775,0.841,0.569,0.595,0.565,0.764
87,3CommWMeter12,3CommAcct11,3CommWServP12,3,3,,,6/2/2016,1/31/2016,PDT,0.669,0.685,0.841,0.539,0.74,0.589,0.724,0.584,0.607,0.552,0.651,0.556,1.041,0.957,0.536,0.903,0.724,0.671,0.899,0.902,0.897,0.613,0.73,0.948
87,3CommWMeter12,3CommAcct11,3CommWServP12,3,3,,,6/2/2016,2/1/2016,PDT,0.716,0.565,0.718,0.572,1.04,0.779,0.67,0.982,0.521,0.876,0.504,0.651,0.938,0.78,0.725,1.017,0.587,0.787,0.924,0.632,0.649,0.615,0.503,0.652
87,3CommWMeter12,3CommAcct11,3CommWServP12,3,3,,,6/2/2016,2/2/2016,PDT,0.86,0.872,0.948,0.889,0.977,0.913,0.89,0.689,0.504,0.762,0.832,0.91,0.649,0.894,0.981,0.823,0.618,0.532,0.875,0.853,0.675,0.514,0.723,0.748
87,3CommWMeter12,3CommAcct11,3CommWServP12,3,3,,,6/2/2016,2/3/2016,PDT,0.652,0.916,0.833,0.57,0.994,0.843,0.51,0.723,0.959,0.87,0.649,0.918,0.751,0.973,1.018,0.745,0.574,0.595,0.94,0.593,0.89,0.995,0.683,0.714
87,3CommWMeter12,3CommAcct11,3CommWServP12,3,3,,,6/2/2016,2/4/2016,PDT,0.944,0.725,0.856,0.862,0.945,0.773,0.573,0.894,0.741,0.553,0.506,0.764,0.977,0.622,0.873,0.878,0.824,0.805,1,0.608,0.563,0.714,0.525,0.582
87,3CommWMeter12,3CommAcct11,3CommWServP12,3,3,,,6/2/2016,2/5/2016,PDT,0.851,0.731,0.632,0.568,0.546,0.801,0.738,0.537,1.019,1.013,0.6,0.726,0.813,0.563,0.849,0.635,0.633,0.636,0.756,0.935,0.872,0.621,0.75,0.601
87,3CommWMeter12,3CommAcct11,3CommWServP12,3,3,,,6/2/2016,2/6/2016,PDT,0.774,0.608,0.868,0.927,1.001,1.033,0.524,1.031,0.93,1.009,0.739,0.701,0.856,0.843,0.607,1.024,0.697,0.505,0.612,0.811,0.71,0.645,0.625,0.712
87,3CommWMeter12,3CommAcct11,3CommWServP12,3,3,,,6/2/2016,2/7/2016,PDT,1.019,0.505,0.541,1.032,0.598,0.963,0.606,0.517,0.517,0.721,0.827,0.756,0.895,0.932,0.745,0.862,0.565,0.657,0.785,0.764,0.885,0.994,0.896,0.66
87,3CommWMeter12,3CommAcct11,3CommWServP12,3,3,,,6/2/2016,2/8/2016,PDT,0.537,0.74,0.755,0.756,0.997,0.733,0.609,0.679,0.885,1.026,0.636,0.966,0.963,0.806,0.986,0.676,0.624,0.69,0.745,0.584,0.505,0.981,0.746,0.589
87,3CommWMeter12,3CommAcct11,3CommWServP12,3,3,,,6/2/2016,2/9/2016,PDT,0.984,0.606,0.776,0.822,1.011,0.976,0.798,0.594,0.8,0.675,0.657,0.992,0.541,0.799,0.724,0.916,1.018,0.721,0.784,0.9,0.735,0.799,0.53,0.746
87,3CommWMeter12,3CommAcct11,3CommWServP12,3,3,,,6/2/2016,2/10/2016,PDT,0.984,1.01,0.791,0.965,0.89,0.772,0.516,0.692,0.787,0.756,0.913,0.906,0.783,0.942,0.612,0.931,0.777,0.659,0.73,0.748,0.803,0.797,0.674,0.75
87,3CommWMeter12,3CommAcct11,3CommWServP12,3,3,,,6/2/2016,2/11/2016,PDT,0.708,0.839,0.638,0.624,0.968,0.906,0.595,1.003,0.797,1.017,0.562,0.624,0.731,0.811,0.692,0.681,0.658,0.632,1.028,0.551,0.762,1.006,0.946,0.927
87,3CommWMeter12,3CommAcct11,3CommWServP12,3,3,,,6/2/2016,2/12/2016,PDT,0.646,0.802,0.588,0.993,0.947,0.904,0.904,0.843,0.975,0.766,0.535,0.537,0.532,0.993,0.753,0.614,0.889,0.619,0.506,0.589,0.977,0.719,1.018,0.783
87,3CommWMeter12,3CommAcct11,3CommWServP12,3,3,,,6/2/2016,2/13/2016,PDT,0.864,0.642,0.6,0.643,0.737,0.642,0.586,0.697,0.832,1.016,0.782,0.613,0.597,0.773,0.742,0.983,0.631,0.617,0.907,0.766,0.573,0.723,0.99,1.035
87,3CommWMeter12,3CommAcct11,3CommWServP12,3,3,,,6/2/2016,2/14/2016,PDT,0.57,0.916,0.755,0.662,0.774,0.62,0.988,1.026,0.902,0.544,0.98,1.033,0.773,0.656,0.702,0.936,0.735,0.74,0.58,0.547,0.97,0.632,0.818,0.766
87,3CommWMeter12,3CommAcct11,3CommWServP12,3,3,,,6/2/2016,2/15/2016,PDT,0.909,0.802,0.87,1.026,0.913,0.789,0.938,0.778,0.905,0.761,0.635,0.785,0.792,0.608,0.657,0.619,0.58,0.522,0.649,0.938,0.909,0.508,0.715,0.681
87,3CommWMeter12,3CommAcct11,3CommWServP12,3,3,,,6/2/2016,2/16/2016,PDT,0.9,0.744,0.55,0.564,0.656,0.859,0.848,0.747,0.861,0.996,0.791,0.716,0.999,0.811,0.597,0.726,0.911,0.943,0.683,0.912,0.936,0.646,0.967,0.932
87,3CommWMeter12,3CommAcct11,3CommWServP12,3,3,,,6/2/2016,2/17/2016,PDT,0.713,0.781,0.642,0.948,0.592,1.006,0.859,0.707,0.677,1.035,0.782,0.804,1.041,0.502,0.912,0.653,0.55,0.502,0.946,0.553,0.503,0.715,0.732,0.592
87,3CommWMeter12,3CommAcct11,3CommWServP12,3,3,,,6/2/2016,2/18/2016,PDT,0.553,0.61,0.625,0.986,0.801,0.93,0.7,0.513,0.97,1.019,0.804,0.61,0.569,0.934,0.683,0.974,0.911,0.978,0.902,0.715,0.683,0.774,0.992,0.968
87,3CommWMeter12,3CommAcct11,3CommWServP12,3,3,,,6/2/2016,2/19/2016,PDT,0.505,0.631,0.823,0.867,0.565,0.776,0.602,0.673,0.684,0.812,0.981,0.803,0.993,0.549,0.941,0.889,0.899,0.676,0.613,0.917,0.629,0.673,0.574,1.037
87,3CommWMeter12,3CommAcct11,3CommWServP12,3,3,,,6/2/2016,2/20/2016,PDT,0.514,0.604,0.643,0.689,0.791,0.656,0.852,1.022,0.924,0.984,0.546,1.027,0.815,0.657,0.602,0.546,0.968,0.562,0.718,0.554,0.617,0.841,0.71,0.742
87,3CommWMeter12,3CommAcct11,3CommWServP12,3,3,,,6/2/2016,2/21/2016,PDT,0.577,0.707,0.973,0.956,0.69,0.986,0.608,0.671,0.966,0.974,0.688,0.567,0.524,0.72,0.742,0.607,0.602,0.846,0.548,0.606,0.715,0.577,0.685,0.567
87,3CommWMeter12,3CommAcct11,3CommWServP12,3,3,,,6/2/2016,2/22/2016,PDT,0.733,0.677,0.584,0.775,0.905,0.971,1.022,0.772,0.68,0.781,1.003,1.029,1.014,1.007,0.679,0.651,0.783,0.952,0.791,0.674,1.002,0.808,0.664,0.83
87,3CommWMeter12,3CommAcct11,3CommWServP12,3,3,,,6/2/2016,2/23/2016,PDT,0.86,0.751,1.015,0.849,0.818,0.661,0.512,0.643,0.719,0.922,0.862,0.515,1.014,0.912,0.774,0.71,0.876,0.822,0.928,0.88,0.561,0.66,0.855,0.571
87,3CommWMeter12,3CommAcct11,3CommWServP12,3,3,,,6/2/2016,2/24/2016,PDT,0.923,1,0.561,0.623,0.798,0.525,0.823,0.96,0.595,0.543,0.896,0.84,0.821,1.009,0.716,0.851,0.628,0.555,0.809,0.969,0.941,0.568,0.587,0.766
87,3CommWMeter12,3CommAcct11,3CommWServP12,3,3,,,6/2/2016,2/25/2016,PDT,0.8,0.85,0.669,1.013,0.783,0.725,0.751,0.767,0.776,0.689,0.857,0.741,0.703,0.631,0.668,1.02,0.608,0.843,0.803,0.507,0.574,0.951,1.021,0.95
87,3CommWMeter12,3CommAcct11,3CommWServP12,3,3,,,6/2/2016,2/26/2016,PDT,0.572,0.565,0.916,0.875,0.951,0.521,0.95,1.02,0.957,0.62,0.678,0.926,0.8,0.746,0.9,0.951,0.56,0.527,0.975,0.925,0.984,0.739,0.607,0.68
87,3CommWMeter12,3CommAcct11,3CommWServP12,3,3,,,6/2/2016,2/27/2016,PDT,0.93,1.001,0.662,0.742,0.997,1.021,0.825,0.632,0.509,0.724,0.887,0.809,0.583,1.031,0.921,1.001,0.963,0.56,0.866,0.759,0.511,0.915,0.72,0.838
87,3CommWMeter12,3CommAcct11,3CommWServP12,3,3,,,6/2/2016,2/28/2016,PDT,0.678,0.916,0.623,0.814,0.899,0.929,0.986,1.034,1.041,0.853,0.909,0.801,0.883,0.686,0.818,0.538,0.704,0.69,0.709,0.997,0.773,0.877,1.009,0.641
87,3CommWMeter12,3CommAcct11,3CommWServP12,3,3,,,6/2/2016,2/29/2016,PDT,0.664,0.518,0.841,0.732,0.895,0.666,0.796,1.003,0.83,1.001,0.642,0.746,0.571,1.006,0.563,0.644,0.999,0.609,0.816,0.633,0.783,0.996,0.911,0.684
87,3CommWMeter12,3CommAcct11,3CommWServP12,3,3,,,6/2/2016,3/1/2016,PDT,0.818,0.752,0.636,0.578,0.755,0.664,0.636,0.758,0.618,0.568,1.014,0.79,0.865,0.812,0.812,0.594,0.731,0.81,0.509,0.609,0.971,0.562,0.639,1.009
87,3CommWMeter12,3CommAcct11,3CommWServP12,3,3,,,6/2/2016,3/2/2016,PDT,0.694,0.912,0.945,0.76,0.605,0.73,0.901,0.668,1.001,0.821,0.876,0.624,0.853,0.943,0.666,0.846,0.93,0.621,0.929,0.78,0.512,0.646,0.944,0.968
87,3CommWMeter12,3CommAcct11,3CommWServP12,3,3,,,6/2/2016,3/3/2016,PDT,1.004,0.803,0.927,0.762,0.781,0.637,0.994,0.508,0.963,0.892,0.767,0.651,0.827,0.851,0.903,0.624,0.814,0.84,0.725,0.773,0.953,0.71,0.508,0.925
87,3CommWMeter12,3CommAcct11,3CommWServP12,3,3,,,6/2/2016,3/4/2016,PDT,0.629,0.863,1.019,0.899,0.998,0.915,0.795,0.783,0.803,0.849,0.619,0.893,0.798,0.817,1.008,0.806,0.518,0.569,0.519,0.506,0.877,0.645,0.857,1.03
87,3CommWMeter12,3CommAcct11,3CommWServP12,3,3,,,6/2/2016,3/5/2016,PDT,0.693,0.783,0.768,1.017,0.675,0.576,0.965,0.819,0.683,0.966,1.037,0.88,0.647,0.799,0.803,0.876,0.62,0.64,0.908,0.942,0.739,0.702,0.675,0.65
87,3CommWMeter12,3CommAcct11,3CommWServP12,3,3,,,6/2/2016,3/6/2016,PDT,0.735,0.554,0.866,0.935,0.973,0.791,0.951,0.961,0.711,0.873,0.968,1.025,0.804,0.884,0.83,0.878,0.626,0.913,0.603,0.684,0.576,0.766,0.66,0.943
87,3CommWMeter12,3CommAcct11,3CommWServP12,3,3,,,6/2/2016,3/7/2016,PDT,0.969,0.72,0.806,0.884,0.896,0.889,0.524,0.997,0.811,0.908,0.581,0.999,0.843,0.961,0.898,0.698,0.754,0.68,0.77,0.787,0.688,0.611,0.877,0.689
87,3CommWMeter12,3CommAcct11,3CommWServP12,3,3,,,6/2/2016,3/8/2016,PDT,1.023,0.95,0.542,0.83,0.684,0.806,0.777,0.758,0.624,0.957,0.606,0.713,1.036,0.774,0.926,0.652,0.971,0.549,0.898,0.854,0.81,1.005,0.965,0.737
87,3CommWMeter12,3CommAcct11,3CommWServP12,3,3,,,6/2/2016,3/9/2016,PDT,0.541,0.781,0.6,0.685,0.612,0.925,0.791,0.548,0.623,0.758,0.762,0.734,0.68,0.74,0.803,0.616,0.783,0.783,0.896,0.728,1.028,0.503,0.894,1.023
87,3CommWMeter12,3CommAcct11,3CommWServP12,3,3,,,6/2/2016,3/10/2016,PDT,0.701,1.04,0.883,0.574,0.828,0.745,1.023,0.995,0.753,0.906,0.765,0.736,0.792,0.62,0.641,0.995,0.703,0.74,0.677,0.553,0.864,0.618,0.523,0.767
87,3CommWMeter12,3CommAcct11,3CommWServP12,3,3,,,6/2/2016,3/11/2016,PDT,0.923,0.818,0.885,0.582,0.679,0.738,1.011,0.758,1.023,0.754,0.547,0.801,1.019,0.572,0.567,0.832,0.783,0.506,0.928,0.589,0.938,0.667,0.933,0.641
87,3CommWMeter12,3CommAcct11,3CommWServP12,3,3,,,6/2/2016,3/12/2016,PDT,0.627,0.979,0.518,0.695,0.807,0.844,0.556,0.949,0.895,0.591,0.598,0.736,0.725,0.65,0.898,0.733,0.613,0.754,0.879,1.002,0.766,0.81,0.871,1.018
87,3CommWMeter12,3CommAcct11,3CommWServP12,3,3,,,6/2/2016,3/13/2016,PDT,0.858,0.64,0.587,0.621,0.842,0.568,0.572,1.001,1.003,0.559,0.989,0.525,0.757,0.909,0.957,0.521,0.744,0.965,0.627,0.712,0.816,0.729,0.513,1.031
87,3CommWMeter12,3CommAcct11,3CommWServP12,3,3,,,6/2/2016,3/14/2016,PDT,0.731,0.773,0.94,0.831,0.779,0.917,0.681,0.57,0.607,0.636,0.948,0.913,0.833,0.97,0.648,0.8,0.624,0.678,0.771,0.91,0.665,0.856,0.601,0.883
87,3CommWMeter12,3CommAcct11,3CommWServP12,3,3,,,6/2/2016,3/15/2016,PDT,0.782,0.685,0.569,1.029,0.939,1.034,0.845,0.873,0.568,0.933,1.034,0.611,0.975,1.036,0.551,0.883,0.654,0.938,0.589,0.565,0.528,0.79,0.828,0.542
87,3CommWMeter12,3CommAcct11,3CommWServP12,3,3,,,6/2/2016,3/16/2016,PDT,0.654,0.733,0.847,0.611,0.821,0.82,0.836,0.815,0.947,0.791,0.757,0.917,0.759,0.68,0.676,0.542,0.665,0.808,0.922,0.832,0.755,0.98,0.809,0.999
87,3CommWMeter12,3CommAcct11,3CommWServP12,3,3,,,6/2/2016,3/17/2016,PDT,0.58,0.576,0.674,0.756,1.017,0.518,1.036,0.682,0.815,0.738,0.758,0.905,0.607,0.765,0.634,0.713,0.682,0.642,0.552,0.837,0.726,0.724,0.505,1.027
87,3CommWMeter12,3CommAcct11,3CommWServP12,3,3,,,6/2/2016,3/18/2016,PDT,0.94,0.959,1.007,0.787,0.601,0.866,0.882,0.989,1.04,0.567,0.871,0.639,0.973,0.629,0.891,0.837,0.826,0.82,0.642,0.548,0.973,0.653,0.828,0.677
87,3CommWMeter12,3CommAcct11,3CommWServP12,3,3,,,6/2/2016,3/19/2016,PDT,0.779,0.713,1.016,0.537,0.649,0.568,0.974,0.575,0.899,0.62,0.842,0.732,0.957,0.886,0.858,0.877,1.002,0.794,1.022,0.549,0.944,0.739,0.645,0.647
87,3CommWMeter12,3CommAcct11,3CommWServP12,3,3,,,6/2/2016,3/20/2016,PDT,0.602,0.96,0.853,0.846,0.659,0.625,0.865,0.612,0.919,0.869,0.92,0.926,0.751,0.582,0.946,0.64,0.882,0.509,0.862,0.729,0.719,0.924,0.628,0.752
87,3CommWMeter12,3CommAcct11,3CommWServP12,3,3,,,6/2/2016,3/21/2016,PDT,0.738,0.968,0.933,0.88,0.862,0.817,0.736,0.773,0.788,0.646,0.917,0.506,0.839,0.732,0.651,1.017,0.752,0.754,0.918,0.763,0.788,0.833,0.575,0.573
87,3CommWMeter12,3CommAcct11,3CommWServP12,3,3,,,6/2/2016,3/22/2016,PDT,0.885,0.848,0.917,0.685,0.865,0.821,1.006,0.918,0.881,0.556,0.6,0.896,0.749,0.533,0.709,0.536,0.529,0.919,1.026,0.813,0.877,0.711,0.742,0.68
87,3CommWMeter12,3CommAcct11,3CommWServP12,3,3,,,6/2/2016,3/23/2016,PDT,0.564,0.666,0.906,0.807,0.756,1.035,1.023,0.528,0.904,0.845,0.699,0.504,0.816,0.837,1.029,0.525,0.821,0.912,0.876,0.595,0.561,0.826,0.866,0.757
87,3CommWMeter12,3CommAcct11,3CommWServP12,3,3,,,6/2/2016,3/24/2016,PDT,0.531,0.698,0.545,0.513,0.757,0.714,0.562,0.742,0.557,0.596,0.964,0.988,0.767,0.619,0.592,0.741,0.519,0.509,0.678,0.772,0.849,0.732,0.793,0.609
87,3CommWMeter12,3CommAcct11,3CommWServP12,3,3,,,6/2/2016,3/25/2016,PDT,0.532,0.887,0.801,0.704,0.941,0.655,0.964,0.553,0.903,0.527,0.716,0.743,0.987,0.811,0.889,0.562,0.648,0.935,0.756,0.619,0.548,0.699,0.531,0.856
87,3CommWMeter12,3CommAcct11,3CommWServP12,3,3,,,6/2/2016,3/26/2016,PDT,0.629,0.997,1.022,0.621,0.704,0.744,0.828,0.563,0.781,0.765,0.694,0.941,0.716,0.761,0.943,0.923,0.503,0.61,0.758,0.78,0.704,0.566,0.89,0.637
87,3CommWMeter12,3CommAcct11,3CommWServP12,3,3,,,6/2/2016,3/27/2016,PDT,0.536,0.679,0.636,0.61,0.678,0.783,0.538,0.571,0.553,0.939,0.855,0.511,0.657,1.019,0.8,0.92,1.009,0.664,0.687,0.992,0.981,0.675,0.904,0.894
87,3CommWMeter12,3CommAcct11,3CommWServP12,3,3,,,6/2/2016,3/28/2016,PDT,0.934,0.77,0.821,0.812,0.919,0.521,0.656,0.547,0.725,0.991,0.84,0.735,0.707,0.839,0.618,0.814,0.522,0.839,0.889,0.759,0.866,0.552,0.724,0.797
87,3CommWMeter12,3CommAcct11,3CommWServP12,3,3,,,6/2/2016,3/29/2016,PDT,0.717,0.888,0.954,0.944,0.535,0.566,0.519,0.625,0.772,0.739,0.582,0.714,0.985,0.619,0.506,0.625,0.731,0.874,0.551,0.882,0.875,0.579,0.622,0.59
87,3CommWMeter12,3CommAcct11,3CommWServP12,3,3,,,6/2/2016,3/30/2016,PDT,0.754,0.911,1.034,0.521,0.942,0.717,0.914,0.829,0.796,0.562,0.93,0.97,0.927,0.503,0.937,0.998,0.709,0.749,0.723,0.526,0.758,0.604,0.937,0.741
87,3CommWMeter12,3CommAcct11,3CommWServP12,3,3,,,6/2/2016,3/31/2016,PDT,0.718,0.63,0.946,0.673,0.602,0.529,0.957,0.847,0.894,0.905,0.817,0.76,0.564,0.525,0.559,0.764,0.926,0.859,0.616,0.615,0.843,0.956,0.68,0.938
87,3CommWMeter12,3CommAcct11,3CommWServP12,3,3,,,6/2/2016,4/1/2016,PDT,0.785,0.931,0.905,0.617,0.877,0.51,0.866,1.033,1.029,0.983,0.668,0.58,0.625,0.513,0.939,1.031,0.896,0.513,0.839,0.796,1.035,0.965,0.914,0.578
87,3CommWMeter12,3CommAcct11,3CommWServP12,3,3,,,6/2/2016,4/2/2016,PDT,0.666,1.027,0.718,0.604,0.91,0.531,0.872,1.009,0.554,0.757,0.904,0.577,0.532,0.812,0.623,0.598,1.008,0.535,0.804,0.645,0.69,0.825,0.536,0.711
87,3CommWMeter12,3CommAcct11,3CommWServP12,3,3,,,6/2/2016,4/3/2016,PDT,0.986,0.519,0.746,0.606,0.923,0.82,0.863,0.7,0.863,0.935,0.964,0.868,1.002,0.965,0.557,0.884,0.689,0.854,0.988,1.001,0.522,0.517,0.901,0.984
87,3CommWMeter12,3CommAcct11,3CommWServP12,3,3,,,6/2/2016,4/4/2016,PDT,0.615,0.557,0.5,0.614,0.51,0.765,0.5,0.729,0.681,0.671,0.576,0.998,0.908,0.722,0.552,0.557,0.593,1.015,0.642,0.555,0.662,0.777,0.65,1.001
87,3CommWMeter12,3CommAcct11,3CommWServP12,3,3,,,6/2/2016,4/5/2016,PDT,0.563,0.516,0.657,0.766,0.966,0.802,0.829,0.824,0.547,0.618,0.544,0.665,0.584,0.925,0.677,0.882,0.975,0.608,0.613,0.517,0.897,0.752,0.954,0.892
87,3CommWMeter12,3CommAcct11,3CommWServP12,3,3,,,6/2/2016,4/6/2016,PDT,0.655,0.755,0.714,1.002,0.628,0.594,1.013,0.526,0.769,0.717,0.833,0.809,0.531,0.564,0.8,0.596,0.641,0.984,0.899,0.905,0.716,0.673,0.826,0.726
87,3CommWMeter12,3CommAcct11,3CommWServP12,3,3,,,6/2/2016,4/7/2016,PDT,0.786,0.807,0.772,0.887,0.587,0.529,0.517,0.753,0.994,1.025,0.727,0.995,0.904,0.895,0.851,0.968,0.653,0.529,0.825,0.948,0.86,0.734,0.751,0.835
87,3CommWMeter12,3CommAcct11,3CommWServP12,3,3,,,6/2/2016,4/8/2016,PDT,0.886,0.653,0.994,0.502,1.03,0.867,0.928,0.865,0.619,0.723,0.7,0.754,0.509,1.032,1.011,0.696,0.529,0.934,0.592,0.685,0.834,0.912,0.584,1.015
87,3CommWMeter12,3CommAcct11,3CommWServP12,3,3,,,6/2/2016,4/9/2016,PDT,0.529,0.736,0.847,0.913,0.923,0.861,0.969,0.529,0.706,0.92,0.758,0.793,0.789,0.888,0.524,0.96,0.651,0.887,0.988,0.529,1.036,0.875,0.821,0.809
87,3CommWMeter12,3CommAcct11,3CommWServP12,3,3,,,6/2/2016,4/10/2016,PDT,1.001,0.801,0.621,0.992,0.557,0.612,0.85,0.925,0.649,0.72,0.781,0.944,0.962,0.568,0.816,0.74,0.72,0.669,0.528,0.931,0.915,0.604,0.765,0.525
87,3CommWMeter12,3CommAcct11,3CommWServP12,3,3,,,6/2/2016,4/11/2016,PDT,0.518,0.916,0.637,1.009,0.621,0.672,0.926,0.646,1.017,0.681,0.533,0.607,0.878,0.772,0.806,0.563,0.52,0.797,0.978,0.754,0.673,0.964,0.695,0.772
87,3CommWMeter12,3CommAcct11,3CommWServP12,3,3,,,6/2/2016,4/12/2016,PDT,0.904,0.796,0.53,0.802,0.633,0.592,0.891,0.869,0.951,0.556,0.838,0.852,1.009,0.537,1.001,0.628,0.833,0.953,0.918,0.762,0.973,0.986,0.636,0.706
87,3CommWMeter12,3CommAcct11,3CommWServP12,3,3,,,6/2/2016,4/13/2016,PDT,0.75,0.688,0.799,0.983,0.505,0.618,0.904,0.678,1.006,0.866,0.825,0.573,0.7,0.72,0.666,0.612,0.961,0.705,0.864,0.766,0.551,0.944,0.984,0.799
87,3CommWMeter12,3CommAcct11,3CommWServP12,3,3,,,6/2/2016,4/14/2016,PDT,0.524,0.88,0.856,0.696,0.984,0.574,0.9,0.669,0.978,1.028,0.684,0.801,0.844,0.889,1.018,0.989,0.595,0.653,0.629,0.514,0.861,1.002,0.822,0.853
87,3CommWMeter12,3CommAcct11,3CommWServP12,3,3,,,6/2/2016,4/15/2016,PDT,0.99,0.891,0.872,0.983,1.021,0.765,0.919,0.896,0.893,0.81,0.694,0.95,0.735,1.027,0.732,0.872,0.801,0.717,0.854,0.513,0.737,0.907,0.863,0.776
87,3CommWMeter12,3CommAcct11,3CommWServP12,3,3,,,6/2/2016,4/16/2016,PDT,0.979,0.673,0.593,0.551,1.04,1.001,1.008,0.6,0.981,0.942,0.815,0.926,0.677,0.527,1.001,0.613,0.556,0.913,0.646,0.89,0.551,0.613,0.752,0.675
87,3CommWMeter12,3CommAcct11,3CommWServP12,3,3,,,6/2/2016,4/17/2016,PDT,0.762,0.961,1.037,0.515,0.837,0.955,0.604,0.665,0.886,0.983,0.762,0.557,0.934,0.766,0.671,0.888,0.993,0.612,0.547,0.928,0.682,0.632,0.909,0.608
87,3CommWMeter12,3CommAcct11,3CommWServP12,3,3,,,6/2/2016,4/18/2016,PDT,1.01,1.011,0.616,0.884,0.564,0.646,0.694,0.523,0.728,0.515,0.691,0.985,0.775,0.629,0.541,0.875,0.663,0.712,0.602,0.545,0.581,0.775,0.969,0.986
87,3CommWMeter12,3CommAcct11,3CommWServP12,3,3,,,6/2/2016,4/19/2016,PDT,0.695,0.926,0.909,0.641,0.721,0.899,0.777,0.589,0.969,0.643,0.664,0.748,0.708,0.641,0.511,0.926,0.901,0.891,0.602,0.643,0.834,0.91,0.857,0.811
87,3CommWMeter12,3CommAcct11,3CommWServP12,3,3,,,6/2/2016,4/20/2016,PDT,0.933,0.9,1.019,0.725,0.659,0.99,0.828,0.672,0.772,0.996,0.991,0.976,0.535,0.927,0.607,0.657,0.741,0.819,0.758,0.635,0.598,0.558,0.812,0.991
87,3CommWMeter12,3CommAcct11,3CommWServP12,3,3,,,6/2/2016,4/21/2016,PDT,0.857,0.674,0.902,0.792,0.763,0.799,0.839,0.613,0.797,0.699,0.655,0.806,0.651,0.855,0.855,0.98,1.041,0.819,0.587,0.533,0.608,0.593,0.795,0.795
87,3CommWMeter12,3CommAcct11,3CommWServP12,3,3,,,6/2/2016,4/22/2016,PDT,0.6,0.934,0.588,0.789,1.041,0.962,1.002,0.706,0.711,0.612,0.772,0.77,0.563,0.821,0.766,0.884,0.525,0.678,0.894,0.702,0.778,0.885,0.623,0.965
87,3CommWMeter12,3CommAcct11,3CommWServP12,3,3,,,6/2/2016,4/23/2016,PDT,0.635,0.938,0.994,0.819,1.014,0.694,0.825,0.732,0.652,0.514,0.878,0.666,0.89,0.62,0.927,0.63,0.85,0.721,0.801,0.676,0.528,0.682,0.57,0.654
87,3CommWMeter12,3CommAcct11,3CommWServP12,3,3,,,6/2/2016,4/24/2016,PDT,0.63,1.023,1.022,0.716,0.533,0.938,0.862,0.987,0.509,1.007,0.671,1.001,0.658,0.627,0.911,0.96,0.521,0.82,0.655,0.589,1.011,0.659,0.744,0.807
87,3CommWMeter12,3CommAcct11,3CommWServP12,3,3,,,6/2/2016,4/25/2016,PDT,0.944,0.704,0.839,0.673,0.623,0.631,0.641,0.715,0.989,0.715,0.507,0.722,0.536,0.587,0.922,0.81,0.621,0.587,0.791,0.705,0.561,0.763,0.751,0.982
87,3CommWMeter12,3CommAcct11,3CommWServP12,3,3,,,6/2/2016,4/26/2016,PDT,0.922,1.029,0.726,0.653,0.584,0.993,1.011,0.668,0.701,1.014,0.599,0.871,0.689,0.525,0.838,0.958,1.026,0.653,0.621,0.534,0.815,0.98,0.564,1.037
87,3CommWMeter12,3CommAcct11,3CommWServP12,3,3,,,6/2/2016,4/27/2016,PDT,0.562,1.027,0.565,0.726,0.751,0.702,0.738,0.505,0.578,0.972,1.027,0.935,0.922,0.901,0.755,0.952,0.796,0.715,0.55,0.975,0.62,0.591,0.8,0.745
87,3CommWMeter12,3CommAcct11,3CommWServP12,3,3,,,6/2/2016,4/28/2016,PDT,0.781,0.677,0.86,0.98,0.855,0.999,0.949,0.975,0.603,0.638,0.661,1.04,1.019,0.546,0.776,0.982,0.91,0.574,0.897,0.622,0.622,0.776,0.706,0.81
87,3CommWMeter12,3CommAcct11,3CommWServP12,3,3,,,6/2/2016,4/29/2016,PDT,1.032,1.005,0.962,0.861,0.934,0.634,0.826,0.502,0.846,0.666,0.879,0.862,0.64,0.555,0.681,0.834,0.986,0.571,0.864,0.861,0.601,0.514,0.665,0.682
87,3CommWMeter12,3CommAcct11,3CommWServP12,3,3,,,6/2/2016,4/30/2016,PDT,0.977,1.001,0.9,0.911,0.553,0.94,1.012,0.643,0.929,0.704,0.89,0.705,0.858,0.886,0.555,0.722,1.032,0.746,0.692,0.678,0.968,0.807,0.962,0.872
87,3CommWMeter12,3CommAcct11,3CommWServP12,3,3,,,6/2/2016,5/1/2016,PDT,0.565,0.831,0.853,0.856,0.502,0.672,0.978,0.95,0.937,0.8,0.974,0.507,1.002,1.02,0.875,0.523,0.992,0.564,0.938,0.855,0.579,0.93,0.633,0.727
87,3CommWMeter12,3CommAcct11,3CommWServP12,3,3,,,6/2/2016,5/2/2016,PDT,0.783,0.809,0.77,0.532,0.765,1.025,0.757,0.92,0.534,0.627,0.676,0.513,0.919,0.582,0.823,1.033,0.856,0.541,0.732,0.517,0.891,0.517,0.754,0.539
87,3CommWMeter12,3CommAcct11,3CommWServP12,3,3,,,6/2/2016,5/3/2016,PDT,0.574,0.642,1.016,0.552,0.927,0.81,0.713,0.614,0.716,1.04,0.617,0.853,0.951,0.665,0.608,0.946,0.506,0.949,0.772,0.926,0.74,0.592,1.025,1.027
87,3CommWMeter12,3CommAcct11,3CommWServP12,3,3,,,6/2/2016,5/4/2016,PDT,0.596,1.014,0.545,0.93,0.575,0.797,0.548,0.508,0.787,0.719,0.644,0.662,0.698,0.767,0.809,0.758,0.944,0.953,0.81,0.831,0.688,0.862,1.029,0.553
87,3CommWMeter12,3CommAcct11,3CommWServP12,3,3,,,6/2/2016,5/5/2016,PDT,0.875,0.878,0.614,0.696,0.505,1.015,0.807,0.906,0.642,0.644,0.674,0.793,0.644,0.99,0.941,1.028,0.844,0.858,0.851,0.504,0.629,0.936,0.718,0.708
87,3CommWMeter12,3CommAcct11,3CommWServP12,3,3,,,6/2/2016,5/6/2016,PDT,0.954,0.73,0.737,0.98,0.738,0.905,0.983,0.978,0.596,0.887,0.838,0.577,0.717,0.594,0.672,0.795,0.536,1.039,0.602,0.664,0.673,0.623,0.846,0.612
87,3CommWMeter12,3CommAcct11,3CommWServP12,3,3,,,6/2/2016,5/7/2016,PDT,0.597,0.672,0.755,0.694,0.939,0.549,0.778,0.553,0.571,0.875,0.832,0.655,0.534,1.022,0.964,0.587,1.019,0.502,0.935,0.831,0.805,0.569,0.67,0.737
87,3CommWMeter12,3CommAcct11,3CommWServP12,3,3,,,6/2/2016,5/8/2016,PDT,0.538,0.957,0.842,0.552,0.525,0.569,0.616,0.903,0.667,0.586,0.838,0.778,0.571,0.72,0.943,0.707,0.719,0.75,0.634,0.741,0.7,0.508,0.706,0.949
87,3CommWMeter12,3CommAcct11,3CommWServP12,3,3,,,6/2/2016,5/9/2016,PDT,0.81,0.68,0.973,0.537,0.715,0.997,0.951,0.725,0.631,0.663,0.656,0.671,0.808,0.909,0.553,0.673,1.028,0.891,0.669,0.501,0.609,0.797,0.688,0.523
87,3CommWMeter12,3CommAcct11,3CommWServP12,3,3,,,6/2/2016,5/10/2016,PDT,0.692,1.009,0.869,0.785,0.509,0.896,0.844,0.923,0.946,0.505,0.543,0.549,0.51,0.901,0.594,0.877,0.714,0.729,0.671,0.753,0.578,0.671,0.649,0.706
87,3CommWMeter12,3CommAcct11,3CommWServP12,3,3,,,6/2/2016,5/11/2016,PDT,0.933,0.652,0.788,0.723,0.782,0.56,0.579,0.868,0.738,0.564,0.929,0.948,0.622,1.01,0.916,0.979,0.991,0.949,1.005,0.77,0.879,1.023,1.002,1.011
87,3CommWMeter12,3CommAcct11,3CommWServP12,3,3,,,6/2/2016,5/12/2016,PDT,0.604,0.858,0.785,0.564,0.814,0.732,1.008,0.855,0.985,0.805,0.578,0.972,0.609,0.947,0.679,0.924,1.03,0.51,0.679,0.501,0.844,0.601,0.873,0.813
87,3CommWMeter12,3CommAcct11,3CommWServP12,3,3,,,6/2/2016,5/13/2016,PDT,0.769,0.846,0.776,0.598,0.846,0.743,0.516,0.594,0.886,0.801,0.599,0.608,0.814,0.868,0.852,0.843,0.513,0.661,0.855,0.849,0.82,0.835,0.967,0.512
87,3CommWMeter12,3CommAcct11,3CommWServP12,3,3,,,6/2/2016,5/14/2016,PDT,0.54,0.851,0.68,0.67,0.627,0.872,1.014,0.882,0.841,0.905,0.557,0.801,0.8,0.853,0.882,0.892,0.808,0.945,0.884,0.99,1.008,0.817,0.948,0.718
87,3CommWMeter12,3CommAcct11,3CommWServP12,3,3,,,6/2/2016,5/15/2016,PDT,1.019,0.696,0.72,0.57,0.686,0.965,0.869,0.671,0.678,0.732,0.75,0.727,0.667,0.914,0.875,0.743,0.935,0.763,0.917,1.011,0.63,0.679,0.696,0.546
87,3CommWMeter12,3CommAcct11,3CommWServP12,3,3,,,6/2/2016,5/16/2016,PDT,0.979,0.648,0.702,0.874,0.538,0.684,0.8,1.014,0.501,0.675,0.708,0.68,0.631,0.684,0.838,0.527,0.985,0.51,0.91,0.748,0.896,0.661,0.856,0.876
87,3CommWMeter12,3CommAcct11,3CommWServP12,3,3,,,6/2/2016,5/17/2016,PDT,0.625,0.597,0.704,0.911,0.624,0.635,0.761,0.664,0.989,0.787,0.57,0.843,0.809,0.744,0.893,0.865,0.721,0.654,0.989,0.668,0.966,0.532,0.801,0.729
87,3CommWMeter12,3CommAcct11,3CommWServP12,3,3,,,6/2/2016,5/18/2016,PDT,0.597,0.538,0.534,0.979,0.667,0.912,0.744,0.573,0.645,0.925,0.526,0.505,0.729,1.039,0.869,0.806,1.04,0.851,0.74,0.9,0.74,0.703,1.017,0.794
87,3CommWMeter12,3CommAcct11,3CommWServP12,3,3,,,6/2/2016,5/19/2016,PDT,0.513,0.756,0.719,0.774,0.663,0.772,0.956,0.98,0.726,0.979,0.614,0.688,0.884,0.886,0.633,0.542,0.997,0.972,0.728,1.03,0.753,0.604,0.633,0.895
87,3CommWMeter12,3CommAcct11,3CommWServP12,3,3,,,6/2/2016,5/20/2016,PDT,0.992,0.773,0.754,0.93,1.039,0.717,0.759,0.628,0.937,0.872,0.523,0.58,0.758,0.506,0.826,0.648,0.72,0.688,0.899,0.784,0.565,0.685,0.572,0.635
87,3CommWMeter12,3CommAcct11,3CommWServP12,3,3,,,6/2/2016,5/21/2016,PDT,0.921,0.909,0.826,0.722,0.857,0.555,0.529,0.881,0.91,0.884,0.991,0.675,1.033,0.937,0.611,0.948,1.032,0.686,0.559,1.026,0.918,0.922,0.757,0.891
87,3CommWMeter12,3CommAcct11,3CommWServP12,3,3,,,6/2/2016,5/22/2016,PDT,0.926,0.885,1.001,0.709,0.897,0.949,1.04,0.542,0.889,0.679,0.68,0.512,0.964,0.7,1.009,0.908,0.52,0.873,1.025,0.955,0.68,0.899,0.801,0.87
87,3CommWMeter12,3CommAcct11,3CommWServP12,3,3,,,6/2/2016,5/23/2016,PDT,0.992,0.715,0.935,0.52,0.602,0.742,0.858,0.522,0.918,0.897,0.633,0.547,0.811,1.002,0.811,0.901,0.771,0.965,0.94,0.526,0.758,0.937,0.624,0.658
87,3CommWMeter12,3CommAcct11,3CommWServP12,3,3,,,6/2/2016,5/24/2016,PDT,0.633,0.94,0.754,0.821,0.886,0.806,0.79,0.989,0.907,0.63,0.871,0.885,0.504,0.504,0.734,1.023,0.589,0.934,0.84,0.56,1.009,0.731,1.028,0.563
87,3CommWMeter12,3CommAcct11,3CommWServP12,3,3,,,6/2/2016,5/25/2016,PDT,0.668,0.893,0.84,0.557,0.773,0.767,0.52,0.629,0.669,0.599,0.603,0.524,0.869,0.602,0.715,0.641,1.023,0.933,0.979,0.959,0.517,1.006,0.863,0.727
87,3CommWMeter12,3CommAcct11,3CommWServP12,3,3,,,6/2/2016,5/26/2016,PDT,1.014,0.621,0.78,0.702,1.007,0.952,1.029,1.013,0.631,0.728,0.912,0.66,0.589,0.699,0.788,1.038,0.74,0.754,1.016,0.97,0.664,0.737,0.876,0.513
87,3CommWMeter12,3CommAcct11,3CommWServP12,3,3,,,6/2/2016,5/27/2016,PDT,0.777,0.979,0.663,0.877,0.556,0.89,0.689,0.67,0.62,0.675,0.618,0.703,0.631,0.657,0.773,0.548,0.502,0.703,0.518,0.856,0.519,1.026,0.854,1.03
87,3CommWMeter12,3CommAcct11,3CommWServP12,3,3,,,6/2/2016,5/28/2016,PDT,0.804,0.784,0.869,0.568,0.666,0.632,0.874,0.815,0.607,0.679,0.602,0.533,0.66,0.614,0.988,0.615,0.605,0.592,0.514,0.758,1.029,0.793,0.602,0.96
87,3CommWMeter12,3CommAcct11,3CommWServP12,3,3,,,6/2/2016,5/29/2016,PDT,0.977,0.712,0.61,0.756,0.654,0.826,0.849,0.941,0.936,1.007,0.931,0.786,0.505,0.688,0.959,0.825,1.006,0.934,0.63,0.816,1,1.016,0.945,0.773
87,3CommWMeter12,3CommAcct11,3CommWServP12,3,3,,,6/2/2016,5/30/2016,PDT,1.041,0.656,0.778,0.649,1.023,0.503,0.625,0.634,0.573,0.939,0.807,0.653,0.974,0.617,0.671,0.516,0.826,0.828,0.91,0.68,0.97,0.739,0.562,0.666
87,3CommWMeter12,3CommAcct11,3CommWServP12,3,3,,,6/2/2016,5/31/2016,PDT,0.906,0.627,0.999,1.024,0.9,0.922,0.767,0.619,0.776,0.769,0.725,0.719,0.729,0.845,0.981,0.809,0.55,0.568,0.918,0.818,0.917,0.591,0.508,0.937
87,3CommWMeter12,3CommAcct11,3CommWServP12,3,3,,,6/2/2016,6/1/2016,PDT,0.525,0.644,0.536,0.805,0.625,0.806,0.697,0.841,0.518,0.512,0.691,0.519,0.578,0.851,0.636,0.635,0.839,0.596,0.63,0.718,0.865,0.7,0.716,0.629
87,3CommWMeter12,3CommAcct11,3CommWServP12,3,3,,,6/2/2016,6/2/2016,PDT,0.708,0.608,0.606,0.604,0.826,0.672,0.631,0.542,0.891,0.842,0.766,0.996,0.534,0.857,0.635,0.538,0.813,0.552,0.57,0.547,1.03,0.894,0.886,1.021
87,3CommWMeter12,3CommAcct11,3CommWServP12,3,3,,,6/2/2016,6/3/2016,PDT,0.846,0.502,0.752,0.832,0.552,0.806,0.984,0.639,0.936,0.821,0.535,0.962,0.648,0.659,0.852,0.572,0.922,0.997,0.624,0.689,1.005,0.619,0.573,0.599
87,3CommWMeter12,3CommAcct11,3CommWServP12,3,3,,,6/2/2016,6/4/2016,PDT,0.726,0.846,0.886,0.743,0.749,0.916,0.949,0.693,0.576,0.782,0.889,0.617,0.5,0.956,0.835,1.023,0.703,0.676,0.952,0.523,0.835,0.758,0.6,0.882
87,3CommWMeter12,3CommAcct11,3CommWServP12,3,3,,,6/2/2016,6/5/2016,PDT,0.939,0.886,0.602,0.838,0.661,0.613,0.771,0.557,0.509,0.872,0.713,0.928,0.957,0.57,0.957,0.819,0.651,0.59,0.697,0.703,0.635,1.038,0.804,0.507
87,3CommWMeter12,3CommAcct11,3CommWServP12,3,3,,,6/2/2016,6/6/2016,PDT,0.964,0.584,0.908,0.903,0.852,0.719,0.707,0.637,0.648,0.745,0.708,0.512,0.991,0.883,0.58,0.856,0.997,0.903,0.94,0.978,0.979,0.785,0.627,0.761
87,3CommWMeter12,3CommAcct11,3CommWServP12,3,3,,,6/2/2016,6/7/2016,PDT,1.028,0.835,0.924,0.955,0.579,0.583,0.565,0.782,0.954,0.685,0.609,0.78,0.874,1.035,0.759,0.535,0.643,0.645,0.651,0.864,0.577,0.828,0.747,0.681
87,3CommWMeter12,3CommAcct11,3CommWServP12,3,3,,,6/2/2016,6/8/2016,PDT,1.029,0.516,0.879,0.513,0.621,0.744,0.584,0.745,0.97,0.903,0.627,0.757,0.609,0.682,0.526,0.656,0.818,0.95,0.568,0.548,0.706,0.641,0.659,0.753
87,3CommWMeter12,3CommAcct11,3CommWServP12,3,3,,,6/2/2016,6/9/2016,PDT,0.737,1.007,0.612,0.539,0.621,0.587,0.905,0.648,0.86,0.648,0.609,0.886,0.565,0.682,0.88,1.016,0.553,1.015,0.838,0.83,0.829,0.802,0.751,0.735
87,3CommWMeter12,3CommAcct11,3CommWServP12,3,3,,,6/2/2016,6/10/2016,PDT,0.864,0.899,0.832,0.992,1.03,0.526,0.695,0.588,1.032,0.52,0.955,0.98,0.555,1.011,0.521,0.921,0.612,0.834,0.681,0.922,0.672,0.746,0.58,0.83
87,3CommWMeter12,3CommAcct11,3CommWServP12,3,3,,,6/2/2016,6/11/2016,PDT,0.895,0.654,0.538,0.99,0.926,0.761,0.527,0.935,1.038,0.777,1.008,0.902,1.037,0.569,0.75,0.716,0.876,0.813,0.629,0.552,0.956,0.589,0.982,0.571
87,3CommWMeter12,3CommAcct11,3CommWServP12,3,3,,,6/2/2016,6/12/2016,PDT,0.707,1.007,0.747,1.021,0.901,0.881,0.926,0.659,0.929,0.791,0.512,0.618,0.926,0.919,0.525,0.933,0.935,0.69,0.511,0.909,0.545,0.943,0.706,0.775
87,3CommWMeter12,3CommAcct11,3CommWServP12,3,3,,,6/2/2016,6/13/2016,PDT,0.891,0.69,0.505,0.835,0.922,0.676,0.579,0.756,0.931,0.68,0.987,0.939,0.821,0.959,0.773,0.787,0.884,0.693,0.634,0.694,0.928,0.954,0.981,0.883
87,3CommWMeter12,3CommAcct11,3CommWServP12,3,3,,,6/2/2016,6/14/2016,PDT,0.818,0.917,0.798,0.876,0.826,0.514,0.609,0.759,0.853,0.745,0.786,0.984,1.029,0.775,0.995,0.834,1.03,0.745,0.895,0.65,0.764,0.518,0.585,0.717
87,3CommWMeter12,3CommAcct11,3CommWServP12,3,3,,,6/2/2016,6/15/2016,PDT,0.898,0.643,0.535,0.863,0.882,0.536,0.838,0.571,0.584,0.687,0.611,0.757,0.619,0.674,0.936,0.748,0.637,0.973,0.842,1.007,0.53,0.566,0.726,1.016
87,3CommWMeter12,3CommAcct11,3CommWServP12,3,3,,,6/2/2016,6/16/2016,PDT,0.639,0.59,0.916,0.503,0.545,0.634,0.728,0.97,0.878,0.849,0.657,0.5,0.549,0.727,0.828,0.906,1,1.021,0.637,0.636,0.658,0.649,1.029,0.899
87,3CommWMeter12,3CommAcct11,3CommWServP12,3,3,,,6/2/2016,6/17/2016,PDT,0.993,0.974,0.94,0.561,0.634,0.522,0.774,0.758,0.688,0.686,0.766,0.518,0.932,0.56,0.77,0.516,0.745,0.822,0.514,1.014,0.936,0.585,0.655,0.902
87,3CommWMeter12,3CommAcct11,3CommWServP12,3,3,,,6/2/2016,6/18/2016,PDT,0.628,0.602,0.678,0.52,0.935,0.81,0.738,1.033,0.569,0.569,1.034,0.584,0.833,0.794,0.543,0.587,0.854,0.601,0.651,0.507,0.921,1.024,0.937,0.964
87,3CommWMeter12,3CommAcct11,3CommWServP12,3,3,,,6/2/2016,6/19/2016,PDT,0.768,0.982,0.836,0.852,0.966,0.974,0.874,0.698,0.644,0.956,0.773,0.772,0.871,0.954,0.984,0.586,0.562,0.822,0.568,0.732,0.948,0.797,0.901,0.786
87,3CommWMeter12,3CommAcct11,3CommWServP12,3,3,,,6/2/2016,6/20/2016,PDT,0.924,0.681,0.916,0.873,1.015,0.989,0.657,0.803,1.033,0.632,0.734,0.859,1.01,0.574,1.016,0.876,0.748,0.57,0.661,0.671,0.984,0.949,0.905,0.669
87,3CommWMeter12,3CommAcct11,3CommWServP12,3,3,,,6/2/2016,6/21/2016,PDT,0.595,0.624,0.681,0.757,0.821,0.686,0.994,1.023,0.829,0.679,0.87,1.003,0.716,0.699,0.951,0.97,0.96,0.821,0.616,0.836,0.79,0.565,0.789,0.626
87,3CommWMeter12,3CommAcct11,3CommWServP12,3,3,,,6/2/2016,6/22/2016,PDT,0.843,0.617,0.709,0.72,0.629,0.797,0.529,0.697,0.92,0.784,0.636,0.7,0.594,0.945,0.893,0.812,1.012,0.567,0.838,0.995,0.847,0.713,0.606,0.532
87,3CommWMeter12,3CommAcct11,3CommWServP12,3,3,,,6/2/2016,6/23/2016,PDT,0.85,0.893,0.726,0.934,0.975,0.797,0.614,0.786,0.795,0.613,0.822,0.57,0.61,0.622,0.968,0.819,0.585,0.515,0.839,0.563,0.779,0.885,0.782,0.871
87,3CommWMeter12,3CommAcct11,3CommWServP12,3,3,,,6/2/2016,6/24/2016,PDT,0.938,0.798,0.68,0.621,0.628,0.614,0.661,0.818,0.956,0.965,0.84,0.601,1.028,0.621,1.035,0.602,1.011,0.556,0.851,0.663,0.964,0.524,0.973,0.653
87,3CommWMeter12,3CommAcct11,3CommWServP12,3,3,,,6/2/2016,6/25/2016,PDT,0.545,0.733,0.98,0.651,0.631,0.612,0.553,0.977,0.991,0.917,0.884,1.017,0.875,0.647,0.569,0.776,0.731,0.913,0.733,0.81,0.521,0.522,0.65,0.942
87,3CommWMeter12,3CommAcct11,3CommWServP12,3,3,,,6/2/2016,6/26/2016,PDT,0.608,0.839,0.802,1.039,0.542,1.036,0.654,0.777,0.856,0.649,0.75,0.514,0.597,1.009,0.602,0.585,0.611,0.647,1.016,0.507,0.826,0.934,0.863,0.597
87,3CommWMeter12,3CommAcct11,3CommWServP12,3,3,,,6/2/2016,6/27/2016,PDT,0.516,0.987,0.676,0.551,0.805,1.01,0.655,0.903,0.954,0.858,0.749,0.844,0.754,1.028,0.609,0.894,0.569,0.616,0.811,0.916,0.795,1.028,0.741,0.996
87,3CommWMeter12,3CommAcct11,3CommWServP12,3,3,,,6/2/2016,6/28/2016,PDT,0.505,0.822,0.525,0.959,0.9,0.592,0.643,0.54,0.853,0.567,0.79,0.558,0.611,0.514,0.541,0.947,0.586,0.796,0.54,0.73,0.883,0.54,0.646,0.879
87,3CommWMeter12,3CommAcct11,3CommWServP12,3,3,,,6/2/2016,6/29/2016,PDT,0.541,0.54,0.845,0.671,0.508,0.808,0.817,1.03,0.936,0.507,0.955,1.027,0.524,0.972,0.964,0.569,1.039,0.627,1.036,0.538,0.855,0.576,0.709,1.006
87,3CommWMeter12,3CommAcct11,3CommWServP12,3,3,,,6/2/2016,6/30/2016,PDT,0.598,0.617,0.774,0.631,0.516,0.962,0.711,0.62,0.579,0.776,0.706,0.955,0.712,0.763,0.921,0.627,0.865,0.564,1.012,0.598,0.839,1.023,1.04,0.777
87,3CommWMeter12,3CommAcct11,3CommWServP12,3,3,,,6/2/2016,7/1/2016,PDT,0.634,0.896,0.806,0.927,0.802,0.725,0.582,0.664,0.576,0.777,0.986,0.992,0.879,1.008,1.01,1.019,0.827,0.526,0.698,0.762,1.037,1.03,0.991,0.654
87,3CommWMeter12,3CommAcct11,3CommWServP12,3,3,,,6/2/2016,7/2/2016,PDT,0.919,0.715,0.787,0.902,0.706,0.935,0.692,0.638,0.707,0.927,1.029,0.808,0.674,0.876,0.841,0.998,0.927,0.704,0.95,1.029,0.557,0.643,1.003,0.972
87,3CommWMeter12,3CommAcct11,3CommWServP12,3,3,,,6/2/2016,7/3/2016,PDT,0.82,0.747,1.002,0.88,0.751,0.929,0.612,1.005,0.535,0.838,0.601,0.772,0.506,0.565,0.714,0.719,0.64,0.709,0.958,0.533,0.76,0.742,1.027,0.768
87,3CommWMeter12,3CommAcct11,3CommWServP12,3,3,,,6/2/2016,7/4/2016,PDT,0.715,0.714,0.742,0.549,0.62,1.033,1.008,0.889,0.857,0.534,0.664,0.668,0.951,0.874,0.527,0.806,0.862,0.592,0.886,0.937,0.636,0.954,0.509,0.971
87,3CommWMeter12,3CommAcct11,3CommWServP12,3,3,,,6/2/2016,7/5/2016,PDT,0.752,0.599,0.863,0.603,0.932,0.692,0.589,0.606,0.691,0.593,0.522,0.848,0.94,0.832,0.56,1.026,1.013,0.79,0.716,0.913,0.778,0.723,1.008,0.629
87,3CommWMeter12,3CommAcct11,3CommWServP12,3,3,,,6/2/2016,7/6/2016,PDT,0.553,0.811,0.526,0.666,0.744,0.795,0.592,0.683,0.696,0.869,0.842,0.506,0.928,0.89,0.552,0.732,0.644,0.994,0.98,0.806,0.52,0.775,0.819,0.887
87,3CommWMeter12,3CommAcct11,3CommWServP12,3,3,,,6/2/2016,7/7/2016,PDT,0.667,1.011,0.769,0.746,0.602,0.865,0.996,0.966,0.751,0.946,0.687,0.786,0.555,0.925,0.894,0.799,0.768,0.505,0.63,0.533,0.54,0.85,0.992,0.715
87,3CommWMeter12,3CommAcct11,3CommWServP12,3,3,,,6/2/2016,7/8/2016,PDT,0.847,0.564,0.918,1.035,0.755,0.551,0.843,0.614,0.977,0.644,0.989,0.973,1.001,0.849,0.964,1.013,0.985,0.807,0.668,0.687,0.757,0.839,1.034,0.575
87,3CommWMeter12,3CommAcct11,3CommWServP12,3,3,,,6/2/2016,7/9/2016,PDT,0.913,0.768,0.833,0.663,0.742,0.784,0.691,1.014,0.617,0.668,0.868,0.743,0.573,1.03,0.532,0.674,0.995,0.831,0.814,0.912,0.695,1.022,0.772,0.579
87,3CommWMeter12,3CommAcct11,3CommWServP12,3,3,,,6/2/2016,7/10/2016,PDT,0.597,1.007,0.754,0.622,0.779,0.701,0.523,0.944,0.723,0.978,1.002,0.901,0.519,0.874,0.996,0.69,0.795,0.781,0.924,0.867,0.904,0.788,0.622,0.991
87,3CommWMeter12,3CommAcct11,3CommWServP12,3,3,,,6/2/2016,7/11/2016,PDT,0.929,0.506,0.861,0.964,0.806,0.543,0.716,0.525,0.698,0.622,0.504,0.97,0.837,0.887,0.826,0.714,0.828,0.567,0.925,1.039,0.599,0.56,0.528,0.731
87,3CommWMeter12,3CommAcct11,3CommWServP12,3,3,,,6/2/2016,7/12/2016,PDT,0.87,0.81,0.915,0.906,0.741,0.773,0.985,0.824,0.999,0.731,0.517,0.924,0.929,0.902,1.018,0.584,0.884,0.863,0.625,0.734,0.559,0.584,0.891,0.522
87,3CommWMeter12,3CommAcct11,3CommWServP12,3,3,,,6/2/2016,7/13/2016,PDT,0.932,0.754,0.619,0.76,0.557,0.809,0.588,0.957,0.811,0.988,0.536,0.788,0.827,0.734,0.614,0.726,0.634,0.94,0.963,0.951,0.891,0.829,0.709,0.709
87,3CommWMeter12,3CommAcct11,3CommWServP12,3,3,,,6/2/2016,7/14/2016,PDT,0.801,0.719,0.804,0.789,0.984,0.807,0.745,0.515,1.007,0.583,0.635,0.52,0.834,1.026,0.651,0.772,0.725,0.541,0.633,1,0.871,0.887,0.809,0.701
87,3CommWMeter12,3CommAcct11,3CommWServP12,3,3,,,6/2/2016,7/15/2016,PDT,0.677,1.009,0.976,0.891,0.623,0.814,0.663,0.843,0.542,1.002,0.96,0.531,0.63,0.64,0.782,0.969,0.84,0.667,0.846,0.834,0.86,0.931,0.807,0.866
87,3CommWMeter12,3CommAcct11,3CommWServP12,3,3,,,6/2/2016,7/16/2016,PDT,0.603,0.606,0.763,1.014,0.593,1.032,0.558,0.976,0.514,0.964,0.862,0.825,0.705,0.718,0.612,0.58,0.73,0.545,0.807,0.888,0.621,0.935,0.704,0.969
87,3CommWMeter12,3CommAcct11,3CommWServP12,3,3,,,6/2/2016,7/17/2016,PDT,0.933,0.636,0.772,0.564,0.975,0.606,0.989,0.563,0.542,0.692,0.658,0.987,0.815,1.031,0.964,0.728,0.506,0.742,0.745,0.746,0.733,0.591,0.593,0.728
87,3CommWMeter12,3CommAcct11,3CommWServP12,3,3,,,6/2/2016,7/18/2016,PDT,0.928,0.682,0.804,0.541,0.817,0.871,0.808,0.865,1.03,0.782,0.638,0.551,0.809,0.61,0.82,0.765,0.603,1.027,0.919,0.989,0.561,0.657,0.605,0.708
87,3CommWMeter12,3CommAcct11,3CommWServP12,3,3,,,6/2/2016,7/19/2016,PDT,1.018,0.602,0.901,0.604,0.547,0.924,0.557,0.745,0.555,0.88,0.75,1.037,0.949,0.867,0.515,0.501,0.551,0.84,0.711,0.856,0.644,0.778,0.655,0.864
87,3CommWMeter12,3CommAcct11,3CommWServP12,3,3,,,6/2/2016,7/20/2016,PDT,0.517,0.87,0.925,0.832,0.764,0.872,1.016,0.741,0.574,0.578,0.884,0.71,0.842,0.958,0.762,0.838,0.58,0.901,0.84,0.662,0.863,0.88,0.739,0.83
87,3CommWMeter12,3CommAcct11,3CommWServP12,3,3,,,6/2/2016,7/21/2016,PDT,0.53,0.811,0.866,0.535,1.026,0.608,0.69,0.757,0.855,0.919,0.868,0.581,0.8,0.624,0.762,0.831,0.83,1.033,0.883,0.723,0.996,0.835,1.027,0.755
87,3CommWMeter12,3CommAcct11,3CommWServP12,3,3,,,6/2/2016,7/22/2016,PDT,0.646,0.747,1.022,0.632,0.817,0.977,0.794,0.654,0.511,1.02,0.82,0.729,0.518,0.613,0.586,0.537,0.877,0.876,0.945,1.003,0.867,0.589,0.626,0.908
87,3CommWMeter12,3CommAcct11,3CommWServP12,3,3,,,6/2/2016,7/23/2016,PDT,0.831,0.529,0.834,0.815,0.54,0.98,0.69,0.523,0.792,0.898,0.678,0.973,0.663,0.948,0.763,0.585,0.849,0.551,0.513,0.611,0.757,1.036,0.936,0.878
87,3CommWMeter12,3CommAcct11,3CommWServP12,3,3,,,6/2/2016,7/24/2016,PDT,0.943,0.761,0.634,0.764,0.569,0.74,0.618,0.532,0.909,0.999,0.742,0.761,0.919,0.507,0.708,0.825,0.615,1.037,0.957,0.894,0.991,0.558,0.977,0.777
87,3CommWMeter12,3CommAcct11,3CommWServP12,3,3,,,6/2/2016,7/25/2016,PDT,0.549,0.583,0.822,0.834,0.553,0.717,0.555,1.004,0.567,0.81,0.966,1.032,0.518,0.57,0.838,0.681,0.809,0.507,0.981,0.603,0.581,0.896,0.773,0.65
87,3CommWMeter12,3CommAcct11,3CommWServP12,3,3,,,6/2/2016,7/26/2016,PDT,0.918,0.638,0.96,0.914,0.598,1.007,0.873,0.667,0.963,0.864,0.66,0.607,0.672,0.665,0.729,0.646,0.562,0.985,0.919,0.772,0.838,1.022,0.794,0.925
87,3CommWMeter12,3CommAcct11,3CommWServP12,3,3,,,6/2/2016,7/27/2016,PDT,0.822,0.808,0.982,0.707,0.947,1.031,0.908,0.779,0.518,0.507,0.529,0.618,0.837,0.507,0.987,1.014,0.63,0.695,0.995,0.815,0.622,0.921,0.572,0.953
87,3CommWMeter12,3CommAcct11,3CommWServP12,3,3,,,6/2/2016,7/28/2016,PDT,0.803,0.715,0.527,0.579,0.824,0.909,0.757,0.547,0.899,0.735,0.743,0.925,0.978,0.506,0.962,0.913,0.633,0.816,0.658,0.694,1.019,0.546,0.574,0.541
87,3CommWMeter12,3CommAcct11,3CommWServP12,3,3,,,6/2/2016,7/29/2016,PDT,0.946,0.689,0.632,0.741,0.761,0.647,0.874,0.52,0.534,0.763,0.813,0.998,0.658,0.873,0.863,0.504,0.709,0.674,0.882,0.839,0.908,0.583,0.784,0.5
87,3CommWMeter12,3CommAcct11,3CommWServP12,3,3,,,6/2/2016,7/30/2016,PDT,0.736,0.513,0.656,0.721,0.933,0.645,0.771,0.574,0.592,0.568,0.868,0.913,0.599,0.826,0.745,0.727,0.943,0.751,0.864,0.944,0.833,0.681,0.965,0.843
87,3CommWMeter12,3CommAcct11,3CommWServP12,3,3,,,6/2/2016,7/31/2016,PDT,0.847,0.929,0.849,0.693,0.964,0.578,0.607,0.999,1.035,0.911,1.003,0.561,0.686,0.528,0.767,0.5,0.89,0.545,0.548,0.892,0.662,0.563,0.832,0.753
87,3CommWMeter12,3CommAcct11,3CommWServP12,3,3,,,6/2/2016,8/1/2016,PDT,0.558,0.709,0.74,0.65,0.596,0.968,0.695,0.563,0.547,0.575,0.743,0.991,0.554,0.796,1.025,0.975,1.04,0.796,0.501,0.832,0.564,0.949,0.648,0.526
87,3CommWMeter12,3CommAcct11,3CommWServP12,3,3,,,6/2/2016,8/2/2016,PDT,0.899,0.728,0.946,0.845,0.776,1.006,0.589,0.818,0.729,0.642,0.544,0.753,0.798,0.87,1.005,0.772,0.664,0.684,0.601,0.802,0.679,0.809,0.558,0.958
87,3CommWMeter12,3CommAcct11,3CommWServP12,3,3,,,6/2/2016,8/3/2016,PDT,1.009,0.697,0.651,0.778,0.556,0.986,0.532,0.641,0.558,0.969,0.883,0.709,0.959,0.575,0.712,1.007,0.696,1.032,0.95,0.651,0.738,0.701,0.789,0.606
87,3CommWMeter12,3CommAcct11,3CommWServP12,3,3,,,6/2/2016,8/4/2016,PDT,0.509,0.695,0.772,0.656,0.888,0.927,0.781,0.584,0.696,0.639,0.938,0.804,0.552,0.96,0.985,0.791,0.939,0.927,0.887,0.869,0.717,0.519,1,0.569
87,3CommWMeter12,3CommAcct11,3CommWServP12,3,3,,,6/2/2016,8/5/2016,PDT,0.763,0.742,0.87,0.896,0.793,0.803,0.841,0.963,0.951,0.75,1.041,0.628,0.518,0.983,0.756,0.672,0.55,0.816,0.611,0.704,0.929,0.864,0.892,0.594
87,3CommWMeter12,3CommAcct11,3CommWServP12,3,3,,,6/2/2016,8/6/2016,PDT,0.704,0.839,0.796,0.896,0.515,0.926,0.506,1.02,0.893,0.561,0.845,1.007,0.773,0.611,0.688,0.694,0.609,0.651,0.758,0.794,0.752,0.784,0.964,0.986
87,3CommWMeter12,3CommAcct11,3CommWServP12,3,3,,,6/2/2016,8/7/2016,PDT,0.632,0.513,0.656,0.837,1.02,0.834,0.961,0.606,0.505,0.517,0.974,1.022,0.961,1.024,0.879,0.64,0.856,0.674,0.751,0.686,1.006,0.834,0.773,0.601
87,3CommWMeter12,3CommAcct11,3CommWServP12,3,3,,,6/2/2016,8/8/2016,PDT,0.998,0.949,0.561,0.913,0.604,0.718,0.919,0.702,0.596,0.682,0.874,0.541,0.897,0.739,0.915,0.513,0.982,0.909,0.687,0.633,0.936,0.541,0.797,0.913
87,3CommWMeter12,3CommAcct11,3CommWServP12,3,3,,,6/2/2016,8/9/2016,PDT,0.95,0.926,0.616,0.912,0.992,0.525,0.5,0.592,0.756,0.675,0.688,0.822,0.506,0.801,1.004,0.735,0.938,0.997,0.616,0.546,0.95,1.021,0.777,0.615
87,3CommWMeter12,3CommAcct11,3CommWServP12,3,3,,,6/2/2016,8/10/2016,PDT,0.658,0.768,0.937,0.806,0.627,0.586,0.604,0.992,0.723,0.896,0.552,0.53,0.509,0.69,0.793,0.643,1.034,1.008,0.832,0.973,1.024,0.838,0.834,0.972
87,3CommWMeter12,3CommAcct11,3CommWServP12,3,3,,,6/2/2016,8/11/2016,PDT,0.963,0.547,0.985,0.835,0.907,0.732,0.542,0.885,0.947,0.517,0.822,0.601,0.767,0.814,0.829,0.543,0.669,0.852,0.963,0.765,0.579,0.743,0.804,0.664
87,3CommWMeter12,3CommAcct11,3CommWServP12,3,3,,,6/2/2016,8/12/2016,PDT,0.934,0.703,1.02,0.882,1.028,0.853,0.547,0.744,0.848,0.586,0.679,0.696,0.613,0.654,0.682,0.967,0.609,0.882,0.801,0.536,0.646,0.76,0.752,0.626
87,3CommWMeter12,3CommAcct11,3CommWServP12,3,3,,,6/2/2016,8/13/2016,PDT,0.732,0.593,0.507,0.813,0.567,0.844,0.586,0.982,0.935,0.644,0.719,0.643,0.64,0.91,0.878,0.59,0.719,0.656,0.609,0.583,0.509,0.541,0.826,0.843
87,3CommWMeter12,3CommAcct11,3CommWServP12,3,3,,,6/2/2016,8/14/2016,PDT,0.874,0.71,0.909,0.799,0.656,1.029,0.74,0.876,0.73,0.956,0.921,0.717,0.638,0.716,0.595,0.977,0.897,0.617,0.84,0.735,0.836,0.726,0.851,0.803
87,3CommWMeter12,3CommAcct11,3CommWServP12,3,3,,,6/2/2016,8/15/2016,PDT,0.711,0.793,0.529,0.732,0.8,0.893,0.726,1.001,0.979,1.037,0.831,0.676,0.548,0.657,0.874,0.787,0.881,0.881,0.869,0.709,0.566,0.603,0.748,0.635
87,3CommWMeter12,3CommAcct11,3CommWServP12,3,3,,,6/2/2016,8/16/2016,PDT,0.518,0.799,0.738,0.855,0.89,0.994,0.734,1.025,0.869,0.885,0.869,0.668,0.54,0.875,0.911,0.923,0.961,0.883,0.723,0.709,0.759,0.722,1.024,0.855
87,3CommWMeter12,3CommAcct11,3CommWServP12,3,3,,,6/2/2016,8/17/2016,PDT,0.86,0.94,0.626,0.8,0.564,0.561,1.028,0.951,0.824,1.013,0.989,0.597,0.737,0.894,0.75,0.562,0.676,0.67,0.511,0.996,0.771,0.579,0.624,0.534
87,3CommWMeter12,3CommAcct11,3CommWServP12,3,3,,,6/2/2016,8/18/2016,PDT,0.733,0.923,0.846,0.83,0.728,0.564,0.629,0.921,0.734,0.572,0.654,0.887,0.961,0.933,0.845,0.56,0.872,0.535,0.623,0.959,0.851,0.858,0.557,0.85
87,3CommWMeter12,3CommAcct11,3CommWServP12,3,3,,,6/2/2016,8/19/2016,PDT,0.916,0.775,0.931,0.781,0.938,0.648,0.759,0.632,0.696,0.972,0.581,0.979,0.88,0.578,0.507,0.604,0.725,0.861,0.937,0.803,0.719,0.529,0.846,0.767
87,3CommWMeter12,3CommAcct11,3CommWServP12,3,3,,,6/2/2016,8/20/2016,PDT,0.604,0.601,0.721,0.7,0.541,0.988,0.652,0.903,0.701,0.546,0.817,0.704,0.568,0.993,1.009,0.976,0.82,0.899,1.031,0.506,0.577,0.827,0.87,0.533
87,3CommWMeter12,3CommAcct11,3CommWServP12,3,3,,,6/2/2016,8/21/2016,PDT,0.805,0.701,0.601,0.981,0.555,0.7,0.728,0.993,0.559,0.566,0.964,0.9,0.958,0.529,1.02,0.635,0.839,0.65,0.96,0.633,0.924,0.734,0.718,0.901
87,3CommWMeter12,3CommAcct11,3CommWServP12,3,3,,,6/2/2016,8/22/2016,PDT,1.032,0.884,0.893,0.977,0.823,0.508,0.715,0.819,0.503,0.594,0.594,1.004,0.622,0.948,0.879,0.607,0.641,0.884,0.877,0.757,0.659,0.506,0.503,0.902
87,3CommWMeter12,3CommAcct11,3CommWServP12,3,3,,,6/2/2016,8/23/2016,PDT,0.823,0.807,0.521,0.738,0.943,0.534,0.838,0.896,0.811,1.001,0.722,0.959,0.792,1.016,0.659,0.505,0.588,0.582,0.825,0.782,1.001,0.714,0.527,0.757
87,3CommWMeter12,3CommAcct11,3CommWServP12,3,3,,,6/2/2016,8/24/2016,PDT,0.563,0.814,0.572,0.595,0.981,0.876,0.751,0.751,0.83,0.856,1.032,1.033,1.007,0.517,1.032,0.539,0.784,0.656,0.647,1.019,0.995,0.542,0.521,0.665
87,3CommWMeter12,3CommAcct11,3CommWServP12,3,3,,,6/2/2016,8/25/2016,PDT,0.807,0.795,0.54,0.597,0.823,0.831,0.868,0.67,0.784,0.778,0.905,0.876,1.008,0.836,0.872,0.894,0.962,0.982,0.622,1.023,0.831,0.605,1.001,0.878
87,3CommWMeter12,3CommAcct11,3CommWServP12,3,3,,,6/2/2016,8/26/2016,PDT,0.793,0.76,1.024,0.66,0.856,0.576,0.631,0.86,1.006,0.524,1.031,0.984,0.998,0.532,0.801,0.538,0.734,0.776,0.772,0.765,0.959,1.026,0.921,0.645
87,3CommWMeter12,3CommAcct11,3CommWServP12,3,3,,,6/2/2016,8/27/2016,PDT,0.647,0.784,1.008,0.576,0.577,0.668,0.769,0.642,0.759,0.737,0.837,0.603,0.862,0.914,0.928,0.949,0.858,0.751,0.886,1.01,0.779,0.775,0.602,0.933
87,3CommWMeter12,3CommAcct11,3CommWServP12,3,3,,,6/2/2016,8/28/2016,PDT,0.897,0.565,0.9,0.966,0.669,0.554,0.715,0.536,0.524,0.705,1.01,0.884,0.631,0.622,0.815,0.634,0.93,0.595,0.554,0.504,0.889,0.86,0.568,0.931
87,3CommWMeter12,3CommAcct11,3CommWServP12,3,3,,,6/2/2016,8/29/2016,PDT,0.859,0.816,0.58,0.73,0.956,0.648,0.747,0.825,0.914,0.756,1.031,0.905,0.76,0.609,0.795,0.569,0.701,0.666,1.03,0.58,0.986,0.757,0.521,0.867
87,3CommWMeter12,3CommAcct11,3CommWServP12,3,3,,,6/2/2016,8/30/2016,PDT,0.912,0.965,0.61,0.705,0.994,0.536,0.91,1.03,0.942,0.609,0.858,0.918,0.981,0.638,0.649,0.876,0.807,0.987,0.623,0.78,0.723,0.546,0.843,0.584
87,3CommWMeter12,3CommAcct11,3CommWServP12,3,3,,,6/2/2016,8/31/2016,PDT,0.906,0.684,0.627,0.59,0.536,0.692,0.67,0.844,0.584,0.64,1.012,0.787,0.561,0.595,0.738,0.692,0.677,0.814,0.638,0.897,0.613,0.848,0.87,0.682
87,3CommWMeter12,3CommAcct11,3CommWServP12,3,3,,,6/2/2016,9/1/2016,PDT,0.911,1.026,1.034,0.518,0.603,0.66,0.995,0.889,0.78,0.63,0.754,0.535,0.656,0.595,0.841,0.634,0.575,0.816,0.906,0.856,0.591,0.698,1.037,0.847
87,3CommWMeter12,3CommAcct11,3CommWServP12,3,3,,,6/2/2016,9/2/2016,PDT,0.511,0.997,0.843,0.984,0.921,0.676,0.865,0.877,0.587,0.878,0.63,0.822,0.53,0.97,0.928,0.975,0.576,0.641,0.681,0.828,0.998,0.903,0.725,0.978
87,3CommWMeter12,3CommAcct11,3CommWServP12,3,3,,,6/2/2016,9/3/2016,PDT,0.993,0.974,0.94,0.561,0.634,0.522,0.774,0.758,0.688,0.686,0.766,0.518,0.932,0.56,0.77,0.516,0.745,0.822,0.514,1.014,0.936,0.585,0.655,0.902
87,3CommWMeter12,3CommAcct11,3CommWServP12,3,3,,,6/2/2016,9/4/2016,PDT,0.628,0.602,0.678,0.52,0.935,0.81,0.738,1.033,0.569,0.569,1.034,0.584,0.833,0.794,0.543,0.587,0.854,0.601,0.651,0.507,0.921,1.024,0.937,0.964
87,3CommWMeter12,3CommAcct11,3CommWServP12,3,3,,,6/2/2016,9/5/2016,PDT,0.768,0.982,0.836,0.852,0.966,0.974,0.874,0.698,0.644,0.956,0.773,0.772,0.871,0.954,0.984,0.586,0.562,0.822,0.568,0.732,0.948,0.797,0.901,0.786
87,3CommWMeter12,3CommAcct11,3CommWServP12,3,3,,,6/2/2016,9/6/2016,PDT,0.924,0.681,0.916,0.873,1.015,0.989,0.657,0.803,1.033,0.632,0.734,0.859,1.01,0.574,1.016,0.876,0.748,0.57,0.661,0.671,0.984,0.949,0.905,0.669
87,3CommWMeter12,3CommAcct11,3CommWServP12,3,3,,,6/2/2016,9/7/2016,PDT,0.595,0.624,0.681,0.757,0.821,0.686,0.994,1.023,0.829,0.679,0.87,1.003,0.716,0.699,0.951,0.97,0.96,0.821,0.616,0.836,0.79,0.565,0.789,0.626
87,3CommWMeter12,3CommAcct11,3CommWServP12,3,3,,,6/2/2016,9/8/2016,PDT,0.843,0.617,0.709,0.72,0.629,0.797,0.529,0.697,0.92,0.784,0.636,0.7,0.594,0.945,0.893,0.812,1.012,0.567,0.838,0.995,0.847,0.713,0.606,0.532
87,3CommWMeter12,3CommAcct11,3CommWServP12,3,3,,,6/2/2016,9/9/2016,PDT,0.85,0.893,0.726,0.934,0.975,0.797,0.614,0.786,0.795,0.613,0.822,0.57,0.61,0.622,0.968,0.819,0.585,0.515,0.839,0.563,0.779,0.885,0.782,0.871
87,3CommWMeter12,3CommAcct11,3CommWServP12,3,3,,,6/2/2016,9/10/2016,PDT,0.938,0.798,0.68,0.621,0.628,0.614,0.661,0.818,0.956,0.965,0.84,0.601,1.028,0.621,1.035,0.602,1.011,0.556,0.851,0.663,0.964,0.524,0.973,0.653
87,3CommWMeter12,3CommAcct11,3CommWServP12,3,3,,,6/2/2016,9/11/2016,PDT,0.545,0.733,0.98,0.651,0.631,0.612,0.553,0.977,0.991,0.917,0.884,1.017,0.875,0.647,0.569,0.776,0.731,0.913,0.733,0.81,0.521,0.522,0.65,0.942
87,3CommWMeter12,3CommAcct11,3CommWServP12,3,3,,,6/2/2016,9/12/2016,PDT,0.608,0.839,0.802,1.039,0.542,1.036,0.654,0.777,0.856,0.649,0.75,0.514,0.597,1.009,0.602,0.585,0.611,0.647,1.016,0.507,0.826,0.934,0.863,0.597
87,3CommWMeter12,3CommAcct11,3CommWServP12,3,3,,,6/2/2016,9/13/2016,PDT,0.924,0.681,0.916,0.873,1.015,0.989,0.657,0.803,1.033,0.632,0.734,0.859,1.01,0.574,1.016,0.876,0.748,0.57,0.661,0.671,0.984,0.949,0.905,0.669
87,3CommWMeter12,3CommAcct11,3CommWServP12,3,3,,,6/2/2016,9/14/2016,PDT,0.595,0.624,0.681,0.757,0.821,0.686,0.994,1.023,0.829,0.679,0.87,1.003,0.716,0.699,0.951,0.97,0.96,0.821,0.616,0.836,0.79,0.565,0.789,0.626
87,3CommWMeter12,3CommAcct11,3CommWServP12,3,3,,,6/2/2016,9/15/2016,PDT,0.843,0.617,0.709,0.72,0.629,0.797,0.529,0.697,0.92,0.784,0.636,0.7,0.594,0.945,0.893,0.812,1.012,0.567,0.838,0.995,0.847,0.713,0.606,0.532
87,3CommWMeter12,3CommAcct11,3CommWServP12,3,3,,,6/2/2016,9/16/2016,PDT,0.85,0.893,0.726,0.934,0.975,0.797,0.614,0.786,0.795,0.613,0.822,0.57,0.61,0.622,0.968,0.819,0.585,0.515,0.839,0.563,0.779,0.885,0.782,0.871
87,3CommWMeter12,3CommAcct11,3CommWServP12,3,3,,,6/2/2016,9/17/2016,PDT,0.938,0.798,0.68,0.621,0.628,0.614,0.661,0.818,0.956,0.965,0.84,0.601,1.028,0.621,1.035,0.602,1.011,0.556,0.851,0.663,0.964,0.524,0.973,0.653
87,3CommWMeter12,3CommAcct11,3CommWServP12,3,3,,,6/2/2016,9/18/2016,PDT,0.545,0.733,0.98,0.651,0.631,0.612,0.553,0.977,0.991,0.917,0.884,1.017,0.875,0.647,0.569,0.776,0.731,0.913,0.733,0.81,0.521,0.522,0.65,0.942
