customer_id	premise_id	mail_address_line_1	mail_address_line_2	mail_address_line_3	mail_city	mail_state	mail_zip_code	first_name	last_name	phone_1	phone_2	email	customer_type	account_id	active_date	inactive_date	read_cycle	rate_code	programs	service_point_id	service_house_number	service_street_name	service_unit	service_city	service_state	service_zip_code	meter_type	meter_units	bldg_sq_foot	year_built	bedrooms	assess_value	usage_value	date_to	duration	is_estimate	usage_charge
993774751	1218337000	15924 S Pannes Ave	Compton CA 90221-4523		Compton	CA	90221	Test751	Test751	(323) 2624097	(323) 2624097	993774751@test.com	RESIDENTIAL	1218337093	8/30/2007		1	GR	My Account	870011	870011	S Pannes Ave		Compton	CA	90221-4523	G	T	1300	1943	2	0	90	4/01/2015	30	0	9.01
993774751	1218337000	15924 S Pannes Ave	Compton CA 90221-4523		Compton	CA	90221	Test751	Test751	(323) 2624097	(323) 2624097	993774751@test.com	RESIDENTIAL	1218337093	8/30/2007		1	GR	My Account	870011	870011	S Pannes Ave		Compton	CA	90221-4523	G	T	1300	1943	2	0	65	3/01/2015	30	0	10.01
993774751	1218337000	15924 S Pannes Ave	Compton CA 90221-4523		Compton	CA	90221	Test751	Test751	(323) 2624097	(323) 2624097	993774751@test.com	RESIDENTIAL	1218337093	8/30/2007		1	GR	My Account	870011	870011	S Pannes Ave		Compton	CA	90221-4523	G	T	1300	1943	2	0	65	2/01/2015	30	0	20.01
993774751	1218337000	15924 S Pannes Ave	Compton CA 90221-4523		Compton	CA	90221	Test751	Test751	(323) 2624097	(323) 2624097	993774751@test.com	RESIDENTIAL	1218337093	8/30/2007		1	GR	My Account	870011	870011	S Pannes Ave		Compton	CA	90221-4523	G	T	1300	1943	2	0	78	1/01/2015	30	0	25.01
993774751	1218337000	15924 S Pannes Ave	Compton CA 90221-4523		Compton	CA	90221	Test751	Test751	(323) 2624097	(323) 2624097	993774751@test.com	RESIDENTIAL	1218337093	8/30/2007		1	GR	My Account	870011	870011	S Pannes Ave		Compton	CA	90221-4523	G	T	1300	1943	2	0	65	12/01/2014	30	0	16.01
993774751	1218337000	15924 S Pannes Ave	Compton CA 90221-4523		Compton	CA	90221	Test751	Test751	(323) 2624097	(323) 2624097	993774751@test.com	RESIDENTIAL	1218337093	8/30/2007		1	GR	My Account	870011	870011	S Pannes Ave		Compton	CA	90221-4523	G	T	1300	1943	2	0	65	11/01/2014	30	0	18.21
993774751	1218337000	15924 S Pannes Ave	Compton CA 90221-4523		Compton	CA	90221	Test751	Test751	(323) 2624097	(323) 2624097	993774751@test.com	RESIDENTIAL	1218337093	8/30/2007		1	GR	My Account	870011	870011	S Pannes Ave		Compton	CA	90221-4523	G	T	1300	1943	2	0	65	10/01/2014	30	0	28.21
993774751	1218337000	15924 S Pannes Ave	Compton CA 90221-4523		Compton	CA	90221	Test751	Test751	(323) 2624097	(323) 2624097	993774751@test.com	RESIDENTIAL	1218337093	8/30/2007		1	GR	My Account	870011	870011	S Pannes Ave		Compton	CA	90221-4523	G	T	1300	1943	2	0	65	09/01/2014	30	0	28.21
993774751	1218337000	15924 S Pannes Ave	Compton CA 90221-4523		Compton	CA	90221	Test751	Test751	(323) 2624097	(323) 2624097	993774751@test.com	RESIDENTIAL	1218337093	8/30/2007		1	GR	My Account	870011	870011	S Pannes Ave		Compton	CA	90221-4523	G	T	1300	1943	2	0	40	08/01/2014	30	0	28.21
993774751	1218337000	15924 S Pannes Ave	Compton CA 90221-4523		Compton	CA	90221	Test751	Test751	(323) 2624097	(323) 2624097	993774751@test.com	RESIDENTIAL	1218337093	8/30/2007		1	GR	My Account	870011	870011	S Pannes Ave		Compton	CA	90221-4523	G	T	1300	1943	2	0	65	07/01/2014	30	0	28.21
993774751	1218337000	15924 S Pannes Ave	Compton CA 90221-4523		Compton	CA	90221	Test751	Test751	(323) 2624097	(323) 2624097	993774751@test.com	RESIDENTIAL	1218337093	8/30/2007		1	GR	My Account	870011	870011	S Pannes Ave		Compton	CA	90221-4523	G	T	1300	1943	2	0	65	06/01/2014	30	0	18.31
993774751	1218337000	15924 S Pannes Ave	Compton CA 90221-4523		Compton	CA	90221	Test751	Test751	(323) 2624097	(323) 2624097	993774751@test.com	RESIDENTIAL	1218337093	8/30/2007		1	GR	My Account	870011	870011	S Pannes Ave		Compton	CA	90221-4523	G	T	1300	1943	2	0	65	05/01/2014	30	0	48.21
993774751	1218337000	15924 S Pannes Ave	Compton CA 90221-4523		Compton	CA	90221	Test751	Test751	(323) 2624097	(323) 2624097	993774751@test.com	RESIDENTIAL	1218337093	8/30/2007		1	GR	My Account	870011	870011	S Pannes Ave		Compton	CA	90221-4523	G	T	1300	1943	2	0	40	04/01/2014	30	0	18.21
