customer_id|premise_id|mail_address_line_1|mail_address_line_2|mail_address_line_3|mail_city|mail_state|mail_zip_code|first_name|last_name|phone_1|phone_2|email|customer_type|account_id|active_date|inactive_date|read_cycle|rate_code|service_house_number|service_street_name|service_unit|service_city|service_state|service_zip_code|meter_type|meter_units|bldg_sq_foot|year_built|bedrooms|assess_value|usage_value|bill_enddate|bill_days|is_estimate|usage_charge|ClientId|Programs|service_commodity|account_structure_type|meter_id|billperiod_type|meter_replaces_meterid|service_read_date|service_read_startdate
MEASNEWAPP2|MEASNEWAPP2||||COMPTON|CA|90221-4523|MEASNEWAPP2|MEASNEWAPP2|||MEASNEWAPP2@test.com|RESIDENTIAL|MEASNEWAPP2|||1|GR|15926|S Pannes Ave||Compton|CA|90221-4523|AMR|5|3025|2000|6|100398|550|20151031|31|0|182.00|87|BudgetBill|2|1|189354705|1||20151101|20151001
MEASNEWAPP2|MEASNEWAPP2||||COMPTON|CA|90221-4523|MEASNEWAPP2|MEASNEWAPP2|||MEASNEWAPP2@test.com|RESIDENTIAL|MEASNEWAPP2|||1|GR|15926|S Pannes Ave||Compton|CA|90221-4523|AMR|5|3025|2000|6|100398|550|20150930|30|0|182.00|87|BudgetBill|2|1|189354705|1||20151001|20150901
MEASNEWAPP2|MEASNEWAPP2||||COMPTON|CA|90221-4523|MEASNEWAPP2|MEASNEWAPP2|||MEASNEWAPP2@test.com|RESIDENTIAL|MEASNEWAPP2|||1|GR|15926|S Pannes Ave||Compton|CA|90221-4523|AMR|5|3025|2000|6|100398|550|20150831|31|0|182.00|87|BudgetBill|2|1|189354705|1||20150901|20150801
MEASNEWAPP2|MEASNEWAPP2||||COMPTON|CA|90221-4523|MEASNEWAPP2|MEASNEWAPP2|||MEASNEWAPP2@test.com|RESIDENTIAL|MEASNEWAPP2|||1|GR|15926|S Pannes Ave||Compton|CA|90221-4523|AMR|5|3025|2000|6|100398|550|20150731|31|0|182.00|87|BudgetBill|2|1|189354705|1||20150801|20150701
MEASNEWAPP2|MEASNEWAPP2||||COMPTON|CA|90221-4523|MEASNEWAPP2|MEASNEWAPP2|||MEASNEWAPP2@test.com|RESIDENTIAL|MEASNEWAPP2|||1|GR|15926|S Pannes Ave||Compton|CA|90221-4523|AMR|5|3025|2000|6|100398|550|20150630|30|0|182.00|87|BudgetBill|2|1|189354705|1||20150701|20150601
MEASNEWAPP2|MEASNEWAPP2||||COMPTON|CA|90221-4523|MEASNEWAPP2|MEASNEWAPP2|||MEASNEWAPP2@test.com|RESIDENTIAL|MEASNEWAPP2|||1|GR|15926|S Pannes Ave||Compton|CA|90221-4523|AMR|5|3025|2000|6|100398|550|20150531|31|0|182.00|87|BudgetBill|2|1|189354705|1||20150601|20150501
MEASNEWAPP2|MEASNEWAPP2||||COMPTON|CA|90221-4523|MEASNEWAPP2|MEASNEWAPP2|||MEASNEWAPP2@test.com|RESIDENTIAL|MEASNEWAPP2|||1|GR|15926|S Pannes Ave||Compton|CA|90221-4523|AMR|5|3025|2000|6|100398|550|20150431|30|0|182.00|87|BudgetBill|2|1|189354705|1||20150501|20150401
MEASNEWAPP2|MEASNEWAPP2||||COMPTON|CA|90221-4523|MEASNEWAPP2|MEASNEWAPP2|||MEASNEWAPP2@test.com|RESIDENTIAL|MEASNEWAPP2|||1|GR|15926|S Pannes Ave||Compton|CA|90221-4523|AMR|5|3025|2000|6|100398|550|20150331|31|0|182.00|87|BudgetBill|2|1|189354705|1||20150401|20150301
MEASNEWAPP2|MEASNEWAPP2||||COMPTON|CA|90221-4523|MEASNEWAPP2|MEASNEWAPP2|||MEASNEWAPP2@test.com|RESIDENTIAL|MEASNEWAPP2|||1|GR|15926|S Pannes Ave||Compton|CA|90221-4523|AMR|5|3025|2000|6|100398|550|20150228|28|0|182.00|87|BudgetBill|2|1|189354705|1||20150301|20150201
MEASNEWAPP2|MEASNEWAPP2||||COMPTON|CA|90221-4523|MEASNEWAPP2|MEASNEWAPP2|||MEASNEWAPP2@test.com|RESIDENTIAL|MEASNEWAPP2|||1|GR|15926|S Pannes Ave||Compton|CA|90221-4523|AMR|5|3025|2000|6|100398|550|20150131|31|0|182.00|87|BudgetBill|2|1|189354705|1||20150201|20150101
MEASNEWAPP2|MEASNEWAPP2||||COMPTON|CA|90221-4523|MEASNEWAPP2|MEASNEWAPP2|||MEASNEWAPP2@test.com|RESIDENTIAL|MEASNEWAPP2|||1|GR|15926|S Pannes Ave||Compton|CA|90221-4523|AMR|5|3025|2000|6|100398|550|20141231|31|0|182.00|87|BudgetBill|2|1|189354705|1||20150101|20141201
MEASNEWAPP2|MEASNEWAPP2||||COMPTON|CA|90221-4523|MEASNEWAPP2|MEASNEWAPP2|||MEASNEWAPP2@test.com|RESIDENTIAL|MEASNEWAPP2|||1|GR|15926|S Pannes Ave||Compton|CA|90221-4523|AMR|5|3025|2000|6|100398|550|20141130|30|0|182.00|87|BudgetBill|2|1|189354705|1||20141201|20141101
MEASNEWAPP2|MEASNEWAPP2||||COMPTON|CA|90221-4523|MEASNEWAPP2|MEASNEWAPP2|||MEASNEWAPP2@test.com|RESIDENTIAL|MEASNEWAPP2|||1|GR|15926|S Pannes Ave||Compton|CA|90221-4523|AMR|5|3025|2000|6|100398|550|20141031|31|0|182.00|87|BudgetBill|2|1|189354705|1||20141101|20141001
MEASNEWAPP2|MEASNEWAPP2||||COMPTON|CA|90221-4523|MEASNEWAPP2|MEASNEWAPP2|||MEASNEWAPP2@test.com|RESIDENTIAL|MEASNEWAPP2|||1|GR|15926|S Pannes Ave||Compton|CA|90221-4523|AMR|5|3025|2000|6|100398|550|20140930|30|0|182.00|87|BudgetBill|2|1|189354705|1||20141001|20140901
MEASNEWAPP2|MEASNEWAPP2||||COMPTON|CA|90221-4523|MEASNEWAPP2|MEASNEWAPP2|||MEASNEWAPP2@test.com|RESIDENTIAL|MEASNEWAPP2|||1|GR|15926|S Pannes Ave||Compton|CA|90221-4523|AMR|5|3025|2000|6|100398|550|20140831|31|0|182.00|87|BudgetBill|2|1|189354705|1||20140901|20140801
MEASNEWAPP2|MEASNEWAPP2||||COMPTON|CA|90221-4523|MEASNEWAPP2|MEASNEWAPP2|||MEASNEWAPP2@test.com|RESIDENTIAL|MEASNEWAPP2|||1|GR|15926|S Pannes Ave||Compton|CA|90221-4523|AMR|5|3025|2000|6|100398|550|20140731|31|0|182.00|87|BudgetBill|2|1|189354705|1||20140801|20140701
MEASNEWAPP2|MEASNEWAPP2||||COMPTON|CA|90221-4523|MEASNEWAPP2|MEASNEWAPP2|||MEASNEWAPP2@test.com|RESIDENTIAL|MEASNEWAPP2|||1|GR|15926|S Pannes Ave||Compton|CA|90221-4523|AMR|5|3025|2000|6|100398|550|20140630|31|0|182.00|87|BudgetBill|2|1|189354705|1||20140701|20140601
MEASNEWAPP2|MEASNEWAPP2||||COMPTON|CA|90221-4523|MEASNEWAPP2|MEASNEWAPP2|||MEASNEWAPP2@test.com|RESIDENTIAL|MEASNEWAPP2|||1|GR|15926|S Pannes Ave||Compton|CA|90221-4523|AMR|5|3025|2000|6|100398|550|20140531|31|0|182.00|87|BudgetBill|2|1|189354705|1||20140601|20140501
MEASNEWAPP2|MEASNEWAPP2||||COMPTON|CA|90221-4523|MEASNEWAPP2|MEASNEWAPP2|||MEASNEWAPP2@test.com|RESIDENTIAL|MEASNEWAPP2|||1|GR|15926|S Pannes Ave||Compton|CA|90221-4523|AMR|5|3025|2000|6|100398|550|20140430|30|0|182.00|87|BudgetBill|2|1|189354705|1||20140501|20140401
MEASNEWAPP2|MEASNEWAPP2||||COMPTON|CA|90221-4523|MEASNEWAPP2|MEASNEWAPP2|||MEASNEWAPP2@test.com|RESIDENTIAL|MEASNEWAPP2|||1|GR|15926|S Pannes Ave||Compton|CA|90221-4523|AMR|5|3025|2000|6|100398|550|20140330|31|0|182.00|87|BudgetBill|2|1|189354705|1||20140401|20140301
MEASNEWAPP2|MEASNEWAPP2||||COMPTON|CA|90221-4523|MEASNEWAPP2|MEASNEWAPP2|||MEASNEWAPP2@test.com|RESIDENTIAL|MEASNEWAPP2|||1|GR|15926|S Pannes Ave||Compton|CA|90221-4523|AMR|5|3025|2000|6|100398|550|20140230|28|0|182.00|87|BudgetBill|2|1|189354705|1||20140301|20140201
MEASNEWAPP2|MEASNEWAPP2||||COMPTON|CA|90221-4523|MEASNEWAPP2|MEASNEWAPP2|||MEASNEWAPP2@test.com|RESIDENTIAL|MEASNEWAPP2|||1|GR|15926|S Pannes Ave||Compton|CA|90221-4523|AMR|5|3025|2000|6|100398|550|20140131|31|0|182.00|87|BudgetBill|2|1|189354705|1||20140201|20140101
