customer_id|premise_id|mail_address_line_1|mail_address_line_2|mail_address_line_3|mail_city|mail_state|mail_zip_code|first_name|last_name|phone_1|phone_2|email|customer_type|account_id|active_date|inactive_date|read_cycle|rate_code|service_house_number|service_street_name|service_unit|service_city|service_state|service_zip_code|meter_type|meter_units|bldg_sq_foot|year_built|bedrooms|assess_value|usage_value|bill_enddate|bill_days|is_estimate|usage_charge|ClientId|Programs|service_commodity|account_structure_type|meter_id|billperiod_type|meter_replaces_meterid|service_read_date|service_read_startdate
99999|99999||||LOS ANGELES|CA|90022-2236|99999|99999|||9999@verizon.net|RESIDENTIAL|99999|||1|GR|31|VIA CORONA ST||ORANGE|NJ|07006-224|AMR|3|1900|1724|13|43781|152|20150630|30|0|193.00|87|BudgetBill|1|1|432284386|1||20150701|20150601
99999|99999||||LOS ANGELES|CA|90022-2236|99999|99999|||9999@verizon.net|RESIDENTIAL|99999|||1|GR|31|VIA CORONA ST||ORANGE|NJ|07006-224|AMR|1|1900|1724|13|43781|107|20150630|30|0|98.00|87|BudgetBill|2|1|432284386|1||20150701|20150601
99999|99999||||LOS ANGELES|CA|90022-2236|99999|99999|||9999@verizon.net|RESIDENTIAL|99999|||1|GR|31|VIA CORONA ST||ORANGE|NJ|07006-224|AMR|2|1900|1724|13|43781|2250|20150630|30|0|22.50|87|BudgetBill|3|1|432284386|1||20150701|20150601
99999|99999||||LOS ANGELES|CA|90022-2236|99999|99999|||9999@verizon.net|RESIDENTIAL|99999|||1|GR|31|VIA CORONA ST||ORANGE|NJ|07006-224|AMR|3|1900|1724|13|43781|151|20150531|31|0|192.00|87|BudgetBill|1|1|432284386|1||20150601|20150501
99999|99999||||LOS ANGELES|CA|90022-2236|99999|99999|||9999@verizon.net|RESIDENTIAL|99999|||1|GR|31|VIA CORONA ST||ORANGE|NJ|07006-224|AMR|1|1900|1724|13|43781|106|20150531|31|0|97.00|87|BudgetBill|2|1|432284386|1||20150601|20150501
99999|99999||||LOS ANGELES|CA|90022-2236|99999|99999|||9999@verizon.net|RESIDENTIAL|99999|||1|GR|31|VIA CORONA ST||ORANGE|NJ|07006-224|AMR|2|1900|1724|13|43781|2249|20150531|31|0|21.50|87|BudgetBill|3|1|432284386|1||20150601|20150501
99999|99999||||LOS ANGELES|CA|90022-2236|99999|99999|||9999@verizon.net|RESIDENTIAL|99999|||1|GR|31|VIA CORONA ST||ORANGE|NJ|07006-224|AMR|3|1900|1724|13|43781|150|20150430|30|0|191.00|87|BudgetBill|1|1|432284386|1||20150501|20150401
99999|99999||||LOS ANGELES|CA|90022-2236|99999|99999|||9999@verizon.net|RESIDENTIAL|99999|||1|GR|31|VIA CORONA ST||ORANGE|NJ|07006-224|AMR|1|1900|1724|13|43781|105|20150430|30|0|96.00|87|BudgetBill|2|1|432284386|1||20150501|20150401
99999|99999||||LOS ANGELES|CA|90022-2236|99999|99999|||9999@verizon.net|RESIDENTIAL|99999|||1|GR|31|VIA CORONA ST||ORANGE|NJ|07006-224|AMR|2|1900|1724|13|43781|2248|20150430|30|0|20.50|87|BudgetBill|3|1|432284386|1||20150501|20150401
99999|99999||||LOS ANGELES|CA|90022-2236|99999|99999|||9999@verizon.net|RESIDENTIAL|99999|||1|GR|31|VIA CORONA ST||ORANGE|NJ|07006-224|AMR|3|1900|1724|13|43781|149|20150331|31|0|190.00|87|BudgetBill|1|1|432284386|1||20150401|20150301
99999|99999||||LOS ANGELES|CA|90022-2236|99999|99999|||9999@verizon.net|RESIDENTIAL|99999|||1|GR|31|VIA CORONA ST||ORANGE|NJ|07006-224|AMR|1|1900|1724|13|43781|104|20150331|31|0|95.00|87|BudgetBill|2|1|432284386|1||20150401|20150301
99999|99999||||LOS ANGELES|CA|90022-2236|99999|99999|||9999@verizon.net|RESIDENTIAL|99999|||1|GR|31|VIA CORONA ST||ORANGE|NJ|07006-224|AMR|2|1900|1724|13|43781|2247|20150331|31|0|19.50|87|BudgetBill|3|1|432284386|1||20150401|20150301
99999|99999||||LOS ANGELES|CA|90022-2236|99999|99999|||9999@verizon.net|RESIDENTIAL|99999|||1|GR|31|VIA CORONA ST||ORANGE|NJ|07006-224|AMR|3|1900|1724|13|43781|150|20150228|28|0|191.00|87|BudgetBill|1|1|432284386|1||20150301|20150201
99999|99999||||LOS ANGELES|CA|90022-2236|99999|99999|||9999@verizon.net|RESIDENTIAL|99999|||1|GR|31|VIA CORONA ST||ORANGE|NJ|07006-224|AMR|1|1900|1724|13|43781|105|20150228|28|0|96.00|87|BudgetBill|2|1|432284386|1||20150301|20150201
99999|99999||||LOS ANGELES|CA|90022-2236|99999|99999|||9999@verizon.net|RESIDENTIAL|99999|||1|GR|31|VIA CORONA ST||ORANGE|NJ|07006-224|AMR|2|1900|1724|13|43781|2248|20150228|28|0|20.50|87|BudgetBill|3|1|432284386|1||20150301|20150201
99999|99999||||LOS ANGELES|CA|90022-2236|99999|99999|||9999@verizon.net|RESIDENTIAL|99999|||1|GR|31|VIA CORONA ST||ORANGE|NJ|07006-224|AMR|3|1900|1724|13|43781|149|20150131|31|0|190.00|87|BudgetBill|1|1|432284386|1||20150201|20150101
99999|99999||||LOS ANGELES|CA|90022-2236|99999|99999|||9999@verizon.net|RESIDENTIAL|99999|||1|GR|31|VIA CORONA ST||ORANGE|NJ|07006-224|AMR|1|1900|1724|13|43781|104|20150131|31|0|95.00|87|BudgetBill|2|1|432284386|1||20150201|20150101
99999|99999||||LOS ANGELES|CA|90022-2236|99999|99999|||9999@verizon.net|RESIDENTIAL|99999|||1|GR|31|VIA CORONA ST||ORANGE|NJ|07006-224|AMR|2|1900|1724|13|43781|2247|20150131|31|0|19.50|87|BudgetBill|3|1|432284386|1||20150201|20150101
99999|99999||||LOS ANGELES|CA|90022-2236|99999|99999|||9999@verizon.net|RESIDENTIAL|99999|||1|GR|31|VIA CORONA ST||ORANGE|NJ|07006-224|AMR|3|1900|1724|13|43781|148|20141231|31|0|189.50|87|BudgetBill|1|1|432284386|1||20150101|20141201
99999|99999||||LOS ANGELES|CA|90022-2236|99999|99999|||9999@verizon.net|RESIDENTIAL|99999|||1|GR|31|VIA CORONA ST||ORANGE|NJ|07006-224|AMR|1|1900|1724|13|43781|103|20141231|31|0|94.50|87|BudgetBill|2|1|432284386|1||20150101|20141201
99999|99999||||LOS ANGELES|CA|90022-2236|99999|99999|||9999@verizon.net|RESIDENTIAL|99999|||1|GR|31|VIA CORONA ST||ORANGE|NJ|07006-224|AMR|2|1900|1724|13|43781|2246|20141231|31|0|19.40|87|BudgetBill|3|1|432284386|1||20150101|20141201
99999|99999||||LOS ANGELES|CA|90022-2236|99999|99999|||9999@verizon.net|RESIDENTIAL|99999|||1|GR|31|VIA CORONA ST||ORANGE|NJ|07006-224|AMR|3|1900|1724|13|43781|147|20141131|31|0|188.50|87|BudgetBill|1|1|432284386|1||20141201|20141101
99999|99999||||LOS ANGELES|CA|90022-2236|99999|99999|||9999@verizon.net|RESIDENTIAL|99999|||1|GR|31|VIA CORONA ST||ORANGE|NJ|07006-224|AMR|1|1900|1724|13|43781|102|20141131|31|0|93.50|87|BudgetBill|2|1|432284386|1||20141201|20141101
99999|99999||||LOS ANGELES|CA|90022-2236|99999|99999|||9999@verizon.net|RESIDENTIAL|99999|||1|GR|31|VIA CORONA ST||ORANGE|NJ|07006-224|AMR|2|1900|1724|13|43781|2245|20141131|31|0|18.40|87|BudgetBill|3|1|432284386|1||20141201|20141101
99999|99999||||LOS ANGELES|CA|90022-2236|99999|99999|||9999@verizon.net|RESIDENTIAL|99999|||1|GR|31|VIA CORONA ST||ORANGE|NJ|07006-224|AMR|3|1900|1724|13|43781|146|20141031|31|0|187.50|87|BudgetBill|1|1|432284386|1||20141101|20141001
99999|99999||||LOS ANGELES|CA|90022-2236|99999|99999|||9999@verizon.net|RESIDENTIAL|99999|||1|GR|31|VIA CORONA ST||ORANGE|NJ|07006-224|AMR|1|1900|1724|13|43781|101|20141031|31|0|92.50|87|BudgetBill|2|1|432284386|1||20141101|20141001
99999|99999||||LOS ANGELES|CA|90022-2236|99999|99999|||9999@verizon.net|RESIDENTIAL|99999|||1|GR|31|VIA CORONA ST||ORANGE|NJ|07006-224|AMR|2|1900|1724|13|43781|2244|20141031|31|0|17.40|87|BudgetBill|3|1|432284386|1||20141101|20141001
99999|99999||||LOS ANGELES|CA|90022-2236|99999|99999|||9999@verizon.net|RESIDENTIAL|99999|||1|GR|31|VIA CORONA ST||ORANGE|NJ|07006-224|AMR|3|1900|1724|13|43781|147|20140930|30|0|188.50|87|BudgetBill|1|1|432284386|1||20141001|20140901
99999|99999||||LOS ANGELES|CA|90022-2236|99999|99999|||9999@verizon.net|RESIDENTIAL|99999|||1|GR|31|VIA CORONA ST||ORANGE|NJ|07006-224|AMR|1|1900|1724|13|43781|102|20140930|30|0|93.50|87|BudgetBill|2|1|432284386|1||20141001|20140901
99999|99999||||LOS ANGELES|CA|90022-2236|99999|99999|||9999@verizon.net|RESIDENTIAL|99999|||1|GR|31|VIA CORONA ST||ORANGE|NJ|07006-224|AMR|2|1900|1724|13|43781|2245|20140930|30|0|18.40|87|BudgetBill|3|1|432284386|1||20141001|20140901
99999|99999||||LOS ANGELES|CA|90022-2236|99999|99999|||9999@verizon.net|RESIDENTIAL|99999|||1|GR|31|VIA CORONA ST||ORANGE|NJ|07006-224|AMR|3|1900|1724|13|43781|148|20140831|31|0|189.50|87|BudgetBill|1|1|432284386|1||20140901|20140801
99999|99999||||LOS ANGELES|CA|90022-2236|99999|99999|||9999@verizon.net|RESIDENTIAL|99999|||1|GR|31|VIA CORONA ST||ORANGE|NJ|07006-224|AMR|1|1900|1724|13|43781|103|20140831|31|0|94.50|87|BudgetBill|2|1|432284386|1||20140901|20140801
99999|99999||||LOS ANGELES|CA|90022-2236|99999|99999|||9999@verizon.net|RESIDENTIAL|99999|||1|GR|31|VIA CORONA ST||ORANGE|NJ|07006-224|AMR|2|1900|1724|13|43781|2246|20140831|31|0|19.40|87|BudgetBill|3|1|432284386|1||20140901|20140801
99999|99999||||LOS ANGELES|CA|90022-2236|99999|99999|||9999@verizon.net|RESIDENTIAL|99999|||1|GR|31|VIA CORONA ST||ORANGE|NJ|07006-224|AMR|3|1900|1724|13|43781|149|20140731|31|0|190.50|87|BudgetBill|1|1|432284386|1||20140801|20140701
99999|99999||||LOS ANGELES|CA|90022-2236|99999|99999|||9999@verizon.net|RESIDENTIAL|99999|||1|GR|31|VIA CORONA ST||ORANGE|NJ|07006-224|AMR|1|1900|1724|13|43781|104|20140731|31|0|95.50|87|BudgetBill|2|1|432284386|1||20140801|20140701
99999|99999||||LOS ANGELES|CA|90022-2236|99999|99999|||9999@verizon.net|RESIDENTIAL|99999|||1|GR|31|VIA CORONA ST||ORANGE|NJ|07006-224|AMR|2|1900|1724|13|43781|2247|20140731|31|0|20.40|87|BudgetBill|3|1|432284386|1||20140801|20140701
99999|99999||||LOS ANGELES|CA|90022-2236|99999|99999|||9999@verizon.net|RESIDENTIAL|99999|||1|GR|31|VIA CORONA ST||ORANGE|NJ|07006-224|AMR|3|1900|1724|13|43781|150|20140630|30|0|191.50|87|BudgetBill|1|1|432284386|1||20140701|20140601
99999|99999||||LOS ANGELES|CA|90022-2236|99999|99999|||9999@verizon.net|RESIDENTIAL|99999|||1|GR|31|VIA CORONA ST||ORANGE|NJ|07006-224|AMR|1|1900|1724|13|43781|105|20140630|30|0|96.50|87|BudgetBill|2|1|432284386|1||20140701|20140601
99999|99999||||LOS ANGELES|CA|90022-2236|99999|99999|||9999@verizon.net|RESIDENTIAL|99999|||1|GR|31|VIA CORONA ST||ORANGE|NJ|07006-224|AMR|2|1900|1724|13|43781|2248|20140630|30|0|21.40|87|BudgetBill|3|1|432284386|1||20140701|20140601
