﻿{
    "name": "gbEndpointTrackingInsights",
    "properties": {
        "structure": [
            {
                "name": "EndpointTrackingID",
                "type": "Int32"
            },
            {
                "name": "ClientID",
                "type": "Int32"
            },
            {
                "name": "Verb",
                "type": "String"
            },
            {
                "name": "ResourceName",
                "type": "String"
            },
            {
                "name": "UserAgent",
                "type": "String"
            },
            {
                "name": "Query",
                "type": "String"
            },
            {
                "name": "LogDate",
                "type": "Datetime"
            },
            {
                "name": "NewDate",
                "type": "Datetime"
            },
            {
                "name": "ThirdPartyClientId",
                "type": "String"
            }
        ],
        "published": false,
        "type": "AzureSqlTable",
        "linkedServiceName": "AzureSqlLnkSvcInsights",
        "typeProperties": {
            "tableName": "[dbo].[EndpointTracking]"
        },
        "availability": {
            "frequency": "Day",
            "interval": 1,
            "offset": "05:00:00"
        },
        "external": true,
        "policy": {}
    }
}