﻿{
    "name": "gbrptRetailCustomersInsightsDW_174",
    "properties": {
        "structure": [
            {
                "name": "id",
                "type": "Int32"
            },
            {
                "name": "data_custodian_client_id",
                "type": "Int32"
            },
            {
                "name": "data_custodian_customer_id",
                "type": "String"
            },
            {
                "name": "data_custodian_account_id",
                "type": "String"
            },
            {
                "name": "data_custodian_premise_id",
                "type": "String"
            },
            {
                "name": "first_name",
                "type": "String"
            },
            {
                "name": "last_name",
                "type": "String"
            },
            {
                "name": "enabled",
                "type": "Int32"
            }
        ],
        "published": false,
        "type": "AzureSqlTable",
        "linkedServiceName": "AzureSqlLnkSvcInsightsDW_174",
        "typeProperties": {
            "tableName": "[rpt].[holdinggbRetailCustomers]"
        },
        "availability": {
            "frequency": "Day",
            "interval": 1,
            "offset": "05:00:00"
        }
    }
}