﻿{
    "name": "step1_CopyFromInsights",
    "properties": {
        "description": "Copies data from Insights to each DWShard",
        "activities": [
            {
                "type": "Copy",
                "typeProperties": {
                    "source": {
                        "type": "SqlSource",
                        "sqlReaderQuery": "select id,data_custodian_client_id,data_custodian_customer_id,data_custodian_account_id,data_custodian_premise_id,first_name,last_name,enabled from greenbutton.retail_customers"
                    },
                    "sink": {
                        "type": "SqlSink",
                        "writeBatchSize": 0,
                        "writeBatchTimeout": "00:00:00"
                    }
                },
                "inputs": [
                    {
                        "name": "gbRetailCustomersInsights"
                    }
                ],
                "outputs": [
                    {
                        "name": "gbrptRetailCustomersInsightsDW_Test"
                    }
                ],
                "policy": {
                    "timeout": "04:00:00",
                    "concurrency": 1,
                    "retry": 1
                },
                "scheduler": {
                    "frequency": "Day",
                    "interval": 1,
                    "offset": "05:00:00"
                },
                "name": "CopyRetailCustomersFromInsights"
            },
            {
                "type": "Copy",
                "typeProperties": {
                    "source": {
                        "type": "SqlSource",
                        "sqlReaderQuery": "$$Text.Format('select id,uuid,self_link_href,self_link_rel,up_link_href,up_link_rel,application_information_id,authorization_id,retail_customer_id,published,updated from greenbutton.subscription where updated >= \\'{0:yyyy-MM-dd HH:mm}\\' AND updated < \\'{1:yyyy-MM-dd HH:mm}\\'', SliceStart, SliceEnd)"
                    },
                    "sink": {
                        "type": "SqlSink",
                        "writeBatchSize": 0,
                        "writeBatchTimeout": "00:00:00"
                    }
                },
                "inputs": [
                    {
                        "name": "gbSubscriptionInsights"
                    }
                ],
                "outputs": [
                    {
                        "name": "gbrptSubscriptionInsightsDW_Test"
                    }
                ],
                "policy": {
                    "timeout": "04:00:00",
                    "concurrency": 1,
                    "retry": 1
                },
                "scheduler": {
                    "frequency": "Day",
                    "interval": 1,
                    "offset": "05:00:00"
                },
                "name": "CopySubscriptionFromInsights"
            },
            {
                "type": "Copy",
                "typeProperties": {
                    "source": {
                        "type": "SqlSource",
                        "sqlReaderQuery": "$$Text.Format('select id,description,published,updated,uuid,access_token,ap_duration,ap_start,error,error_description,error_uri,expiresin,grant_type,pp_duration,pp_start,responseType,status,third_party,application_information_id,retail_customer_id,subscription_id,authCodeExpiresIn,refreshTokenExpiresIn,end_date from greenbutton.authorizations where (updated >= \\'{0:yyyy-MM-dd HH:mm}\\' AND updated < \\'{1:yyyy-MM-dd HH:mm}\\') or (end_date >= \\'{0:yyyy-MM-dd HH:mm}\\' AND end_date < \\'{1:yyyy-MM-dd HH:mm}\\') or (DATEADD(Second,refreshTokenExpiresIn,\\'01-Jan-1970\\') >= \\'{0:yyyy-MM-dd HH:mm}\\' AND DATEADD(Second,refreshTokenExpiresIn,\\'01-Jan-1970\\') < \\'{1:yyyy-MM-dd HH:mm}\\')', SliceStart, SliceEnd,SliceStart, SliceEnd,SliceStart,SliceEnd)"
                    },
                    "sink": {
                        "type": "SqlSink",
                        "writeBatchSize": 0,
                        "writeBatchTimeout": "00:00:00"
                    }
                },
                "inputs": [
                    {
                        "name": "gbAuthInsights"
                    }
                ],
                "outputs": [
                    {
                        "name": "gbrptAuthInsightsDW_Test"
                    }
                ],
                "policy": {
                    "timeout": "04:00:00",
                    "concurrency": 1,
                    "retry": 1
                },
                "scheduler": {
                    "frequency": "Day",
                    "interval": 1,
                    "offset": "05:00:00"
                },
                "name": "CopyAuthFromInsights"
            },
            {
                "type": "Copy",
                "typeProperties": {
                    "source": {
                        "type": "SqlSource",
                        "sqlReaderQuery": "$$Text.Format('select application_information_id,uuid,dataCustodianId,thirdPartyApplicationDescription,thirdPartyApplicationStatus,thirdPartyUserPortalScreenURI,thirdPartyApplicationType,thirdPartyApplicationUse,thirdPartyPhone,thirdPartyNotifyUri,thirdPartyScopeSelectionScreenURI,logo_uri,client_name,client_uri,redirect_uri,client_id,tos_uri,policy_uri,software_id,software_version,client_id_issued_at,client_secret_expires_at,contacts,enabled,environment_type,published,updated from greenbutton.application_information where updated >= \\'{0:yyyy-MM-dd HH:mm}\\' AND updated < \\'{1:yyyy-MM-dd HH:mm}\\'', SliceStart, SliceEnd)"
                    },
                    "sink": {
                        "type": "SqlSink",
                        "writeBatchSize": 0,
                        "writeBatchTimeout": "00:00:00"
                    }
                },
                "inputs": [
                    {
                        "name": "gbAppInfoInsights"
                    }
                ],
                "outputs": [
                    {
                        "name": "gbrptAppInfoInsightsDW_Test"
                    }
                ],
                "policy": {
                    "timeout": "04:00:00",
                    "concurrency": 1,
                    "retry": 1
                },
                "scheduler": {
                    "frequency": "Day",
                    "interval": 1,
                    "offset": "05:00:00"
                },
                "name": "CopyAppInfoFromInsights"
            },
            {
                "type": "Copy",
                "typeProperties": {
                    "source": {
                        "type": "SqlSource",
                        "sqlReaderQuery": "$$Text.Format('select distinct EndpointTrackingID,ClientID,Verb,ResourceName,UserAgent,Query,LogDate,NewDate,ThirdPartyClientId from dbo.endpointtracking t1 where exists (select distinct client_id from greenbutton.application_information t2 where t1.thirdpartyclientid = t2.client_id) and logdate >= \\'{0:yyyy-MM-dd HH:mm}\\' AND logdate < \\'{1:yyyy-MM-dd HH:mm}\\'', SliceStart, SliceEnd)"
                    },
                    "sink": {
                        "type": "SqlSink",
                        "writeBatchSize": 0,
                        "writeBatchTimeout": "00:00:00"
                    }
                },
                "inputs": [
                    {
                        "name": "gbEndpointTrackingInsights"
                    }
                ],
                "outputs": [
                    {
                        "name": "gbrptEndpointTrackingInsightsDW_Test"
                    }
                ],
                "policy": {
                    "timeout": "04:00:00",
                    "concurrency": 1,
                    "retry": 1
                },
                "scheduler": {
                    "frequency": "Day",
                    "interval": 1,
                    "offset": "05:00:00"
                },
                "name": "CopyEndPointTrackingFromInsights"
            }
        ],
        "start": "2017-06-27T00:00:00Z",
        "end": "2017-06-27T00:00:00Z",
        "isPaused": false,
        "pipelineMode": "Scheduled"
    }
}