<?xml version="1.0" encoding="UTF-8"?>
<svg width="210px" height="81px" viewBox="0 0 210 81" version="1.1" xmlns="http://www.w3.org/2000/svg" xmlns:xlink="http://www.w3.org/1999/xlink">
    <!-- Generator: Sketch 42 (36781) - http://www.bohemiancoding.com/sketch -->
    <title>Group</title>
    <desc>Created with Sketch.</desc>
    <defs></defs>
    <g id="Page-1" stroke="none" stroke-width="1" fill="none" fill-rule="evenodd">
        <g id="Artboard" transform="translate(-259.000000, -403.000000)">
            <g id="Group" transform="translate(259.000000, 403.000000)">
                <g id="Ameren">
                    <path d="M27.3023581,37.7912775 L0.548866746,37.7912775 C0.296042617,35.5256381 0.296042617,33.6372332 0.422454681,31.7477123 L27.3023581,37.2879261 L27.3023581,37.7912775" id="Fill-2" fill="#42913A"></path>
                    <path d="M45.34796,34.7700529 L68.0629774,26.2086147 C68.4422136,27.8447858 68.6950377,29.6081898 68.8203311,31.6227115 L45.4743721,35.1472875 C45.4743721,35.0211706 45.4743721,34.8961698 45.34796,34.7700529" id="Fill-3" fill="#DC3E2A"></path>
                    <path d="M27.6804756,34.6439361 L0.800572184,28.2231364 C1.30510175,25.9563809 2.18886751,22.6829227 3.19792665,20.668401 L27.9332997,34.1405847 C27.8068877,34.2655854 27.6804756,34.3917023 27.6804756,34.6439361" id="Fill-4" fill="#42913A"></path>
                    <path d="M42.5713693,30.363775 L57.5897938,8.95962133 C59.2297946,10.4707916 61.3754436,12.4853133 62.5109148,14.3737182 L42.9506055,30.7410095 C42.8241935,30.6148926 42.6977814,30.4887758 42.5713693,30.363775" id="Fill-5" fill="#42913A"></path>
                    <path d="M29.5733005,31.3704778 L5.46998774,16.262123 C6.731871,13.9964836 10.5175208,9.84132335 12.4103457,8.45626992 L29.8261246,30.9921272 C29.6997126,31.1182441 29.5733005,31.2443609 29.5733005,31.3704778" id="Fill-6" fill="#42913A"></path>
                    <path d="M38.1547779,28.3492533 L38.9121316,0.650416832 C41.9404277,1.02765137 46.2317258,2.16158713 48.5026681,3.29440682 L38.6593075,28.4742541 C38.5340141,28.3492533 38.407602,28.3492533 38.1547779,28.3492533" id="Fill-7" fill="#42913A"></path>
                    <path d="M33.2336569,28.8526047 L17.8371149,4.80557712 C21.6227647,2.53882167 26.1668869,1.15376824 30.0778301,0.650416832 L33.7381865,28.6003709 C33.6117744,28.6003709 33.3589503,28.7264878 33.2336569,28.8526047" id="Fill-8" fill="#42913A"></path>
                    <path d="M2.81980914,46.3527157 C2.81980914,46.3527157 2.31527958,45.0937791 1.80963132,43.5826088 C1.43151382,42.1986715 1.05339631,40.5613843 1.05339631,40.5613843 C9.76016709,39.4285646 23.3902962,39.3024478 32.7291274,39.3024478 C32.7291274,39.3024478 14.6824068,41.0647357 2.81980914,46.3527157" id="Fill-9" fill="#42913A"></path>
                    <path d="M22.128413,65.2378802 C22.128413,65.2378802 19.982764,64.6084119 17.3325854,63.0972416 C14.9352309,61.7133042 12.7895819,59.8237833 12.7895819,59.8237833 C18.0899391,53.151866 35.1264818,40.1841498 51.1528467,39.3024478 C51.1528467,39.3024478 34.6219522,45.0937791 22.128413,65.2378802" id="Fill-10" fill="#42913A"></path>
                    <path d="M43.5815472,66.3706998 C43.5815472,66.3706998 39.6694853,67.5046356 34.6219522,67.5046356 C29.8261246,67.3785187 27.5540635,66.7490505 27.5540635,66.7490505 C28.5642414,63.3494753 40.0476028,43.457608 53.8030253,39.3024478 C53.8030253,39.3024478 43.202311,50.507876 43.5815472,66.3706998" id="Fill-11" fill="#42913A"></path>
                    <path d="M9.12922546,56.4253242 C9.12922546,56.4253242 8.12016633,55.4175054 6.3537535,53.0257491 C4.71263404,50.6339929 4.08169241,49.1228226 4.08169241,49.1228226 C8.37187177,46.3527157 23.6420017,39.3024478 45.2215479,39.3024478 C45.2215479,39.3024478 26.4185923,42.7020229 9.12922546,56.4253242" id="Fill-12" fill="#42913A"></path>
                    <path d="M47.2407849,79.8428835 L66.4229767,39.3024478 L77.2765152,39.3024478 L75.1308661,79.8428835 L66.5493887,79.8428835 L67.3067424,71.6597959 L59.3562066,71.6597959 L55.9486744,79.8428835 L47.2407849,79.8428835 Z M69.5776848,47.9900029 L61.8799732,65.8673484 L67.811272,65.8673484 L69.5776848,47.9900029 L69.5776848,47.9900029 Z" id="Fill-13" fill="#1A1918"></path>
                    <path d="M77.1501031,79.8428835 L84.9742268,48.8705888 L93.4292921,48.8705888 L92.7983505,51.1373443 C93.5557042,50.6339929 96.4575882,48.2411205 100.36965,48.2411205 C104.156419,48.2411205 104.912654,50.7589937 105.165478,51.5145788 C106.049243,51.0112274 109.961305,48.2411205 113.367719,48.2411205 C119.173724,48.2411205 118.037134,52.7735154 117.659017,54.2846857 L111.223189,79.8428835 L102.768123,79.8428835 L108.825834,55.4175054 C109.07754,54.7880371 108.825834,53.9074511 107.184715,53.9074511 C105.922831,53.9074511 105.039066,54.7880371 104.534536,55.0402708 L98.3504131,79.8428835 L89.8953478,79.8428835 L96.0794707,55.4175054 C96.0794707,55.1663877 96.4575882,53.9074511 94.3130579,53.9074511 C93.5557042,53.9074511 92.2938209,54.5369194 91.9145848,54.9141539 L85.6051684,79.8428835 L77.1501031,79.8428835" id="Fill-14" fill="#1A1918"></path>
                    <path d="M125.105023,80.4723518 C117.154487,80.4723518 114.882426,77.4511273 116.397134,71.2814453 L119.929959,57.3059102 C121.066549,52.5223977 125.483141,48.2411205 133.055559,48.2411205 C142.519683,48.2411205 142.266859,54.7880371 141.888742,56.2992074 L139.491387,65.7423476 L125.861258,65.7423476 L124.221257,72.414265 C123.84314,73.9254353 124.221257,75.1843718 125.98767,75.1843718 C127.755202,75.1843718 129.26879,74.0515521 129.648027,72.414265 L130.40538,69.3930404 L138.48121,69.3930404 L137.724975,72.414265 C136.714797,75.5627224 133.307264,80.4723518 125.105023,80.4723518 Z M128.386143,55.9219728 L127.12426,60.5793685 L132.549911,60.5793685 L133.686501,55.9219728 C133.938206,55.2925046 134.317442,53.6552174 131.792557,53.6552174 C129.899732,53.6552174 128.637849,54.6619202 128.386143,55.9219728 L128.386143,55.9219728 Z" id="Fill-15" fill="#1A1918"></path>
                    <path d="M138.985739,79.8428835 L146.810981,48.8705888 L154.760399,48.8705888 L154.003045,51.8929294 C157.410577,49.5000571 159.80905,48.2411205 164.603759,48.2411205 L163.216583,54.1585688 C162.079993,54.0324519 160.944522,53.9074511 159.935462,53.9074511 C153.624927,53.9074511 152.615868,57.8103777 152.11022,59.8237833 L147.062687,79.8428835 L138.985739,79.8428835" id="Fill-16" fill="#1A1918"></path>
                    <path d="M167.884879,80.4723518 C159.935462,80.4723518 157.663401,77.4511273 159.178109,71.2814453 L162.710934,57.3059102 C163.846406,52.5223977 168.264116,48.2411205 175.710122,48.2411205 C185.300658,48.2411205 185.047834,54.7880371 184.669717,56.2992074 L182.272362,65.7423476 L168.642233,65.7423476 L167.002232,72.414265 C166.622996,73.9254353 167.002232,75.1843718 168.768645,75.1843718 C170.535058,75.1843718 172.049765,74.0515521 172.429002,72.414265 L173.185237,69.3930404 L181.262184,69.3930404 L180.378419,72.414265 C179.36936,75.5627224 176.088239,80.4723518 167.884879,80.4723518 Z M171.040706,55.9219728 L169.904116,60.5793685 L175.330886,60.5793685 L176.466357,55.9219728 C176.719181,55.2925046 177.097299,53.6552174 174.573532,53.6552174 C172.680707,53.6552174 171.418824,54.6619202 171.040706,55.9219728 L171.040706,55.9219728 Z" id="Fill-17" fill="#1A1918"></path>
                    <path d="M181.893126,79.8428835 L189.71725,48.8705888 L198.047022,48.8705888 L197.414961,51.2634611 C198.425139,50.507876 201.075318,48.2411205 204.734556,48.2411205 C210.918679,48.2411205 209.783207,53.4029836 209.025854,56.4253242 L203.094555,79.8428835 L194.63949,79.8428835 L200.191552,57.9353785 C200.822494,55.2925046 201.075318,54.0324519 199.307786,54.0324519 C198.298727,54.0324519 197.289668,54.6619202 196.532314,55.0402708 L190.348191,79.8428835 L181.893126,79.8428835" id="Fill-18" fill="#1A1918"></path>
                </g>
            </g>
        </g>
    </g>
</svg>