﻿{
    "name": "AzureBlobEmailExportGas",
    "properties": {
        "published": false,
        "type": "AzureBlob",
        "linkedServiceName": "AzureBlobStorage",
        "typeProperties": {
            "fileName": "her_224_emailg.csv",
            "folderPath": "uatcloudfiledrop/224/Export/BI/HomeEnergyReport/{Year}/{Month}/{Day}",
            "format": {
                "type": "TextFormat",
                "columnDelimiter": ",",
                "nullValue": "NULL"
            },
            "partitionedBy": [
                {
                    "name": "Year",
                    "value": {
                        "type": "DateTime",
                        "date": "SliceStart",
                        "format": "yyyy"
                    }
                },
                {
                    "name": "Month",
                    "value": {
                        "type": "DateTime",
                        "date": "SliceStart",
                        "format": "MM"
                    }
                },
                {
                    "name": "Day",
                    "value": {
                        "type": "DateTime",
                        "date": "SliceStart",
                        "format": "dd"
                    }
                }
            ]
        },
        "availability": {
            "frequency": "Day",
            "interval": 1,
            "offset": "13:00:00",
            "style": "EndOfInterval"
        }
    }
}