﻿{
    "name": "OnPremisePrintExport",
    "properties": {
        "published": false,
        "type": "FileShare",
        "linkedServiceName": "OnPremiseFileServer",
        "typeProperties": {
            "fileName": "{Year}-{Month}-{Day}_her_224_printe.csv",
            "folderPath": "PaaS_CloudFileDrop\\224\\Export\\BI\\HomeEnergyReport",
            "partitionedBy": [
                {
                    "name": "Year",
                    "value": {
                        "type": "DateTime",
                        "date": "SliceStart",
                        "format": "yyyy"
                    }
                },
                {
                    "name": "Month",
                    "value": {
                        "type": "DateTime",
                        "date": "SliceStart",
                        "format": "MM"
                    }
                },
                {
                    "name": "Day",
                    "value": {
                        "type": "DateTime",
                        "date": "SliceStart",
                        "format": "dd"
                    }
                }
            ]
        },
        "availability": {
            "frequency": "Day",
            "interval": 1,
            "offset": "16:00:00",
            "style": "EndOfInterval"
        }
    }
}