﻿{
    "name": "UIL HER Export_1_Gas",
    "properties": {
        "activities": [
            {
                "type": "SqlServerStoredProcedure",
                "typeProperties": {
                    "storedProcedureName": "[dbo].[CreateBillBenchmarks]",
                    "storedProcedureParameters": {
                        "clientID": "224"
                    }
                },
                "outputs": [
                    {
                        "name": "SqlBillBenchmarkResultsGas"
                    }
                ],
                "policy": {
                    "timeout": "02:00:00",
                    "concurrency": 1,
                    "executionPriorityOrder": "NewestFirst"
                },
                "scheduler": {
                    "frequency": "Day",
                    "interval": 1,
                    "offset": "13:00:00",
                    "style": "EndOfInterval"
                },
                "name": "Create Benchmark Results"
            },
            {
                "type": "SqlServerStoredProcedure",
                "typeProperties": {
                    "storedProcedureName": "[Export].[usp_HE_Report_RunReport]",
                    "storedProcedureParameters": {
                        "reportAlias": "EMAILG",
                        "clientID": "224",
                        "sliceStart": "$$Text.Format('{0}', SliceStart)",
                        "commodity": "GAS"
                    }
                },
                "inputs": [
                    {
                        "name": "SqlBillBenchmarkResultsGas"
                    }
                ],
                "outputs": [
                    {
                        "name": "SqlEmailExportGas"
                    }
                ],
                "policy": {
                    "timeout": "02:00:00",
                    "concurrency": 1,
                    "executionPriorityOrder": "NewestFirst"
                },
                "scheduler": {
                    "frequency": "Day",
                    "interval": 1,
                    "offset": "13:00:00",
                    "style": "EndOfInterval"
                },
                "name": "Email Export"
            },
            {
                "type": "Copy",
                "typeProperties": {
                    "source": {
                        "type": "SqlSource",
                        "sqlReaderQuery": "exec [Export].[usp_HE_Report_FetchStaging];"
                    },
                    "sink": {
                        "type": "BlobSink",
                        "writeBatchSize": 0,
                        "writeBatchTimeout": "00:00:00"
                    }
                },
                "inputs": [
                    {
                        "name": "SqlEmailExportGas"
                    }
                ],
                "outputs": [
                    {
                        "name": "AzureBlobEmailExportGas"
                    },
                    {
                        "name": "SqlEmailLogGas"
                    }
                ],
                "policy": {
                    "concurrency": 1
                },
                "scheduler": {
                    "frequency": "Day",
                    "interval": 1,
                    "offset": "13:00:00",
                    "style": "EndOfInterval"
                },
                "name": "CopySqlEmailExportToBlob",
                "description": "Copy EmailExport from sql to blob"
            },
            {
                "type": "Copy",
                "typeProperties": {
                    "source": {
                        "type": "SqlSource",
                        "sqlReaderQuery": "exec [Export].[usp_HE_Report_FetchLatestProgress];"
                    },
                    "sink": {
                        "type": "BlobSink",
                        "writeBatchSize": 0,
                        "writeBatchTimeout": "00:00:00"
                    }
                },
                "inputs": [
                    {
                        "name": "SqlEmailLogGas"
                    }
                ],
                "outputs": [
                    {
                        "name": "AzureBlobEmailLogGas"
                    }
                ],
                "policy": {
                    "concurrency": 1
                },
                "scheduler": {
                    "frequency": "Day",
                    "interval": 1,
                    "offset": "13:00:00",
                    "style": "EndOfInterval"
                },
                "name": "CopySqlEmailLogToBlob",
                "description": "Copy EmailLog from sql to blob"
            },
            {
                "type": "Copy",
                "typeProperties": {
                    "source": {
                        "type": "BlobSource"
                    },
                    "sink": {
                        "type": "FileSystemSink",
                        "writeBatchSize": 0,
                        "writeBatchTimeout": "00:00:00"
                    }
                },
                "inputs": [
                    {
                        "name": "AzureBlobEmailExportGas"
                    }
                ],
                "outputs": [
                    {
                        "name": "OnPremiseEmailExportGas"
                    }
                ],
                "policy": {
                    "concurrency": 1,
                    "longRetry": 3,
                    "longRetryInterval": "00:03:00"
                },
                "scheduler": {
                    "frequency": "Day",
                    "interval": 1,
                    "offset": "13:00:00",
                    "style": "EndOfInterval"
                },
                "name": "CopyAzureBlobEmailExportToOnPremise",
                "description": "Copy EmailExport from blob to on-premise"
            },
            {
                "type": "SqlServerStoredProcedure",
                "typeProperties": {
                    "storedProcedureName": "[Export].[usp_HE_Report_RunReport]",
                    "storedProcedureParameters": {
                        "reportAlias": "PRINTG",
                        "clientID": "224",
                        "sliceStart": "$$Text.Format('{0}', SliceStart)",
                        "commodity": "GAS"
                    }
                },
                "inputs": [
                    {
                        "name": "AzureBlobEmailLogGas"
                    }
                ],
                "outputs": [
                    {
                        "name": "SqlPrintExportGas"
                    }
                ],
                "policy": {
                    "timeout": "02:00:00",
                    "concurrency": 1,
                    "executionPriorityOrder": "NewestFirst"
                },
                "scheduler": {
                    "frequency": "Day",
                    "interval": 1,
                    "offset": "13:00:00",
                    "style": "EndOfInterval"
                },
                "name": "Print Export (T-1-3, T-1-4)"
            },
            {
                "type": "Copy",
                "typeProperties": {
                    "source": {
                        "type": "SqlSource",
                        "sqlReaderQuery": "exec [Export].[usp_HE_Report_FetchStaging];"
                    },
                    "sink": {
                        "type": "BlobSink",
                        "writeBatchSize": 0,
                        "writeBatchTimeout": "00:00:00"
                    }
                },
                "inputs": [
                    {
                        "name": "SqlPrintExportGas"
                    }
                ],
                "outputs": [
                    {
                        "name": "AzureBlobPrintExportGas"
                    },
                    {
                        "name": "SqlPrintLogGas"
                    }
                ],
                "policy": {
                    "concurrency": 1
                },
                "scheduler": {
                    "frequency": "Day",
                    "interval": 1,
                    "offset": "13:00:00",
                    "style": "EndOfInterval"
                },
                "name": "CopySqlPrintExportToBlob",
                "description": "Copy PrintExport from sql to blob"
            },
            {
                "type": "Copy",
                "typeProperties": {
                    "source": {
                        "type": "SqlSource",
                        "sqlReaderQuery": "exec [Export].[usp_HE_Report_FetchLatestProgress];"
                    },
                    "sink": {
                        "type": "BlobSink",
                        "writeBatchSize": 0,
                        "writeBatchTimeout": "00:00:00"
                    }
                },
                "inputs": [
                    {
                        "name": "SqlPrintLogGas"
                    }
                ],
                "outputs": [
                    {
                        "name": "AzureBlobPrintLogGas"
                    }
                ],
                "policy": {
                    "concurrency": 1
                },
                "scheduler": {
                    "frequency": "Day",
                    "interval": 1,
                    "offset": "13:00:00",
                    "style": "EndOfInterval"
                },
                "name": "CopySqlPrintLogToBlob",
                "description": "Copy PrintLog from sql to blob"
            },
            {
                "type": "Copy",
                "typeProperties": {
                    "source": {
                        "type": "BlobSource"
                    },
                    "sink": {
                        "type": "FileSystemSink",
                        "writeBatchSize": 0,
                        "writeBatchTimeout": "00:00:00"
                    }
                },
                "inputs": [
                    {
                        "name": "AzureBlobPrintExportGas"
                    }
                ],
                "outputs": [
                    {
                        "name": "OnPremisePrintExportGas"
                    }
                ],
                "policy": {
                    "concurrency": 1,
                    "longRetry": 3,
                    "longRetryInterval": "00:03:00"
                },
                "scheduler": {
                    "frequency": "Day",
                    "interval": 1,
                    "offset": "13:00:00",
                    "style": "EndOfInterval"
                },
                "name": "CopyAzureBlobPintExportToOnPremise",
                "description": "Copy PrintExport from blob to on-premise"
            }
        ],
        "start": "2016-10-09T13:00:00Z",
        "end": "2016-10-11T13:00:00Z",
        "isPaused": false,
        "pipelineMode": "Scheduled"
    }
}