﻿{
  "$schema": "http://schemastore.org/schemas/json/webjob-publish-settings.json",
  "webJobName": "DataCollectionWebJob",
  "startTime": null,
  "endTime": null,
  "jobRecurrenceFrequency": null,
  "interval": null,
  "runMode": "OnDemand"
}