﻿{
    "name": "ArchiveBillingData_80",
    "properties": {
        "activities": [
            {
                "type": "SqlServerStoredProcedure",
                "typeProperties": {
                    "storedProcedureName": "[dbo].[archiveBillingData]",
                    "storedProcedureParameters": {
                        "clientID": "80",
                        "environmentkey": "uat"
                    }
                },
                "inputs": [
                    {
                        "name": "ExecSPArchiveFactServicePointBilling_80"
                    }
                ],
                "outputs": [
                    {
                        "name": "ExecSPCleanUpFactServicePointBilling_80"
                    }
                ],
                "policy": {
                    "timeout": "02:00:00",
                    "concurrency": 1,
                    "executionPriorityOrder": "NewestFirst"
                },
                "scheduler": {
                    "frequency": "Hour",
                    "interval": 1,
                    "offset": "07:00:00"
                },
                "name": "getRecordsToArchiveBillingTables_80"
            },
            {
                "type": "Copy",
                "typeProperties": {
                    "source": {
                        "type": "SqlSource",
                        "sqlReaderQuery": "select * from dbo.archivePurgeFactServicePointBilling"
                    },
                    "sink": {
                        "type": "BlobSink",
                        "blobWriterAddHeader": true,
                        "writeBatchSize": 0,
                        "writeBatchTimeout": "00:00:00"
                    }
                },
                "inputs": [
                    {
                        "name": "ExecSPCleanUpFactServicePointBilling_80"
                    }
                ],
                "outputs": [
                    {
                        "name": "Blobfactservicepointbilling_80"
                    }
                ],
                "policy": {
                    "concurrency": 1
                },
                "scheduler": {
                    "frequency": "Hour",
                    "interval": 1,
                    "offset": "07:00:00"
                },
                "name": "CopyArchiveFactServicePointBillingToBlob_80"
            },
            {
                "type": "Copy",
                "typeProperties": {
                    "source": {
                        "type": "SqlSource",
                        "sqlReaderQuery": "select * from dbo.archivePurgeFactServicePointBilling_BillCostDetails"
                    },
                    "sink": {
                        "type": "BlobSink",
                        "blobWriterAddHeader": true,
                        "writeBatchSize": 0,
                        "writeBatchTimeout": "00:00:00"
                    }
                },
                "inputs": [
                    {
                        "name": "ExecSPCleanUpFactServicePointBilling_80"
                    }
                ],
                "outputs": [
                    {
                        "name": "Blobbillcostdetails_80"
                    }
                ],
                "policy": {
                    "concurrency": 1
                },
                "scheduler": {
                    "frequency": "Hour",
                    "interval": 1,
                    "offset": "07:00:00"
                },
                "name": "CopyArchiveBillCostDetailsToBlob_80"
            },
            {
                "type": "Copy",
                "typeProperties": {
                    "source": {
                        "type": "SqlSource",
                        "sqlReaderQuery": "select * from dbo.archivePurgeFactServicePointBilling_ServiceCostDetails"
                    },
                    "sink": {
                        "type": "BlobSink",
                        "blobWriterAddHeader": true,
                        "writeBatchSize": 0,
                        "writeBatchTimeout": "00:00:00"
                    }
                },
                "inputs": [
                    {
                        "name": "ExecSPCleanUpFactServicePointBilling_80"
                    }
                ],
                "outputs": [
                    {
                        "name": "Blobservicecostdetails_80"
                    }
                ],
                "policy": {
                    "concurrency": 1
                },
                "scheduler": {
                    "frequency": "Hour",
                    "interval": 1,
                    "offset": "07:00:00"
                },
                "name": "CopyArchiveServiceCostDetailsToBlob_80"
            },
            {
                "type": "SqlServerStoredProcedure",
                "typeProperties": {
                    "storedProcedureName": "[dbo].[purgeBillingData]"
                },
                "inputs": [
                    {
                        "name": "Blobfactservicepointbilling_80"
                    },
                    {
                        "name": "Blobbillcostdetails_80"
                    },
                    {
                        "name": "Blobservicecostdetails_80"
                    }
                ],
                "outputs": [
                    {
                        "name": "ExecSPPurgeFactServicePointBilling_BillCostDetails_80"
                    }
                ],
                "policy": {
                    "timeout": "02:00:00",
                    "concurrency": 1,
                    "executionPriorityOrder": "NewestFirst"
                },
                "scheduler": {
                    "frequency": "Hour",
                    "interval": 1,
                    "offset": "07:00:00"
                },
                "name": "PurgeBillingData_80"
            },
            {
                "type": "SqlServerStoredProcedure",
                "typeProperties": {
                    "storedProcedureName": "[dbo].[CleanupArchiveBillingDataHoldingTables]"
                },
                "inputs": [
                    {
                        "name": "ExecSPPurgeFactServicePointBilling_BillCostDetails_80"
                    }
                ],
                "outputs": [
                    {
                        "name": "ExecSPPurgeFactServicePointBilling_ServiceCostDetails_80"
                    }
                ],
                "policy": {
                    "timeout": "02:00:00",
                    "concurrency": 1,
                    "executionPriorityOrder": "NewestFirst"
                },
                "scheduler": {
                    "frequency": "Hour",
                    "interval": 1,
                    "offset": "07:00:00"
                },
                "name": "cleanupArchiveBillingDataTables_80"
            }
        ],
        "start": "2017-12-19T00:00:00Z",
        "end": "2020-09-27T00:00:00Z",
        "isPaused": false,
        
        "pipelineMode": "Scheduled"
    }
}