﻿{
    "name": "AzureSqlLinkedService_118",
    "properties": {
        "description": "",
        
        "type": "AzureSqlDatabase",
        "typeProperties": {
            "connectionString": "Data Source=tcp:aceusql1c0.database.windows.net,1433;Initial Catalog=INsightsDW_118;Integrated Security=False;User ID=Aclweb@aceusql1c0;Password=**********;Connect Timeout=30;Encrypt=True"
        }
    }
}