﻿{
    "name": "Blobfactservicepointbilling_210",
    "properties": {
        "published": false,
        "type": "AzureBlob",
        "linkedServiceName": "AzureStorageArchiveBillingData",
        "typeProperties": {
            "folderPath": "qacloudfiledrop/210/ArchivedData/FactServicePointBilling/{Year}{Month}{Day}/",
            "format": {
                "type": "TextFormat",
                "columnDelimiter": "|",
                "nullValue": "NULL"
            },
            "partitionedBy": [
                {
                    "name": "Year",
                    "value": {
                        "type": "DateTime",
                        "date": "SliceStart",
                        "format": "yyyy"
                    }
                },
                {
                    "name": "Month",
                    "value": {
                        "type": "DateTime",
                        "date": "SliceStart",
                        "format": "MM"
                    }
                },
                {
                    "name": "Day",
                    "value": {
                        "type": "DateTime",
                        "date": "SliceStart",
                        "format": "dd"
                    }
                }
            ]
        },
        "availability": {
            "frequency": "Hour",
            "interval": 1,
            "offset": "07:00:00"
        }
    }
}