﻿{
    "name": "ExecSPCleanUpFactServicePointBilling_262",
    "properties": {
        "structure": [
            {
                "name": "cleanUpFactServicePointBilling",
                "type": "String"
            }
        ],
        "published": false,
        "type": "AzureSqlTable",
        "linkedServiceName": "AzureSqlLinkedService_262",
        "typeProperties": {
            "tableName": "dbo.archivePurgeFactServicePointBilling"
        },
        "availability": {
            "frequency": "Hour",
            "interval": 1,
            "offset": "07:00:00"
        },
        "external": false,
        "policy": {}
    }
}