﻿{
    "name": "ExecSPPurgeFactServicePointBilling_BillCostDetails_210",
    "properties": {
        "structure": [
            {
                "name": "purgeFactServicePointBilling_BillCostDetails",
                "type": "String"
            }
        ],
        "published": false,
        "type": "AzureSqlTable",
        "linkedServiceName": "AzureSqlLinkedService_210",
        "typeProperties": {
            "tableName": "dbo.FactServicePointBilling_BillCostDetails"
        },
        "availability": {
            "frequency": "Hour",
            "interval": 1,
            "offset": "07:00:00"
        },
        "external": false,
        "policy": {}
    }
}