﻿{
    "name": "ExtractRetailCustomerTracking_174",
    "properties": {
        "activities": [
            {
                "type": "SqlServerStoredProcedure",
                "typeProperties": {
                    "storedProcedureName": "[rpt].[gbExtractRetailCustomerTrackingData]",
                    "storedProcedureParameters": {
                        "clientID": "174",
                        "startDate": "$$Text.Format('{0:yyyy-MM-dd}', SliceStart)",
                        "endDate": "$$Text.Format('{0:yyyy-MM-dd}', SliceEnd)"
                    }
                },
                "inputs": [
                    {
                        "name": "SQLExecSPRetailCustomerTracking174"
                    }
                ],
                "outputs": [
                    {
                        "name": "SQLgbExtractRetailCustomerTracking174"
                    }
                ],
                "policy": {
                    "timeout": "02:00:00",
                    "concurrency": 1,
                    "executionPriorityOrder": "NewestFirst"
                },
                "scheduler": {
                    "frequency": "Day",
                    "interval": 1,
                    "offset": "07:00:00"
                },
                "name": "gbRetailCustomerTrackingExport174"
            },
            {
                "type": "Copy",
                "typeProperties": {
                    "source": {
                        "type": "SqlSource",
                        "sqlReaderQuery": "$$Text.Format('select EventType,Updated as EventTimeStamp, CustomerName, CustomerAccountNumber, ThirdPartyName, ThirdPartyID, AuthorizationStartDate, DefaultExpirationDate, AuthorizationEndDate, ReasonEnded from rpt.gbExtractRetailCustomerTracking where clientID = 174 and StartDateExtract = \\'{0:yyyy-MM-dd}\\' AND EndDateExtract = \\'{1:yyyy-MM-dd}\\'order by CustomerAccountNumber, Updated', SliceStart, SliceEnd)"
                    },
                    "sink": {
                        "type": "BlobSink",
                        "blobWriterAddHeader": false,
                        "writeBatchSize": 0,
                        "writeBatchTimeout": "00:00:00"
                    }
                },
                "inputs": [
                    {
                        "name": "SQLgbExtractRetailCustomerTracking174"
                    }
                ],
                "outputs": [
                    {
                        "name": "AzureBlobGBRetailCustomerTracking174"
                    }
                ],
                "policy": {
                    "concurrency": 1
                },
                "scheduler": {
                    "frequency": "Day",
                    "interval": 1,
                    "offset": "07:00:00"
                },
                "name": "CopySqlgbRetailCustomerExportToBlob174"
            },
            {
                "type": "Copy",
                "typeProperties": {
                    "source": {
                        "type": "BlobSource"
                    },
                    "sink": {
                        "type": "FileSystemSink",
                        "writeBatchSize": 0,
                        "writeBatchTimeout": "00:00:00"
                    }
                },
                "inputs": [
                    {
                        "name": "AzureBlobGBRetailCustomerTracking174"
                    }
                ],
                "outputs": [
                    {
                        "name": "OnPremiseRetailCustomerTrackingExport174"
                    }
                ],
                "policy": {
                    "concurrency": 1,
                    "longRetry": 3,
                    "longRetryInterval": "00:03:00"
                },
                "scheduler": {
                    "frequency": "Day",
                    "interval": 1,
                    "offset": "07:00:00"
                },
                "name": "CopyAzureBlobRetailCustomerTrackingToOnPremise174"
            }
        ],
        "start": "2017-06-27T00:00:00Z",
        "end": "2017-06-27T00:00:00Z",
        "isPaused": false,
        "pipelineMode": "Scheduled"
    }
}