﻿{
     "name": "SQLExecSPThirdPartyVendorTracking",
    "properties": {
        "structure": [
            {
                "name": "SubscriptionStatus",
                "type": "String"
            }
        ],
        "published": false,
        "type": "AzureSqlTable",
        "linkedServiceName": "AzureSqlLnkSvcInsightsDW_Test",
        "typeProperties": {
            "tableName": "rpt.gbExtractThirdPartyVendorTracking"
        },
        "availability": {
            "frequency": "Day",
            "offset": "07:00:00",
            "interval": 1
        },
         "external": true
    }
}