﻿{
    "$schema": "http://datafactories.schema.management.azure.com/schemas/2015-08-01/Microsoft.DataFactory.Table.json",
     "name": "SQLgbExtractEndpointTracking174",
    "properties": {
        "published": false,
        "type": "AzureSqlTable",
        "linkedServiceName": "AzureSqlLnkSvcInsightsDW_174",
        "typeProperties": {
            "tableName": "[rpt].[gbExtractEndpointTracking]"
        },
        "availability": {
            "frequency": "Day",
            "interval": 1,
            "offset": "07:00:00",
            "style": "NotSpecified"
        }
    }
}

