﻿{
    "name": "SQLSPToCleanUpExtractTables",
    "properties": {
        "structure": [
            {
                "name": "cleanupExtractTableData",
                "type": "String"
            }
        ],
        "published": false,
        "type": "AzureSqlTable",
        "linkedServiceName": "AzureSqlLnkSvcInsightsDW_Test",
        "typeProperties": {
            "tableName": "rpt.gbExtractRetailCustomerTracking"
        },
        "availability": {
            "frequency": "Day",
            "interval": 1,
            "offset": "07:00:00"
        }
    }
}