﻿{
    "$schema": "http://datafactories.schema.management.azure.com/vsschemas/V1/Microsoft.DataFactory.Config.json",

    //
    // -----------------------------------------------------------------------------------------------------------
    //
    //  LinkedServices
    //
    // -----------------------------------------------------------------------------------------------------------
    //

    "AzureBlobStorage": [
        {
            "name": "$.properties.typeProperties.connectionString",
            "value": "DefaultEndpointsProtocol=https;AccountName=cedevcloudfiledrop;AccountKey=update-after-deploy"
        }
    ],
    "AzureSqlDw": [
        {
            "name": "$.properties.typeProperties.connectionString",
            "value": "Data Source=tcp:aceusql1c0.database.windows.net,1433;Initial Catalog=InsightsDW_224;Integrated Security=False;User ID=AclaraCEAdmin@aceusql1c0;Password=update-after-deploy;Connect Timeout=30;Encrypt=True"
        }
    ],
    "HDInsightOnDemand": [
        {
            "name": "$.properties.typeProperties.clusterSize",
            "value": 32
        }

    ],

    //
    // -----------------------------------------------------------------------------------------------------------
    //
    //  Datasets
    //
    // -----------------------------------------------------------------------------------------------------------
    //

    "FactBillDisAgg": [
        {
            "name": "$.properties.availability.offset",
            "value": "05:30:00"
        },
        {
            "name": "$.properties.availability.style",
            "value": "EndOfInterval"
        }
    ],
    "FactBillDisAggIndex": [
        {
            "name": "$.properties.availability.offset",
            "value": "05:30:00"
        },
        {
            "name": "$.properties.availability.style",
            "value": "EndOfInterval"
        }
    ],
    "MapReduceResults": [
        {
            "name": "$.properties.typeProperties.folderPath",
            "value": "uatcloudfiledrop/224/PreProcess/BI/BillDisagg/MapReduceOutput/{Year}/{Month}/{Day}"
        },
        {
            "name": "$.properties.availability.offset",
            "value": "05:30:00"
        },
        {
            "name": "$.properties.availability.style",
            "value": "EndOfInterval"
        }
    ],
    "BillDisAggBlobFromSqlQueue": [
        {
            "name": "$.properties.typeProperties.folderPath",
            "value": "uatcloudfiledrop/224/PreProcess/BI/BillDisagg/{Year}/{Month}/{Day}"
        },
        {
            "name": "$.properties.availability.offset",
            "value": "05:30:00"
        },
        {
            "name": "$.properties.availability.style",
            "value": "EndOfInterval"
        }
    ],
    "SqlDisAggQueueTable": [
        {
            "name": "$.properties.availability.offset",
            "value": "05:30:00"
        },
        {
            "name": "$.properties.availability.style",
            "value": "EndOfInterval"
        }
    ],
    "TempBillDisAgg": [
        {
            "name": "$.properties.availability.offset",
            "value": "05:30:00"
        },
        {
            "name": "$.properties.availability.style",
            "value": "EndOfInterval"
        }
    ],
    //
    // -----------------------------------------------------------------------------------------------------------
    //
    //  Pipelines
    //
    // -----------------------------------------------------------------------------------------------------------
    //
    "ProcessBillDisAgg": [
        {
            "name": "$.properties.start",
            "value": "2015-11-24T05:30:00Z"
        },
        {
            "name": "$.properties.end",
            "value": "2015-11-25T05:30:00Z"
        },

        {
            "name": "$.properties.activities[*].scheduler.offset",
            "value": "05:30:00"
        },
        {
            "name": "$.properties.activities[*].scheduler.style",
            "value": "EndOfInterval"
        },

        {
            "name": "$.properties.activities[?(@.name=='CalculateBillDisAgg')].typeProperties.filePaths",
            "value": [
                "apps/UAT/224/BillDisagg/Mapper/Mapper.exe",
                "apps/UAT/224/BillDisagg/Mapper/Mapper.exe.config",
                "apps/UAT/224/BillDisagg/Mapper/CE.MeasuresEngine.dll",
                "apps/UAT/224/BillDisagg/Mapper/CE.BillDisAgg.dll",
                "apps/UAT/224/BillDisagg/Mapper/CE.ContentModel.dll",
                "apps/UAT/224/BillDisagg/Mapper/CE.EnergyModel.dll",
                "apps/UAT/224/BillDisagg/Mapper/CE.NCalc.dll",
                "apps/UAT/224/BillDisagg/Mapper/Antlr3.Runtime.dll",
                "apps/UAT/224/BillDisagg/Mapper/AutoMapper.dll",
                "apps/UAT/224/BillDisagg/Mapper/AutoMapper.Net4.dll",
                "apps/UAT/224/BillDisagg/Mapper/Newtonsoft.Json.dll",
                "apps/UAT/224/BillDisagg/Mapper/RestSharp.dll",
                "apps/UAT/224/BillDisagg/Mapper/StackExchange.Redis.StrongName.dll",
                "apps/UAT/224/BillDisagg/Reducer/Reducer.exe"
            ]
        },
        {
            "name": "$.properties.activities[?(@.name=='CalculateBillDisAgg')].typeProperties.input",
            "value": "$$Text.Format('wasb://uatcloudfiledrop@cedevcloudfiledrop.blob.core.windows.net/224/PreProcess/BI/BillDisagg/{0:yyyy}/{0:MM}/{0:dd}/', SliceStart)"
        },
        {
            "name": "$.properties.activities[?(@.name=='CalculateBillDisAgg')].typeProperties.output",
            "value": "$$Text.Format('wasb://uatcloudfiledrop@cedevcloudfiledrop.blob.core.windows.net/224/PreProcess/BI/BillDisagg/MapReduceOutput/{0:yyyy}/{0:MM}/{0:dd}/', SliceStart)"
        },
        {
            "name": "$.properties.activities[?(@.name=='CalculateBillDisAgg')].typeProperties.defines",
            "value": {
                        "mapreduce.job.maps": "200",
                        "mapreduce.job.reduces": "1"
                    }
        }

    ]




}