224	1820027276022	01000000094234	01000000094234	8	20150914133533	2015-09-14 17:35:33.0000000
224	2140082278020	01000012050257	01000012050257	8	20150914133533	2015-09-14 17:35:33.0000000
224	xxx0082278020	xx000012050257	xx000012050257	8	20150914133533	2015-09-14 17:35:33.0000000
