﻿{
    "name": "AzureBlobPrintExport",
    "properties": {
        "published": false,
        "type": "AzureBlob",
        "linkedServiceName": "AzureBlobStorage",
        "typeProperties": {
            "fileName": "her_224_print.csv",
            "folderPath": "NotSpecified",
            "format": {
                "type": "TextFormat",
                "columnDelimiter": ",",
                "nullValue": "NULL"
            },
            "partitionedBy": [
                {
                    "name": "Year",
                    "value": {
                        "type": "DateTime",
                        "date": "SliceStart",
                        "format": "yyyy"
                    }
                },
                {
                    "name": "Month",
                    "value": {
                        "type": "DateTime",
                        "date": "SliceStart",
                        "format": "MM"
                    }
                },
                {
                    "name": "Day",
                    "value": {
                        "type": "DateTime",
                        "date": "SliceStart",
                        "format": "dd"
                    }
                }
            ]
        },
        "availability": {
            "frequency": "Day",
            "interval": 1,
            "offset": "NotSpecified",
            "style": "NotSpecified"
        }
    }
}