﻿{
    "name": "SqlPrintExport",
    "properties": {
        "published": false,
        "type": "AzureSqlTable",
        "linkedServiceName": "AzureSqlDw",
        "typeProperties": {
            "tableName": "[export].[home_energy_report_staging]"
        },
        "availability": {
            "frequency": "Day",
            "interval": 1,
            "offset": "NotSpecified",
            "style": "NotSpecified"
        }
    }
}