﻿{
    "name": "UIL HER Export",
    "properties": {
        "activities": [
            {
                "type": "SqlServerStoredProcedure",
                "typeProperties": {
                    "storedProcedureName": "[dbo].[CreateBillBenchmarks]",
                    "storedProcedureParameters": {
                        "clientID": "224"
                    }
                },
                "outputs": [
                    {
                        "name": "SqlBillBenchmarkResults"
                    }
                ],
                "policy": {
                    "timeout": "02:00:00",
                    "concurrency": 1,
                    "executionPriorityOrder": "NewestFirst"
                },
                "scheduler": {
                    "frequency": "Day",
                    "interval": 1,
                    "offset": "NotSpecified",
                    "style": "NotSpecified"
                },
                "name": "Create Benchmark Results"
            },
            {
                "type": "SqlServerStoredProcedure",
                "typeProperties": {
                    "storedProcedureName": "[Export].[usp_HE_Report_RunReport]",
                    "storedProcedureParameters": {
                        "reportAlias": "EMAIL",
                        "clientID": "224",
                        "sliceStart": "$$Text.Format('{0}', SliceStart)"
                    }
                },
                "inputs": [
                    {
                        "name": "SqlBillBenchmarkResults"
                    }
                ],
                "outputs": [
                    {
                        "name": "SqlEmailExport"
                    }
                ],
                "policy": {
                    "timeout": "02:00:00",
                    "concurrency": 1,
                    "executionPriorityOrder": "NewestFirst"
                },
                "scheduler": {
                    "frequency": "Day",
                    "interval": 1,
                    "offset": "NotSpecified",
                    "style": "NotSpecified"
                },
                "name": "Email Export"
            },
            {
                "type": "Copy",
                "typeProperties": {
                    "source": {
                        "type": "SqlSource",
                        "sqlReaderQuery": "exec [Export].[usp_HE_Report_FetchStaging];"
                    },
                    "sink": {
                        "type": "BlobSink",
                        "writeBatchSize": 0,
                        "writeBatchTimeout": "00:00:00"
                    }
                },
                "inputs": [
                    {
                        "name": "SqlEmailExport"
                    }
                ],
                "outputs": [
                    {
                        "name": "AzureBlobEmailExport"
                    },
                    {
                        "name": "SqlEmailLog"
                    }
                ],
                "policy": {
                    "concurrency": 1
                },
                "scheduler": {
                    "frequency": "Day",
                    "interval": 1,
                    "offset": "NotSpecified",
                    "style": "NotSpecified"
                },
                "name": "CopySqlEmailExportToBlob",
                "description": "Copy EmailExport from sql to blob"
            },
            {
                "type": "Copy",
                "typeProperties": {
                    "source": {
                        "type": "SqlSource",
                        "sqlReaderQuery": "exec [Export].[usp_HE_Report_FetchLatestProgress];"
                    },
                    "sink": {
                        "type": "BlobSink",
                        "writeBatchSize": 0,
                        "writeBatchTimeout": "00:00:00"
                    }
                },
                "inputs": [
                    {
                        "name": "SqlEmailLog"
                    }
                ],
                "outputs": [
                    {
                        "name": "AzureBlobEmailLog"
                    }
                ],
                "policy": {
                    "concurrency": 1
                },
                "scheduler": {
                    "frequency": "Day",
                    "interval": 1,
                    "offset": "NotSpecified",
                    "style": "NotSpecified"
                },
                "name": "CopySqlEmailLogToBlob",
                "description": "Copy EmailLog from sql to blob"
            },
            {
                "type": "Copy",
                "typeProperties": {
                    "source": {
                        "type": "BlobSource"
                    },
                    "sink": {
                        "type": "FileSystemSink",
                        "writeBatchSize": 0,
                        "writeBatchTimeout": "00:00:00"
                    }
                },
                "inputs": [
                    {
                        "name": "AzureBlobEmailExport"
                    }
                ],
                "outputs": [
                    {
                        "name": "OnPremiseEmailExport"
                    }
                ],
                "policy": {
                    "concurrency": 1,
                    "longRetry": 3,
                    "longRetryInterval": "00:03:00"
                },
                "scheduler": {
                    "frequency": "Day",
                    "interval": 1,
                    "offset": "NotSpecified",
                    "style": "NotSpecified"
                },
                "name": "CopyAzureBlobEmailExportToOnPremise",
                "description": "Copy EmailExport from blob to on-premise"
            },
            {
                "type": "SqlServerStoredProcedure",
                "typeProperties": {
                    "storedProcedureName": "[Export].[usp_HE_Report_RunReport]",
                    "storedProcedureParameters": {
                        "reportAlias": "PRINT",
                        "clientID": "224",
                        "sliceStart": "$$Text.Format('{0}', SliceStart)"
                    }
                },
                "inputs": [
                    {
                        "name": "AzureBlobEmailLog"
                    }
                ],
                "outputs": [
                    {
                        "name": "SqlPrintExport"
                    }
                ],
                "policy": {
                    "timeout": "02:00:00",
                    "concurrency": 1,
                    "executionPriorityOrder": "NewestFirst"
                },
                "scheduler": {
                    "frequency": "Day",
                    "interval": 1,
                    "offset": "NotSpecified",
                    "style": "NotSpecified"
                },
                "name": "Print Export (T-1-3, T-1-4)"
            },
            {
                "type": "Copy",
                "typeProperties": {
                    "source": {
                        "type": "SqlSource",
                        "sqlReaderQuery": "exec [Export].[usp_HE_Report_FetchStaging];"
                    },
                    "sink": {
                        "type": "BlobSink",
                        "writeBatchSize": 0,
                        "writeBatchTimeout": "00:00:00"
                    }
                },
                "inputs": [
                    {
                        "name": "SqlPrintExport"
                    }
                ],
                "outputs": [
                    {
                        "name": "AzureBlobPrintExport"
                    },
                    {
                        "name": "SqlPrintLog"
                    }
                ],
                "policy": {
                    "concurrency": 1
                },
                "scheduler": {
                    "frequency": "Day",
                    "interval": 1,
                    "offset": "NotSpecified",
                    "style": "NotSpecified"
                },
                "name": "CopySqlPrintExportToBlob",
                "description": "Copy PrintExport from sql to blob"
            },
            {
                "type": "Copy",
                "typeProperties": {
                    "source": {
                        "type": "SqlSource",
                        "sqlReaderQuery": "exec [Export].[usp_HE_Report_FetchLatestProgress];"
                    },
                    "sink": {
                        "type": "BlobSink",
                        "writeBatchSize": 0,
                        "writeBatchTimeout": "00:00:00"
                    }
                },
                "inputs": [
                    {
                        "name": "SqlPrintLog"
                    }
                ],
                "outputs": [
                    {
                        "name": "AzureBlobPrintLog"
                    }
                ],
                "policy": {
                    "concurrency": 1
                },
                "scheduler": {
                    "frequency": "Day",
                    "interval": 1,
                    "offset": "NotSpecified",
                    "style": "NotSpecified"
                },
                "name": "CopySqlPrintLogToBlob",
                "description": "Copy PrintLog from sql to blob"
            },
            {
                "type": "Copy",
                "typeProperties": {
                    "source": {
                        "type": "BlobSource"
                    },
                    "sink": {
                        "type": "FileSystemSink",
                        "writeBatchSize": 0,
                        "writeBatchTimeout": "00:00:00"
                    }
                },
                "inputs": [
                    {
                        "name": "AzureBlobPrintExport"
                    }
                ],
                "outputs": [
                    {
                        "name": "OnPremisePrintExport"
                    }
                ],
                "policy": {
                    "concurrency": 1,
                    "longRetry": 3,
                    "longRetryInterval": "00:03:00"
                },
                "scheduler": {
                    "frequency": "Day",
                    "interval": 1,
                    "offset": "NotSpecified",
                    "style": "NotSpecified"
                },
                "name": "CopyAzureBlobPintExportToOnPremise",
                "description": "Copy PrintExport from blob to on-premise"
            }
        ],
        "start": "2015-01-01T00:00:00Z",
        "end": "2015-01-02T00:00:00Z",
        "isPaused": true
    }
}