﻿{
    "name": "AzureStorageLinkedService1",
    "properties": {
        "type": "AzureStorage",
        "typeProperties": {
            "connectionString": "DefaultEndpointsProtocol=https;AccountName=aclaceeventtrackv2stg;AccountKey=Gr2BGcfBJQWSn3/PI3HGTqRYf4tNjXDFYbq3M7/+wZ6b++jAbvfIalB1ZCQ0LgeDqHzhxpOBz6ARlWq6PFM0Ng=="
        }
    }
}