﻿{
    "name": "AzureSqlTableLocation1",
    "properties": {
        "structure": [
            {
                "name": "PartitionKey",
                "type": "String"
            },
            {
                "name": "RowKey",
                "type": "String"
            },
            {
                "name": "EventTimeStamp",
                "type": "Datetime"
            },
            {
                "name": "ClientId",
                "type": "Int32"
            },
            {
                "name": "AccountId",
                "type": "String"
            },
            {
                "name": "CustomerId",
                "type": "String"
            },
            {
                "name": "PremiseId",
                "type": "String"
            },
            {
                "name": "EventType",
                "type": "String"
            },
            {
                "name": "PageId",
                "type": "String"
            },
            {
                "name": "ActionId",
                "type": "String"
            },
            {
                "name": "EstimatedSavings",
                "type": "Double"
            },
            {
                "name": "DateCreated",
                "type": "String"
            },
            {
                "name": "isNewUser",
                "type": "String"
            },
            {
                "name": "CEEnvironment",
                "type": "String"
            },
            {
                "name": "TabId",
                "type": "String"
            },
            {
                "name": "EstimatedCost",
                "type": "Double"
            },
            {
                "name": "EstimatedRebate",
                "type": "Double"
            },
            {
                "name": "SavingsAmount",
                "type": "Double"
            },
            {
                "name": "SavingsPercentage",
                "type": "Double"
            }
        ],
        "published": false,
        "type": "AzureSqlTable",
        "linkedServiceName": "AzureSqlLinkedService1",
        "typeProperties": {
            "tableName": "[rpt].[AceEvents]"
        },
        "availability": {
            "frequency": "Week",
            "interval": 1
        }
    }
}