﻿{
    "name": "AzSQLSPToCleanUpData",
    "properties": {
        "structure": [
            {
                //"name": "getholdingAceEventsByClient",
                "name": "cleanupAceEventst",
                "type": "String"
            }
        ],
        "published": false,
        "type": "AzureSqlTable",
        "linkedServiceName": "AzureSqlLnkSvcInsightsDW",
        "typeProperties": {
            "tableName": "rpt.holdingAceEvents"
        },
        "availability": {
            "frequency": "Day",
            "interval": 1
        }
    }
}