﻿{
    "name": "AzSQLDestInsightsDW_80",
    "properties": {
        "published": false,
        "type": "AzureSqlTable",
        "linkedServiceName": "AzureSqlLnkSvcInsightsDW_80",
        "typeProperties": {
            "tableName": "rpt.AceEvents"
        },
        "availability": {
            "frequency": "Day",
            "interval": 1
        }
    }
}