﻿{
    "name": "AzureTableLocation1",
    "properties": {
        "structure": [
            {
                "name": "PartitionKey",
                "type": "String"
            },
            {
                "name": "RowKey",
                "type": "String"
            },
            {
                "name": "Timestamp",
                "type": "Datetime"
            },
            {
                "name": "ClientId",
                "type": "Int32"
            },
            {
                "name": "AccountId",
                "type": "String"
            },
            {
                "name": "CustomerId",
                "type": "String"
            },
            {
                "name": "PremiseId",
                "type": "String"
            },
            {
                "name": "EventType",
                "type": "String"
            },
            {
                "name": "PageId",
                "type": "String"
            },
            {
                "name": "ActionId",
                "type": "String"
            },
            {
                "name": "EstimatedSavings",
                "type": "Double"
            },
            {
                "name": "DateCreated",
                "type": "String"
            },
            {
                "name": "NewUser",
                "type": "String"
            },
            {
                "name": "CEEnvironment",
                "type": "String"
            },
            {
                "name": "TabId",
                "type": "String"
            },
            {
                "name": "EstimatedCost",
                "type": "Double"
            },
            {
                "name": "EstimatedRebate",
                "type": "Double"
            },
            {
                "name": "SavingsAmount",
                "type": "Double"
            },
            {
                "name": "SavingsPercentage",
                "type": "Double"
            },
            {
                "name": "UserId",
                "type": "String"
            },
            {
                "name": "GroupName",
                "type": "String"
            },
            {
                "name": "RoleName",
                "type": "String"
            }
        ],
        "published": false,
        "type": "AzureTable",
        "linkedServiceName": "AzureStorageLnkSvc",
        "typeProperties": {
            "tableName": "AclAceEventTrackV2StgTblProd"
        },
        "availability": {
            "frequency": "Day",
            "interval": 1
        },
        "external": true,
        "policy": {}
    }
}
