﻿{
    "name": "AzSqlTable_AOEmailRequestDetail",
    "properties": {
        "structure": [
            {
                "name": "RowCreateDate",
                "type": "String"
            },
             {
                "name": "ClientId",
                "type": "Int32"
            },
            {
                "name": "AccountId",
                "type": "String"
            },
            {
                "name": "ProgramName",
                "type": "String"
            },
            {
                "name": "ServiceContractID",
                "type": "String"
            },
            {
                "name": "Insight",
                "type": "String"
            },
            {
                "name": "Channel",
                "type": "String"
            },
            {
                "name": "NotifiedDateTime",
                "type": "Datetime"
            },
            {
                "name": "Description",
                "type": "String"
            },
            {
                "name": "ErrorMessage",
                "type": "String"
            },
            {
                "name": "EventType",
                "type": "String"
            },
            {
                "name": "LastModifiedDate",
                "type": "Datetime"
            },
            {
                "name": "URL",
                "type": "String"
            }
        ],
        "published": false,
        "type": "AzureSqlTable",
        "linkedServiceName": "AzureSqlLinkedService",
        "typeProperties": {
            "tableName": "[rpt].[holdingAOCassEmailRequestDetail]"
        },
        "availability": {
            "frequency": "Day",
            "offset": "05:00:00",
            "interval": 1
        }
    }
}
