﻿{
    "name": "AzSqlTable_AOSubscription_224",
    "properties": {
        "structure": [
            {
                "name": "RowCreateDate",
                "type": "String"
            },
            {
                "name": "ClientId",
                "type": "Int32"
            },
            {
                "name": "SubscriptionType",
                "type": "String"
            },
            {
                "name": "CustomerId",
                "type": "String"
            },
            {
                "name": "AccountId",
                "type": "String"
            },
            {
                "name": "ProgramName",
                "type": "String"
            },
            {
                "name": "InsightTypeName",
                "type": "String"
            },
            {
                "name": "ServiceContractId",
                "type": "String"
            },
            {
                "name": "IsLatest",
                "type": "String"
            },
            {
                "name": "SubscriptionDate",
                "type": "Datetime"
            },
            {
                "name": "Channel",
                "type": "String"
            },
            {
                "name": "EmailConfirmationCount",
                "type": "Int32"
            },
            {
                "name": "EmailOptInCompletedDate",
                "type": "Datetime"
            },
            {
                "name": "IsEmailOptInCompleted",
                "type": "String"
            },
            {
                "name": "IsSelected",
                "type": "String"
            },
            {
                "name": "IsSmsOptInCompleted",
                "type": "String"
            },
            {
                "name": "LastModifiedDate",
                "type": "Datetime"
            },
            {
                "name": "OptOutDate",
                "type": "Datetime"
            },
            {
                "name": "SmsConfirmationCount",
                "type": "Int32"
            },
            {
                "name": "SmsOptInCompletedDate",
                "type": "Datetime"
            },
            {
                "name": "SubscriberThresholdValue",
                "type": "Double"
            },
            {
                "name": "UomId",
                "type": "Int32"
            }
        ],
        "published": false,
        "type": "AzureSqlTable",
        "linkedServiceName": "AzureSqlLinkedService_224",
        "typeProperties": {
            "tableName": "[rpt].[holdingAOCassSubscription]"
        },
        "availability": {
            "frequency": "Day",
            "offset": "05:00:00",
            "interval": 1
        }
    }
}
