﻿{
    "name": "AzSqlTable_AONotification",
    "properties": {
        "structure": [
            {
                "name": "RowCreateDate",
                "type": "String"
            },
            {
                "name": "ClientId",
                "type": "Int32"
            },
            {
                "name": "AccountId",
                "type": "String"
            },
            {
                "name": "ProgramName",
                "type": "String"
            },
            {
                "name": "ServiceContractId",
                "type": "String"
            },
            {
                "name": "Insight",
                "type": "String"
            },
            {
                "name": "Channel",
                "type": "String"
            },
            {
                "name": "IsLatest",
                "type": "String"
            },
            {
                "name": "NotifiedDateTime",
                "type": "Datetime"
            },
            {
                "name": "CustomerId",
                "type": "String"
            },
            {
                "name": "EvaluationType",
                "type": "String"
            },
            {
                "name": "IsBounced",
                "type": "String"
            },
            {
                "name": "IsClicked",
                "type": "String"
            },
            {
                "name": "IsDelivered",
                "type": "String"
            },
            {
                "name": "IsDropped",
                "type": "String"
            },
            {
                "name": "IsNotified",
                "type": "String"
            },
            {
                "name": "IsOpened",
                "type": "String"
            },
            {
                "name": "IsScheduled",
                "type": "String"
            },
            {
                "name": "LastModifiedDate",
                "type": "Datetime"
            },
            {
                "name": "TemplateID",
                "type": "String"
            },
            {
                "name": "Tier",
                "type": "String"
            },
            {
                "name": "TrumpiaRequestDetailID",
                "type": "String"
            }
        ],
        "published": false,
        "type": "AzureSqlTable",
        "linkedServiceName": "AzureSqlLinkedService",
        "typeProperties": {
            "tableName": "[rpt].[holdingAOCassNotification]"
        },
        "availability": {
            "frequency": "Day",
            "offset": "05:00:00",
            "interval": 1
        }
    }
}
