﻿{
    "name": "AzureSqlLinkedService_224",
    "properties": {
        "type": "AzureSqlDatabase",
        "typeProperties": {
            //"connectionString": "Data Source=tcp:aceUsql1c0.database.windows.net,1433;Initial Catalog=InsightsDW_224;Integrated Security=False;User ID=AclaraCEAdmin@aceUsql1c0;Password=Acl@r@282;Connect Timeout=30;Encrypt=True"
           "connectionString": "Data Source=tcp:acePsql1c0.database.windows.net,1433;Initial Catalog=InsightsDW_224;Integrated Security=False;User ID=AclaraCEAdmin@acePsql1c0;Password=0S3att!30;Connect Timeout=30;Encrypt=True"
        }
    }
}