﻿{
    "name": "CassandraTableTrumpiaRequestDetail",
    "properties": {
        "published": false,
        "type": "RelationalTable",
        "linkedServiceName": "CassandraThriftHive",
        "typeProperties": {
            "tableName": "trumpia_request_detail_rpt"
        },
        "availability": {
            "frequency": "Day",
            "offset": "05:00:00",
            "interval": 1
        },
        "external": true,
        "policy": {}
    }
}