﻿{
    "name": "ClearHolding",
    "properties": {
        "description": "clear holding tables",
        "activities": [
            {
                "type": "SqlServerStoredProcedure",
                "typeProperties": {
                    "storedProcedureName": "[rpt].[clearHoldingTablesInsightsDW]",
                        "storedProcedureParameters": {
                        "SliceStart": "$$Text.Format('{0:yyyyMMdd}', SliceStart)",
                        "SliceEnd": "$$Text.Format('{0:yyyyMMdd}', SliceEnd)"
                            }
                },
                "inputs": [
                    {
                        "name": "AzSQLForExecSPClearHolding_224"
                    },
                    {
                        "name": "AzSQLForExecSPClearHolding_Test"
                    }
                ],
                "outputs": [
                    {
                        "name": "AzSQLForExecSPClearHolding"
                    }
                ],
                "policy": {
                    "timeout": "01:00:00",
                    "concurrency": 1,
                    "executionPriorityOrder": "NewestFirst"
                },
                "scheduler": {
                    "frequency": "Day",
                    "offset": "05:00:00",
                    "interval": 1
                },
                "name": "ClearHolding"
            }
        ],
        "start": "2017-02-14T00:00:00Z",
        "end": "2017-02-15T00:00:00Z",
        "isPaused": false,
        "pipelineMode": "Scheduled"
    }
}