﻿{
    "$schema": "http://datafactories.schema.management.azure.com/schemas/2015-08-01/Microsoft.DataFactory.LinkedService.json",
    "name": "AzureSQLInsightsDW_101",
    "properties": {
        "type": "AzureSqlDatabase",
        "typeProperties": {
            //"connectionString": "Server=tcp:aceDsql1c0.database.windows.net,1433;Database=InsightsDW_101;User ID=AclaraCEAdmin@aceDsql1c0;Password=Acl@r@282;Trusted_Connection=False;Encrypt=True;Connection Timeout=30"
            //"connectionString": "Server=tcp:aceUsql1c0.database.windows.net,1433;Database=InsightsDW_101;User ID=AclaraCEAdmin@aceUsql1c0;Password=Acl@r@282;Trusted_Connection=False;Encrypt=True;Connection Timeout=30"
            "connectionString": "Server=tcp:acePsql1c0.database.windows.net,1433;Database=InsightsDW_101;User ID=AclaraCEAdmin@acePsql1c0;Password=0S3att!30;Trusted_Connection=False;Encrypt=True;Connection Timeout=30"
        }
    }
}