﻿{
    "name": "CleanupDataAndInsert",
    "properties": {
        "description": "clean up data and insert to final table sp",
        "activities": [
            {
                "type": "SqlServerStoredProcedure",
                "typeProperties": {
                    "storedProcedureName": "[rpt].[insertHEUReportFileData]",
                    "storedProcedureParameters": {
                        "ReportFileDate": "$$Text.Format('{0:yyyy-MM-dd}', SliceStart)"
                    }
                },
                "inputs": [
                    {
                        "name": "AzureSqlTableholdingAMI"
                    },
                    {
                        "name": "AzureSqlTableholdingAMI"
                    },
                    {
                        "name": "AzureSqlTableholdingAMILHH"
                    },
                    {
                        "name": "AzureSqlTableholdingBill"
                    },
                    {
                        "name": "AzureSqlTableholdingBillLHH"
                    }
                ],
                "outputs": [
                    {
                        "name": "AzSQLForExecSPInsertFinalTable"
                    }
                ],
                "policy": {
                    "timeout": "00:05:00",
                    "concurrency": 1,
                    "executionPriorityOrder": "NewestFirst"
                },
                "scheduler": {
                    "frequency": "Day",
                    "interval": 1
                },
                "name": "insertHEUReportFromHolding"
            }
        ],
      "start": "2016-12-02T00:00:00Z",
        "end": "2016-12-03T00:00:00Z",
        "isPaused": false,
        "pipelineMode": "Scheduled"
    }
    }