﻿{
    "name": "CopyFiles",
    "properties": {
        "description": "Pipeline to Copy Files",
        "activities": [
            {
                "type": "Copy",
                "typeProperties": {
                    "source": {
                        "type": "FileSystemSource"
                    },
                    "sink": {
                        "type": "BlobSink",
                        "writeBatchSize": 0,
                        "writeBatchTimeout": "00:00:00"
                    }
                },
                "inputs": [
                    {
                        "name": "OnPremisesFileSystemBillLHH"
                    }
                ],
                "outputs": [
                    {
                        "name": "AzureBlobBillLHH"
                    }
                ],
                "policy": {
                    "timeout": "00:05:00",
                    "concurrency": 1
                },
                "scheduler": {
                    "frequency": "Day",
                    "interval": 1
                },
                "name": "CopyBillLHHFileToBlob"
            },
            {
                "type": "Copy",
                "typeProperties": {
                    "source": {
                        "type": "FileSystemSource"
                    },
                    "sink": {
                        "type": "BlobSink",
                        "writeBatchSize": 0,
                        "writeBatchTimeout": "00:00:00"
                    }
                },
                "inputs": [
                    {
                        "name": "OnPremisesFileSystemBill"
                    },
                    {
                        "name": "AzureBlobBillLHH"
                    }
                ],
                "outputs": [
                    {
                        "name": "AzureBlobBill"
                    }
                ],
                "policy": {
                    "timeout": "00:05:00",
                    "concurrency": 1
                },
                "scheduler": {
                    "frequency": "Day",
                    "interval": 1
                },
                "name": "CopyBillFileToBlob"
            },
            {
                "type": "Copy",
                "typeProperties": {
                    "source": {
                        "type": "FileSystemSource"
                    },
                    "sink": {
                        "type": "BlobSink",
                        "writeBatchSize": 0,
                        "writeBatchTimeout": "00:00:00"
                    }
                },
                "inputs": [
                    {
                        "name": "OnPremisesFileSystemAMILHH"
                    },
                    {
                        "name": "AzureBlobBill"
                    }
                ],
                "outputs": [
                    {
                        "name": "AzureBlobAMILHH"
                    }
                ],
                "policy": {
                    "timeout": "00:05:00",
                    "concurrency": 1
                },
                "scheduler": {
                    "frequency": "Day",
                    "interval": 1
                },
                "name": "CopyAMILHHFileToBlob"
            },
            {
                "type": "Copy",
                "typeProperties": {
                    "source": {
                        "type": "FileSystemSource"
                    },
                    "sink": {
                        "type": "BlobSink",
                        "writeBatchSize": 0,
                        "writeBatchTimeout": "00:00:00"
                    }
                },
                "inputs": [
                    {
                        "name": "OnPremisesFileSystemAMI"
                    },
                    {
                        "name": "AzureBlobAMILHH"
                    }
                ],
                "outputs": [
                    {
                        "name": "AzureBlobAMI"
                    }
                ],
                "policy": {
                    "timeout": "00:05:00",
                    "concurrency": 1
                },
                "scheduler": {
                    "frequency": "Day",
                    "interval": 1
                },
                "name": "CopyAMIFileToBlob"
            },
            {
                "type": "Copy",
                "typeProperties": {
                    "source": {
                        "type": "BlobSource"
                    },
                    "sink": {
                        "type": "SqlSink",
                        "writeBatchSize": 0,
                        "writeBatchTimeout": "00:00:00"
                    }
                },
                "inputs": [
                    {
                        "name": "AzureBlobBillLHH"
                    }
                ],
                "outputs": [
                    {
                        "name": "AzureSqlTableholdingBillLHH"
                    }
                ],
                "policy": {
                    "timeout": "00:05:00",
                    "concurrency": 1
                },
                "scheduler": {
                    "frequency": "Day",
                    "interval": 1
                },
                "name": "CopyBillLHHFileToSQL"
            },
            {
                "type": "Copy",
                "typeProperties": {
                    "source": {
                        "type": "BlobSource"
                    },
                    "sink": {
                        "type": "SqlSink",
                        "writeBatchSize": 0,
                        "writeBatchTimeout": "00:00:00"
                    }
                },
                "inputs": [
                    {
                        "name": "AzureBlobBill"
                    },
                    {
                        "name": "AzureSqlTableholdingBillLHH"
                    }
                ],
                "outputs": [
                    {
                        "name": "AzureSqlTableholdingBill"
                    }
                ],
                "policy": {
                    "timeout": "00:05:00",
                    "concurrency": 1
                },
                "scheduler": {
                    "frequency": "Day",
                    "interval": 1
                },
                "name": "CopyBillFileToSQL"
            },
            {
                "type": "Copy",
                "typeProperties": {
                    "source": {
                        "type": "BlobSource"
                    },
                    "sink": {
                        "type": "SqlSink",
                        "writeBatchSize": 0,
                        "writeBatchTimeout": "00:00:00"
                    }
                },
                "inputs": [
                    {
                        "name": "AzureBlobAMILHH"
                    },
                    {
                        "name": "AzureSqlTableholdingBill"
                    }
                ],
                "outputs": [
                    {
                        "name": "AzureSqlTableholdingAMILHH"
                    }
                ],
                "policy": {
                    "timeout": "00:05:00",
                    "concurrency": 1
                },
                "scheduler": {
                    "frequency": "Day",
                    "interval": 1
                },
                "name": "CopyAMILHHFileToSQL"
            },
            {
                "type": "Copy",
                "typeProperties": {
                    "source": {
                        "type": "BlobSource"
                    },
                    "sink": {
                        "type": "SqlSink",
                        "writeBatchSize": 0,
                        "writeBatchTimeout": "00:00:00"
                    }
                },
                "inputs": [
                    {
                        "name": "AzureBlobAMI"
                    },
                    {
                        "name": "AzureSqlTableholdingAMILHH"
                    }
                ],
                "outputs": [
                    {
                        "name": "AzureSqlTableholdingAMI"
                    }
                ],
                "policy": {
                    "timeout": "00:05:00",
                    "concurrency": 1
                },
                "scheduler": {
                    "frequency": "Day",
                    "interval": 1
                },
                "name": "CopyAMIFileToSQL"
            }
        ],
        "start": "2016-12-02T00:00:00Z",
        "end": "2016-12-03T00:00:00Z",
        "isPaused": false,
         "pipelineMode": "Scheduled"
    }
}