Username,Password
TG9hZHVzZXIx,TG9hZHVzZXJAMQ==
TG9hZHVzZXIy,TG9hZHVzZXJAMg==
TG9hZHVzZXIz,TG9hZHVzZXJAMw==
TG9hZHVzZXI0,TG9hZHVzZXJANA==
TG9hZHVzZXI1,TG9hZHVzZXJANQ==
TG9hZHVzZXI2,TG9hZHVzZXJANg==
TG9hZHVzZXI3,TG9hZHVzZXJANw==
TG9hZHVzZXI4,TG9hZHVzZXJAOA==
TG9hZHVzZXI5,TG9hZHVzZXJAOQ==
TG9hZHVzZXIxMA==,TG9hZHVzZXJAMTA=
TG9hZHVzZXIxMQ==,TG9hZHVzZXJAMTE=
TG9hZHVzZXIxMg==,TG9hZHVzZXJAMTI=
TG9hZHVzZXIxMw==,TG9hZHVzZXJAMTM=
TG9hZHVzZXIxNA==,TG9hZHVzZXJAMTQ=
TG9hZHVzZXIxNQ==,TG9hZHVzZXJAMTU=
TG9hZHVzZXIxNg==,TG9hZHVzZXJAMTY=
TG9hZHVzZXIxNw==,TG9hZHVzZXJAMTc=
TG9hZHVzZXIxOA==,TG9hZHVzZXJAMTg=
TG9hZHVzZXIxOQ==,TG9hZHVzZXJAMTk=
TG9hZHVzZXIyMA==,TG9hZHVzZXJAMjA=
TG9hZHVzZXIyMQ==,TG9hZHVzZXJAMjE=
TG9hZHVzZXIyMg==,TG9hZHVzZXJAMjI=
TG9hZHVzZXIyMw==,TG9hZHVzZXJAMjM=
TG9hZHVzZXIyNA==,TG9hZHVzZXJAMjQ=
TG9hZHVzZXIyNQ==,TG9hZHVzZXJAMjU=
TG9hZHVzZXIx,TG9hZHVzZXJAMQ==
TG9hZHVzZXIy,TG9hZHVzZXJAMg==
TG9hZHVzZXIz,TG9hZHVzZXJAMw==
TG9hZHVzZXI0,TG9hZHVzZXJANA==
TG9hZHVzZXI1,TG9hZHVzZXJANQ==
TG9hZHVzZXI2,TG9hZHVzZXJANg==
TG9hZHVzZXI3,TG9hZHVzZXJANw==
TG9hZHVzZXI4,TG9hZHVzZXJAOA==
TG9hZHVzZXI5,TG9hZHVzZXJAOQ==
TG9hZHVzZXIxMA==,TG9hZHVzZXJAMTA=
TG9hZHVzZXIxMQ==,TG9hZHVzZXJAMTE=
TG9hZHVzZXIxMg==,TG9hZHVzZXJAMTI=
TG9hZHVzZXIxMw==,TG9hZHVzZXJAMTM=
TG9hZHVzZXIxNA==,TG9hZHVzZXJAMTQ=
TG9hZHVzZXIxNQ==,TG9hZHVzZXJAMTU=
TG9hZHVzZXIxNg==,TG9hZHVzZXJAMTY=
TG9hZHVzZXIxNw==,TG9hZHVzZXJAMTc=
TG9hZHVzZXIxOA==,TG9hZHVzZXJAMTg=
TG9hZHVzZXIxOQ==,TG9hZHVzZXJAMTk=
TG9hZHVzZXIyMA==,TG9hZHVzZXJAMjA=
TG9hZHVzZXIyMQ==,TG9hZHVzZXJAMjE=
TG9hZHVzZXIyMg==,TG9hZHVzZXJAMjI=
TG9hZHVzZXIyMw==,TG9hZHVzZXJAMjM=
TG9hZHVzZXIyNA==,TG9hZHVzZXJAMjQ=
TG9hZHVzZXIyNQ==,TG9hZHVzZXJAMjU=
TG9hZHVzZXIx,TG9hZHVzZXJAMQ==
TG9hZHVzZXIy,TG9hZHVzZXJAMg==
TG9hZHVzZXIz,TG9hZHVzZXJAMw==
TG9hZHVzZXI0,TG9hZHVzZXJANA==
TG9hZHVzZXI1,TG9hZHVzZXJANQ==
TG9hZHVzZXI2,TG9hZHVzZXJANg==
TG9hZHVzZXI3,TG9hZHVzZXJANw==
TG9hZHVzZXI4,TG9hZHVzZXJAOA==
TG9hZHVzZXI5,TG9hZHVzZXJAOQ==
TG9hZHVzZXIxMA==,TG9hZHVzZXJAMTA=
TG9hZHVzZXIxMQ==,TG9hZHVzZXJAMTE=
TG9hZHVzZXIxMg==,TG9hZHVzZXJAMTI=
TG9hZHVzZXIxMw==,TG9hZHVzZXJAMTM=
TG9hZHVzZXIxNA==,TG9hZHVzZXJAMTQ=
TG9hZHVzZXIxNQ==,TG9hZHVzZXJAMTU=
TG9hZHVzZXIxNg==,TG9hZHVzZXJAMTY=
TG9hZHVzZXIxNw==,TG9hZHVzZXJAMTc=
TG9hZHVzZXIxOA==,TG9hZHVzZXJAMTg=
TG9hZHVzZXIxOQ==,TG9hZHVzZXJAMTk=
TG9hZHVzZXIyMA==,TG9hZHVzZXJAMjA=
TG9hZHVzZXIyMQ==,TG9hZHVzZXJAMjE=
TG9hZHVzZXIyMg==,TG9hZHVzZXJAMjI=
TG9hZHVzZXIyMw==,TG9hZHVzZXJAMjM=
TG9hZHVzZXIyNA==,TG9hZHVzZXJAMjQ=
TG9hZHVzZXIyNQ==,TG9hZHVzZXJAMjU=
TG9hZHVzZXIx,TG9hZHVzZXJAMQ==
TG9hZHVzZXIy,TG9hZHVzZXJAMg==
TG9hZHVzZXIz,TG9hZHVzZXJAMw==
TG9hZHVzZXI0,TG9hZHVzZXJANA==
TG9hZHVzZXI1,TG9hZHVzZXJANQ==
TG9hZHVzZXI2,TG9hZHVzZXJANg==
TG9hZHVzZXI3,TG9hZHVzZXJANw==
TG9hZHVzZXI4,TG9hZHVzZXJAOA==
TG9hZHVzZXI5,TG9hZHVzZXJAOQ==
TG9hZHVzZXIxMA==,TG9hZHVzZXJAMTA=
TG9hZHVzZXIxMQ==,TG9hZHVzZXJAMTE=
TG9hZHVzZXIxMg==,TG9hZHVzZXJAMTI=
TG9hZHVzZXIxMw==,TG9hZHVzZXJAMTM=
TG9hZHVzZXIxNA==,TG9hZHVzZXJAMTQ=
TG9hZHVzZXIxNQ==,TG9hZHVzZXJAMTU=
TG9hZHVzZXIxNg==,TG9hZHVzZXJAMTY=
TG9hZHVzZXIxNw==,TG9hZHVzZXJAMTc=
TG9hZHVzZXIxOA==,TG9hZHVzZXJAMTg=
TG9hZHVzZXIxOQ==,TG9hZHVzZXJAMTk=
TG9hZHVzZXIyMA==,TG9hZHVzZXJAMjA=
TG9hZHVzZXIyMQ==,TG9hZHVzZXJAMjE=
TG9hZHVzZXIyMg==,TG9hZHVzZXJAMjI=
TG9hZHVzZXIyMw==,TG9hZHVzZXJAMjM=
TG9hZHVzZXIyNA==,TG9hZHVzZXJAMjQ=
TG9hZHVzZXIyNQ==,TG9hZHVzZXJAMjU=
TG9hZHVzZXIx,TG9hZHVzZXJAMQ==
TG9hZHVzZXIy,TG9hZHVzZXJAMg==
TG9hZHVzZXIz,TG9hZHVzZXJAMw==
TG9hZHVzZXI0,TG9hZHVzZXJANA==
TG9hZHVzZXI1,TG9hZHVzZXJANQ==
TG9hZHVzZXI2,TG9hZHVzZXJANg==
TG9hZHVzZXI3,TG9hZHVzZXJANw==
TG9hZHVzZXI4,TG9hZHVzZXJAOA==
TG9hZHVzZXI5,TG9hZHVzZXJAOQ==
TG9hZHVzZXIxMA==,TG9hZHVzZXJAMTA=
TG9hZHVzZXIxMQ==,TG9hZHVzZXJAMTE=
TG9hZHVzZXIxMg==,TG9hZHVzZXJAMTI=
TG9hZHVzZXIxMw==,TG9hZHVzZXJAMTM=
TG9hZHVzZXIxNA==,TG9hZHVzZXJAMTQ=
TG9hZHVzZXIxNQ==,TG9hZHVzZXJAMTU=
TG9hZHVzZXIxNg==,TG9hZHVzZXJAMTY=
TG9hZHVzZXIxNw==,TG9hZHVzZXJAMTc=
TG9hZHVzZXIxOA==,TG9hZHVzZXJAMTg=
TG9hZHVzZXIxOQ==,TG9hZHVzZXJAMTk=
TG9hZHVzZXIyMA==,TG9hZHVzZXJAMjA=
TG9hZHVzZXIyMQ==,TG9hZHVzZXJAMjE=
TG9hZHVzZXIyMg==,TG9hZHVzZXJAMjI=
TG9hZHVzZXIyMw==,TG9hZHVzZXJAMjM=
TG9hZHVzZXIyNA==,TG9hZHVzZXJAMjQ=
TG9hZHVzZXIyNQ==,TG9hZHVzZXJAMjU=
TG9hZHVzZXIx,TG9hZHVzZXJAMQ==
TG9hZHVzZXIy,TG9hZHVzZXJAMg==
TG9hZHVzZXIz,TG9hZHVzZXJAMw==
TG9hZHVzZXI0,TG9hZHVzZXJANA==
TG9hZHVzZXI1,TG9hZHVzZXJANQ==
TG9hZHVzZXI2,TG9hZHVzZXJANg==
TG9hZHVzZXI3,TG9hZHVzZXJANw==
TG9hZHVzZXI4,TG9hZHVzZXJAOA==
TG9hZHVzZXI5,TG9hZHVzZXJAOQ==
TG9hZHVzZXIxMA==,TG9hZHVzZXJAMTA=
TG9hZHVzZXIxMQ==,TG9hZHVzZXJAMTE=
TG9hZHVzZXIxMg==,TG9hZHVzZXJAMTI=
TG9hZHVzZXIxMw==,TG9hZHVzZXJAMTM=
TG9hZHVzZXIxNA==,TG9hZHVzZXJAMTQ=
TG9hZHVzZXIxNQ==,TG9hZHVzZXJAMTU=
TG9hZHVzZXIxNg==,TG9hZHVzZXJAMTY=
TG9hZHVzZXIxNw==,TG9hZHVzZXJAMTc=
TG9hZHVzZXIxOA==,TG9hZHVzZXJAMTg=
TG9hZHVzZXIxOQ==,TG9hZHVzZXJAMTk=
TG9hZHVzZXIyMA==,TG9hZHVzZXJAMjA=
TG9hZHVzZXIyMQ==,TG9hZHVzZXJAMjE=
TG9hZHVzZXIyMg==,TG9hZHVzZXJAMjI=
TG9hZHVzZXIyMw==,TG9hZHVzZXJAMjM=
TG9hZHVzZXIyNA==,TG9hZHVzZXJAMjQ=
TG9hZHVzZXIyNQ==,TG9hZHVzZXJAMjU=
TG9hZHVzZXIx,TG9hZHVzZXJAMQ==
TG9hZHVzZXIy,TG9hZHVzZXJAMg==
TG9hZHVzZXIz,TG9hZHVzZXJAMw==
TG9hZHVzZXI0,TG9hZHVzZXJANA==
TG9hZHVzZXI1,TG9hZHVzZXJANQ==
TG9hZHVzZXI2,TG9hZHVzZXJANg==
TG9hZHVzZXI3,TG9hZHVzZXJANw==
TG9hZHVzZXI4,TG9hZHVzZXJAOA==
TG9hZHVzZXI5,TG9hZHVzZXJAOQ==
TG9hZHVzZXIxMA==,TG9hZHVzZXJAMTA=
TG9hZHVzZXIxMQ==,TG9hZHVzZXJAMTE=
TG9hZHVzZXIxMg==,TG9hZHVzZXJAMTI=
TG9hZHVzZXIxMw==,TG9hZHVzZXJAMTM=
TG9hZHVzZXIxNA==,TG9hZHVzZXJAMTQ=
TG9hZHVzZXIxNQ==,TG9hZHVzZXJAMTU=
TG9hZHVzZXIxNg==,TG9hZHVzZXJAMTY=
TG9hZHVzZXIxNw==,TG9hZHVzZXJAMTc=
TG9hZHVzZXIxOA==,TG9hZHVzZXJAMTg=
TG9hZHVzZXIxOQ==,TG9hZHVzZXJAMTk=
TG9hZHVzZXIyMA==,TG9hZHVzZXJAMjA=
TG9hZHVzZXIyMQ==,TG9hZHVzZXJAMjE=
TG9hZHVzZXIyMg==,TG9hZHVzZXJAMjI=
TG9hZHVzZXIyMw==,TG9hZHVzZXJAMjM=
TG9hZHVzZXIyNA==,TG9hZHVzZXJAMjQ=
TG9hZHVzZXIyNQ==,TG9hZHVzZXJAMjU=
TG9hZHVzZXIx,TG9hZHVzZXJAMQ==
TG9hZHVzZXIy,TG9hZHVzZXJAMg==
TG9hZHVzZXIz,TG9hZHVzZXJAMw==
TG9hZHVzZXI0,TG9hZHVzZXJANA==
TG9hZHVzZXI1,TG9hZHVzZXJANQ==
TG9hZHVzZXI2,TG9hZHVzZXJANg==
TG9hZHVzZXI3,TG9hZHVzZXJANw==
TG9hZHVzZXI4,TG9hZHVzZXJAOA==
TG9hZHVzZXI5,TG9hZHVzZXJAOQ==
TG9hZHVzZXIxMA==,TG9hZHVzZXJAMTA=
TG9hZHVzZXIxMQ==,TG9hZHVzZXJAMTE=
TG9hZHVzZXIxMg==,TG9hZHVzZXJAMTI=
TG9hZHVzZXIxMw==,TG9hZHVzZXJAMTM=
TG9hZHVzZXIxNA==,TG9hZHVzZXJAMTQ=
TG9hZHVzZXIxNQ==,TG9hZHVzZXJAMTU=
TG9hZHVzZXIxNg==,TG9hZHVzZXJAMTY=
TG9hZHVzZXIxNw==,TG9hZHVzZXJAMTc=
TG9hZHVzZXIxOA==,TG9hZHVzZXJAMTg=
TG9hZHVzZXIxOQ==,TG9hZHVzZXJAMTk=
TG9hZHVzZXIyMA==,TG9hZHVzZXJAMjA=
TG9hZHVzZXIyMQ==,TG9hZHVzZXJAMjE=
TG9hZHVzZXIyMg==,TG9hZHVzZXJAMjI=
TG9hZHVzZXIyMw==,TG9hZHVzZXJAMjM=
TG9hZHVzZXIyNA==,TG9hZHVzZXJAMjQ=
TG9hZHVzZXIyNQ==,TG9hZHVzZXJAMjU=
TG9hZHVzZXIx,TG9hZHVzZXJAMQ==
TG9hZHVzZXIy,TG9hZHVzZXJAMg==
TG9hZHVzZXIz,TG9hZHVzZXJAMw==
TG9hZHVzZXI0,TG9hZHVzZXJANA==
TG9hZHVzZXI1,TG9hZHVzZXJANQ==
TG9hZHVzZXI2,TG9hZHVzZXJANg==
TG9hZHVzZXI3,TG9hZHVzZXJANw==
TG9hZHVzZXI4,TG9hZHVzZXJAOA==
TG9hZHVzZXI5,TG9hZHVzZXJAOQ==
TG9hZHVzZXIxMA==,TG9hZHVzZXJAMTA=
TG9hZHVzZXIxMQ==,TG9hZHVzZXJAMTE=
TG9hZHVzZXIxMg==,TG9hZHVzZXJAMTI=
TG9hZHVzZXIxMw==,TG9hZHVzZXJAMTM=
TG9hZHVzZXIxNA==,TG9hZHVzZXJAMTQ=
TG9hZHVzZXIxNQ==,TG9hZHVzZXJAMTU=
TG9hZHVzZXIxNg==,TG9hZHVzZXJAMTY=
TG9hZHVzZXIxNw==,TG9hZHVzZXJAMTc=
TG9hZHVzZXIxOA==,TG9hZHVzZXJAMTg=
TG9hZHVzZXIxOQ==,TG9hZHVzZXJAMTk=
TG9hZHVzZXIyMA==,TG9hZHVzZXJAMjA=
TG9hZHVzZXIyMQ==,TG9hZHVzZXJAMjE=
TG9hZHVzZXIyMg==,TG9hZHVzZXJAMjI=
TG9hZHVzZXIyMw==,TG9hZHVzZXJAMjM=
TG9hZHVzZXIyNA==,TG9hZHVzZXJAMjQ=
TG9hZHVzZXIyNQ==,TG9hZHVzZXJAMjU=
TG9hZHVzZXIx,TG9hZHVzZXJAMQ==
TG9hZHVzZXIy,TG9hZHVzZXJAMg==
TG9hZHVzZXIz,TG9hZHVzZXJAMw==
TG9hZHVzZXI0,TG9hZHVzZXJANA==
TG9hZHVzZXI1,TG9hZHVzZXJANQ==
TG9hZHVzZXI2,TG9hZHVzZXJANg==
TG9hZHVzZXI3,TG9hZHVzZXJANw==
TG9hZHVzZXI4,TG9hZHVzZXJAOA==
TG9hZHVzZXI5,TG9hZHVzZXJAOQ==
TG9hZHVzZXIxMA==,TG9hZHVzZXJAMTA=
TG9hZHVzZXIxMQ==,TG9hZHVzZXJAMTE=
TG9hZHVzZXIxMg==,TG9hZHVzZXJAMTI=
TG9hZHVzZXIxMw==,TG9hZHVzZXJAMTM=
TG9hZHVzZXIxNA==,TG9hZHVzZXJAMTQ=
TG9hZHVzZXIxNQ==,TG9hZHVzZXJAMTU=
TG9hZHVzZXIxNg==,TG9hZHVzZXJAMTY=
TG9hZHVzZXIxNw==,TG9hZHVzZXJAMTc=
TG9hZHVzZXIxOA==,TG9hZHVzZXJAMTg=
TG9hZHVzZXIxOQ==,TG9hZHVzZXJAMTk=
TG9hZHVzZXIyMA==,TG9hZHVzZXJAMjA=
TG9hZHVzZXIyMQ==,TG9hZHVzZXJAMjE=
TG9hZHVzZXIyMg==,TG9hZHVzZXJAMjI=
TG9hZHVzZXIyMw==,TG9hZHVzZXJAMjM=
TG9hZHVzZXIyNA==,TG9hZHVzZXJAMjQ=
TG9hZHVzZXIyNQ==,TG9hZHVzZXJAMjU=
TG9hZHVzZXIx,TG9hZHVzZXJAMQ==
TG9hZHVzZXIy,TG9hZHVzZXJAMg==
TG9hZHVzZXIz,TG9hZHVzZXJAMw==
TG9hZHVzZXI0,TG9hZHVzZXJANA==
TG9hZHVzZXI1,TG9hZHVzZXJANQ==
TG9hZHVzZXI2,TG9hZHVzZXJANg==
TG9hZHVzZXI3,TG9hZHVzZXJANw==
TG9hZHVzZXI4,TG9hZHVzZXJAOA==
TG9hZHVzZXI5,TG9hZHVzZXJAOQ==
TG9hZHVzZXIxMA==,TG9hZHVzZXJAMTA=
TG9hZHVzZXIxMQ==,TG9hZHVzZXJAMTE=
TG9hZHVzZXIxMg==,TG9hZHVzZXJAMTI=
TG9hZHVzZXIxMw==,TG9hZHVzZXJAMTM=
TG9hZHVzZXIxNA==,TG9hZHVzZXJAMTQ=
TG9hZHVzZXIxNQ==,TG9hZHVzZXJAMTU=
TG9hZHVzZXIxNg==,TG9hZHVzZXJAMTY=
TG9hZHVzZXIxNw==,TG9hZHVzZXJAMTc=
TG9hZHVzZXIxOA==,TG9hZHVzZXJAMTg=
TG9hZHVzZXIxOQ==,TG9hZHVzZXJAMTk=
TG9hZHVzZXIyMA==,TG9hZHVzZXJAMjA=
TG9hZHVzZXIyMQ==,TG9hZHVzZXJAMjE=
TG9hZHVzZXIyMg==,TG9hZHVzZXJAMjI=
TG9hZHVzZXIyMw==,TG9hZHVzZXJAMjM=
TG9hZHVzZXIyNA==,TG9hZHVzZXJAMjQ=
TG9hZHVzZXIyNQ==,TG9hZHVzZXJAMjU=
TG9hZHVzZXIx,TG9hZHVzZXJAMQ==
TG9hZHVzZXIy,TG9hZHVzZXJAMg==
TG9hZHVzZXIz,TG9hZHVzZXJAMw==
TG9hZHVzZXI0,TG9hZHVzZXJANA==
TG9hZHVzZXI1,TG9hZHVzZXJANQ==
TG9hZHVzZXI2,TG9hZHVzZXJANg==
TG9hZHVzZXI3,TG9hZHVzZXJANw==
TG9hZHVzZXI4,TG9hZHVzZXJAOA==
TG9hZHVzZXI5,TG9hZHVzZXJAOQ==
TG9hZHVzZXIxMA==,TG9hZHVzZXJAMTA=
TG9hZHVzZXIxMQ==,TG9hZHVzZXJAMTE=
TG9hZHVzZXIxMg==,TG9hZHVzZXJAMTI=
TG9hZHVzZXIxMw==,TG9hZHVzZXJAMTM=
TG9hZHVzZXIxNA==,TG9hZHVzZXJAMTQ=
TG9hZHVzZXIxNQ==,TG9hZHVzZXJAMTU=
TG9hZHVzZXIxNg==,TG9hZHVzZXJAMTY=
TG9hZHVzZXIxNw==,TG9hZHVzZXJAMTc=
TG9hZHVzZXIxOA==,TG9hZHVzZXJAMTg=
TG9hZHVzZXIxOQ==,TG9hZHVzZXJAMTk=
TG9hZHVzZXIyMA==,TG9hZHVzZXJAMjA=
TG9hZHVzZXIyMQ==,TG9hZHVzZXJAMjE=
TG9hZHVzZXIyMg==,TG9hZHVzZXJAMjI=
TG9hZHVzZXIyMw==,TG9hZHVzZXJAMjM=
TG9hZHVzZXIyNA==,TG9hZHVzZXJAMjQ=
TG9hZHVzZXIyNQ==,TG9hZHVzZXJAMjU=
TG9hZHVzZXIx,TG9hZHVzZXJAMQ==
TG9hZHVzZXIy,TG9hZHVzZXJAMg==
TG9hZHVzZXIz,TG9hZHVzZXJAMw==
TG9hZHVzZXI0,TG9hZHVzZXJANA==
TG9hZHVzZXI1,TG9hZHVzZXJANQ==
TG9hZHVzZXI2,TG9hZHVzZXJANg==
TG9hZHVzZXI3,TG9hZHVzZXJANw==
TG9hZHVzZXI4,TG9hZHVzZXJAOA==
TG9hZHVzZXI5,TG9hZHVzZXJAOQ==
TG9hZHVzZXIxMA==,TG9hZHVzZXJAMTA=
TG9hZHVzZXIxMQ==,TG9hZHVzZXJAMTE=
TG9hZHVzZXIxMg==,TG9hZHVzZXJAMTI=
TG9hZHVzZXIxMw==,TG9hZHVzZXJAMTM=
TG9hZHVzZXIxNA==,TG9hZHVzZXJAMTQ=
TG9hZHVzZXIxNQ==,TG9hZHVzZXJAMTU=
TG9hZHVzZXIxNg==,TG9hZHVzZXJAMTY=
TG9hZHVzZXIxNw==,TG9hZHVzZXJAMTc=
TG9hZHVzZXIxOA==,TG9hZHVzZXJAMTg=
TG9hZHVzZXIxOQ==,TG9hZHVzZXJAMTk=
TG9hZHVzZXIyMA==,TG9hZHVzZXJAMjA=
TG9hZHVzZXIyMQ==,TG9hZHVzZXJAMjE=
TG9hZHVzZXIyMg==,TG9hZHVzZXJAMjI=
TG9hZHVzZXIyMw==,TG9hZHVzZXJAMjM=
TG9hZHVzZXIyNA==,TG9hZHVzZXJAMjQ=
TG9hZHVzZXIyNQ==,TG9hZHVzZXJAMjU=
TG9hZHVzZXIx,TG9hZHVzZXJAMQ==
TG9hZHVzZXIy,TG9hZHVzZXJAMg==
TG9hZHVzZXIz,TG9hZHVzZXJAMw==
TG9hZHVzZXI0,TG9hZHVzZXJANA==
TG9hZHVzZXI1,TG9hZHVzZXJANQ==
TG9hZHVzZXI2,TG9hZHVzZXJANg==
TG9hZHVzZXI3,TG9hZHVzZXJANw==
TG9hZHVzZXI4,TG9hZHVzZXJAOA==
TG9hZHVzZXI5,TG9hZHVzZXJAOQ==
TG9hZHVzZXIxMA==,TG9hZHVzZXJAMTA=
TG9hZHVzZXIxMQ==,TG9hZHVzZXJAMTE=
TG9hZHVzZXIxMg==,TG9hZHVzZXJAMTI=
TG9hZHVzZXIxMw==,TG9hZHVzZXJAMTM=
TG9hZHVzZXIxNA==,TG9hZHVzZXJAMTQ=
TG9hZHVzZXIxNQ==,TG9hZHVzZXJAMTU=
TG9hZHVzZXIxNg==,TG9hZHVzZXJAMTY=
TG9hZHVzZXIxNw==,TG9hZHVzZXJAMTc=
TG9hZHVzZXIxOA==,TG9hZHVzZXJAMTg=
TG9hZHVzZXIxOQ==,TG9hZHVzZXJAMTk=
TG9hZHVzZXIyMA==,TG9hZHVzZXJAMjA=
TG9hZHVzZXIyMQ==,TG9hZHVzZXJAMjE=
TG9hZHVzZXIyMg==,TG9hZHVzZXJAMjI=
TG9hZHVzZXIyMw==,TG9hZHVzZXJAMjM=
TG9hZHVzZXIyNA==,TG9hZHVzZXJAMjQ=
TG9hZHVzZXIyNQ==,TG9hZHVzZXJAMjU=
TG9hZHVzZXIx,TG9hZHVzZXJAMQ==
TG9hZHVzZXIy,TG9hZHVzZXJAMg==
TG9hZHVzZXIz,TG9hZHVzZXJAMw==
TG9hZHVzZXI0,TG9hZHVzZXJANA==
TG9hZHVzZXI1,TG9hZHVzZXJANQ==
TG9hZHVzZXI2,TG9hZHVzZXJANg==
TG9hZHVzZXI3,TG9hZHVzZXJANw==
TG9hZHVzZXI4,TG9hZHVzZXJAOA==
TG9hZHVzZXI5,TG9hZHVzZXJAOQ==
TG9hZHVzZXIxMA==,TG9hZHVzZXJAMTA=
TG9hZHVzZXIxMQ==,TG9hZHVzZXJAMTE=
TG9hZHVzZXIxMg==,TG9hZHVzZXJAMTI=
TG9hZHVzZXIxMw==,TG9hZHVzZXJAMTM=
TG9hZHVzZXIxNA==,TG9hZHVzZXJAMTQ=
TG9hZHVzZXIxNQ==,TG9hZHVzZXJAMTU=
TG9hZHVzZXIxNg==,TG9hZHVzZXJAMTY=
TG9hZHVzZXIxNw==,TG9hZHVzZXJAMTc=
TG9hZHVzZXIxOA==,TG9hZHVzZXJAMTg=
TG9hZHVzZXIxOQ==,TG9hZHVzZXJAMTk=
TG9hZHVzZXIyMA==,TG9hZHVzZXJAMjA=
TG9hZHVzZXIyMQ==,TG9hZHVzZXJAMjE=
TG9hZHVzZXIyMg==,TG9hZHVzZXJAMjI=
TG9hZHVzZXIyMw==,TG9hZHVzZXJAMjM=
TG9hZHVzZXIyNA==,TG9hZHVzZXJAMjQ=
TG9hZHVzZXIyNQ==,TG9hZHVzZXJAMjU=
TG9hZHVzZXIx,TG9hZHVzZXJAMQ==
TG9hZHVzZXIy,TG9hZHVzZXJAMg==
TG9hZHVzZXIz,TG9hZHVzZXJAMw==
TG9hZHVzZXI0,TG9hZHVzZXJANA==
TG9hZHVzZXI1,TG9hZHVzZXJANQ==
TG9hZHVzZXI2,TG9hZHVzZXJANg==
TG9hZHVzZXI3,TG9hZHVzZXJANw==
TG9hZHVzZXI4,TG9hZHVzZXJAOA==
TG9hZHVzZXI5,TG9hZHVzZXJAOQ==
TG9hZHVzZXIxMA==,TG9hZHVzZXJAMTA=
TG9hZHVzZXIxMQ==,TG9hZHVzZXJAMTE=
TG9hZHVzZXIxMg==,TG9hZHVzZXJAMTI=
TG9hZHVzZXIxMw==,TG9hZHVzZXJAMTM=
TG9hZHVzZXIxNA==,TG9hZHVzZXJAMTQ=
TG9hZHVzZXIxNQ==,TG9hZHVzZXJAMTU=
TG9hZHVzZXIxNg==,TG9hZHVzZXJAMTY=
TG9hZHVzZXIxNw==,TG9hZHVzZXJAMTc=
TG9hZHVzZXIxOA==,TG9hZHVzZXJAMTg=
TG9hZHVzZXIxOQ==,TG9hZHVzZXJAMTk=
TG9hZHVzZXIyMA==,TG9hZHVzZXJAMjA=
TG9hZHVzZXIyMQ==,TG9hZHVzZXJAMjE=
TG9hZHVzZXIyMg==,TG9hZHVzZXJAMjI=
TG9hZHVzZXIyMw==,TG9hZHVzZXJAMjM=
TG9hZHVzZXIyNA==,TG9hZHVzZXJAMjQ=
TG9hZHVzZXIyNQ==,TG9hZHVzZXJAMjU=
TG9hZHVzZXIx,TG9hZHVzZXJAMQ==
TG9hZHVzZXIy,TG9hZHVzZXJAMg==
TG9hZHVzZXIz,TG9hZHVzZXJAMw==
TG9hZHVzZXI0,TG9hZHVzZXJANA==
TG9hZHVzZXI1,TG9hZHVzZXJANQ==
TG9hZHVzZXI2,TG9hZHVzZXJANg==
TG9hZHVzZXI3,TG9hZHVzZXJANw==
TG9hZHVzZXI4,TG9hZHVzZXJAOA==
TG9hZHVzZXI5,TG9hZHVzZXJAOQ==
TG9hZHVzZXIxMA==,TG9hZHVzZXJAMTA=
TG9hZHVzZXIxMQ==,TG9hZHVzZXJAMTE=
TG9hZHVzZXIxMg==,TG9hZHVzZXJAMTI=
TG9hZHVzZXIxMw==,TG9hZHVzZXJAMTM=
TG9hZHVzZXIxNA==,TG9hZHVzZXJAMTQ=
TG9hZHVzZXIxNQ==,TG9hZHVzZXJAMTU=
TG9hZHVzZXIxNg==,TG9hZHVzZXJAMTY=
TG9hZHVzZXIxNw==,TG9hZHVzZXJAMTc=
TG9hZHVzZXIxOA==,TG9hZHVzZXJAMTg=
TG9hZHVzZXIxOQ==,TG9hZHVzZXJAMTk=
TG9hZHVzZXIyMA==,TG9hZHVzZXJAMjA=
TG9hZHVzZXIyMQ==,TG9hZHVzZXJAMjE=
TG9hZHVzZXIyMg==,TG9hZHVzZXJAMjI=
TG9hZHVzZXIyMw==,TG9hZHVzZXJAMjM=
TG9hZHVzZXIyNA==,TG9hZHVzZXJAMjQ=
TG9hZHVzZXIyNQ==,TG9hZHVzZXJAMjU=
TG9hZHVzZXIx,TG9hZHVzZXJAMQ==
TG9hZHVzZXIy,TG9hZHVzZXJAMg==
TG9hZHVzZXIz,TG9hZHVzZXJAMw==
TG9hZHVzZXI0,TG9hZHVzZXJANA==
TG9hZHVzZXI1,TG9hZHVzZXJANQ==
TG9hZHVzZXI2,TG9hZHVzZXJANg==
TG9hZHVzZXI3,TG9hZHVzZXJANw==
TG9hZHVzZXI4,TG9hZHVzZXJAOA==
TG9hZHVzZXI5,TG9hZHVzZXJAOQ==
TG9hZHVzZXIxMA==,TG9hZHVzZXJAMTA=
TG9hZHVzZXIxMQ==,TG9hZHVzZXJAMTE=
TG9hZHVzZXIxMg==,TG9hZHVzZXJAMTI=
TG9hZHVzZXIxMw==,TG9hZHVzZXJAMTM=
TG9hZHVzZXIxNA==,TG9hZHVzZXJAMTQ=
TG9hZHVzZXIxNQ==,TG9hZHVzZXJAMTU=
TG9hZHVzZXIxNg==,TG9hZHVzZXJAMTY=
TG9hZHVzZXIxNw==,TG9hZHVzZXJAMTc=
TG9hZHVzZXIxOA==,TG9hZHVzZXJAMTg=
TG9hZHVzZXIxOQ==,TG9hZHVzZXJAMTk=
TG9hZHVzZXIyMA==,TG9hZHVzZXJAMjA=
TG9hZHVzZXIyMQ==,TG9hZHVzZXJAMjE=
TG9hZHVzZXIyMg==,TG9hZHVzZXJAMjI=
TG9hZHVzZXIyMw==,TG9hZHVzZXJAMjM=
TG9hZHVzZXIyNA==,TG9hZHVzZXJAMjQ=
TG9hZHVzZXIyNQ==,TG9hZHVzZXJAMjU=
TG9hZHVzZXIx,TG9hZHVzZXJAMQ==
TG9hZHVzZXIy,TG9hZHVzZXJAMg==
TG9hZHVzZXIz,TG9hZHVzZXJAMw==
TG9hZHVzZXI0,TG9hZHVzZXJANA==
TG9hZHVzZXI1,TG9hZHVzZXJANQ==
TG9hZHVzZXI2,TG9hZHVzZXJANg==
TG9hZHVzZXI3,TG9hZHVzZXJANw==
TG9hZHVzZXI4,TG9hZHVzZXJAOA==
TG9hZHVzZXI5,TG9hZHVzZXJAOQ==
TG9hZHVzZXIxMA==,TG9hZHVzZXJAMTA=
TG9hZHVzZXIxMQ==,TG9hZHVzZXJAMTE=
TG9hZHVzZXIxMg==,TG9hZHVzZXJAMTI=
TG9hZHVzZXIxMw==,TG9hZHVzZXJAMTM=
TG9hZHVzZXIxNA==,TG9hZHVzZXJAMTQ=
TG9hZHVzZXIxNQ==,TG9hZHVzZXJAMTU=
TG9hZHVzZXIxNg==,TG9hZHVzZXJAMTY=
TG9hZHVzZXIxNw==,TG9hZHVzZXJAMTc=
TG9hZHVzZXIxOA==,TG9hZHVzZXJAMTg=
TG9hZHVzZXIxOQ==,TG9hZHVzZXJAMTk=
TG9hZHVzZXIyMA==,TG9hZHVzZXJAMjA=
TG9hZHVzZXIyMQ==,TG9hZHVzZXJAMjE=
TG9hZHVzZXIyMg==,TG9hZHVzZXJAMjI=
TG9hZHVzZXIyMw==,TG9hZHVzZXJAMjM=
TG9hZHVzZXIyNA==,TG9hZHVzZXJAMjQ=
TG9hZHVzZXIyNQ==,TG9hZHVzZXJAMjU=
TG9hZHVzZXIx,TG9hZHVzZXJAMQ==
TG9hZHVzZXIy,TG9hZHVzZXJAMg==
TG9hZHVzZXIz,TG9hZHVzZXJAMw==
TG9hZHVzZXI0,TG9hZHVzZXJANA==
TG9hZHVzZXI1,TG9hZHVzZXJANQ==
TG9hZHVzZXI2,TG9hZHVzZXJANg==
TG9hZHVzZXI3,TG9hZHVzZXJANw==
TG9hZHVzZXI4,TG9hZHVzZXJAOA==
TG9hZHVzZXI5,TG9hZHVzZXJAOQ==
TG9hZHVzZXIxMA==,TG9hZHVzZXJAMTA=
TG9hZHVzZXIxMQ==,TG9hZHVzZXJAMTE=
TG9hZHVzZXIxMg==,TG9hZHVzZXJAMTI=
TG9hZHVzZXIxMw==,TG9hZHVzZXJAMTM=
TG9hZHVzZXIxNA==,TG9hZHVzZXJAMTQ=
TG9hZHVzZXIxNQ==,TG9hZHVzZXJAMTU=
TG9hZHVzZXIxNg==,TG9hZHVzZXJAMTY=
TG9hZHVzZXIxNw==,TG9hZHVzZXJAMTc=
TG9hZHVzZXIxOA==,TG9hZHVzZXJAMTg=
TG9hZHVzZXIxOQ==,TG9hZHVzZXJAMTk=
TG9hZHVzZXIyMA==,TG9hZHVzZXJAMjA=
TG9hZHVzZXIyMQ==,TG9hZHVzZXJAMjE=
TG9hZHVzZXIyMg==,TG9hZHVzZXJAMjI=
TG9hZHVzZXIyMw==,TG9hZHVzZXJAMjM=
TG9hZHVzZXIyNA==,TG9hZHVzZXJAMjQ=
TG9hZHVzZXIyNQ==,TG9hZHVzZXJAMjU=
TG9hZHVzZXIx,TG9hZHVzZXJAMQ==
TG9hZHVzZXIy,TG9hZHVzZXJAMg==
TG9hZHVzZXIz,TG9hZHVzZXJAMw==
TG9hZHVzZXI0,TG9hZHVzZXJANA==
TG9hZHVzZXI1,TG9hZHVzZXJANQ==
TG9hZHVzZXI2,TG9hZHVzZXJANg==
TG9hZHVzZXI3,TG9hZHVzZXJANw==
TG9hZHVzZXI4,TG9hZHVzZXJAOA==
TG9hZHVzZXI5,TG9hZHVzZXJAOQ==
TG9hZHVzZXIxMA==,TG9hZHVzZXJAMTA=
TG9hZHVzZXIxMQ==,TG9hZHVzZXJAMTE=
TG9hZHVzZXIxMg==,TG9hZHVzZXJAMTI=
TG9hZHVzZXIxMw==,TG9hZHVzZXJAMTM=
TG9hZHVzZXIxNA==,TG9hZHVzZXJAMTQ=
TG9hZHVzZXIxNQ==,TG9hZHVzZXJAMTU=
TG9hZHVzZXIxNg==,TG9hZHVzZXJAMTY=
TG9hZHVzZXIxNw==,TG9hZHVzZXJAMTc=
TG9hZHVzZXIxOA==,TG9hZHVzZXJAMTg=
TG9hZHVzZXIxOQ==,TG9hZHVzZXJAMTk=
TG9hZHVzZXIyMA==,TG9hZHVzZXJAMjA=
TG9hZHVzZXIyMQ==,TG9hZHVzZXJAMjE=
TG9hZHVzZXIyMg==,TG9hZHVzZXJAMjI=
TG9hZHVzZXIyMw==,TG9hZHVzZXJAMjM=
TG9hZHVzZXIyNA==,TG9hZHVzZXJAMjQ=
TG9hZHVzZXIyNQ==,TG9hZHVzZXJAMjU=
TG9hZHVzZXIx,TG9hZHVzZXJAMQ==
TG9hZHVzZXIy,TG9hZHVzZXJAMg==
TG9hZHVzZXIz,TG9hZHVzZXJAMw==
TG9hZHVzZXI0,TG9hZHVzZXJANA==
TG9hZHVzZXI1,TG9hZHVzZXJANQ==
TG9hZHVzZXI2,TG9hZHVzZXJANg==
TG9hZHVzZXI3,TG9hZHVzZXJANw==
TG9hZHVzZXI4,TG9hZHVzZXJAOA==
TG9hZHVzZXI5,TG9hZHVzZXJAOQ==
TG9hZHVzZXIxMA==,TG9hZHVzZXJAMTA=
TG9hZHVzZXIxMQ==,TG9hZHVzZXJAMTE=
TG9hZHVzZXIxMg==,TG9hZHVzZXJAMTI=
TG9hZHVzZXIxMw==,TG9hZHVzZXJAMTM=
TG9hZHVzZXIxNA==,TG9hZHVzZXJAMTQ=
TG9hZHVzZXIxNQ==,TG9hZHVzZXJAMTU=
TG9hZHVzZXIxNg==,TG9hZHVzZXJAMTY=
TG9hZHVzZXIxNw==,TG9hZHVzZXJAMTc=
TG9hZHVzZXIxOA==,TG9hZHVzZXJAMTg=
TG9hZHVzZXIxOQ==,TG9hZHVzZXJAMTk=
TG9hZHVzZXIyMA==,TG9hZHVzZXJAMjA=
TG9hZHVzZXIyMQ==,TG9hZHVzZXJAMjE=
TG9hZHVzZXIyMg==,TG9hZHVzZXJAMjI=
TG9hZHVzZXIyMw==,TG9hZHVzZXJAMjM=
TG9hZHVzZXIyNA==,TG9hZHVzZXJAMjQ=
TG9hZHVzZXIyNQ==,TG9hZHVzZXJAMjU=
TG9hZHVzZXIx,TG9hZHVzZXJAMQ==
TG9hZHVzZXIy,TG9hZHVzZXJAMg==
TG9hZHVzZXIz,TG9hZHVzZXJAMw==
TG9hZHVzZXI0,TG9hZHVzZXJANA==
TG9hZHVzZXI1,TG9hZHVzZXJANQ==
TG9hZHVzZXI2,TG9hZHVzZXJANg==
TG9hZHVzZXI3,TG9hZHVzZXJANw==
TG9hZHVzZXI4,TG9hZHVzZXJAOA==
TG9hZHVzZXI5,TG9hZHVzZXJAOQ==
TG9hZHVzZXIxMA==,TG9hZHVzZXJAMTA=
TG9hZHVzZXIxMQ==,TG9hZHVzZXJAMTE=
TG9hZHVzZXIxMg==,TG9hZHVzZXJAMTI=
TG9hZHVzZXIxMw==,TG9hZHVzZXJAMTM=
TG9hZHVzZXIxNA==,TG9hZHVzZXJAMTQ=
TG9hZHVzZXIxNQ==,TG9hZHVzZXJAMTU=
TG9hZHVzZXIxNg==,TG9hZHVzZXJAMTY=
TG9hZHVzZXIxNw==,TG9hZHVzZXJAMTc=
TG9hZHVzZXIxOA==,TG9hZHVzZXJAMTg=
TG9hZHVzZXIxOQ==,TG9hZHVzZXJAMTk=
TG9hZHVzZXIyMA==,TG9hZHVzZXJAMjA=
TG9hZHVzZXIyMQ==,TG9hZHVzZXJAMjE=
TG9hZHVzZXIyMg==,TG9hZHVzZXJAMjI=
TG9hZHVzZXIyMw==,TG9hZHVzZXJAMjM=
TG9hZHVzZXIyNA==,TG9hZHVzZXJAMjQ=
TG9hZHVzZXIyNQ==,TG9hZHVzZXJAMjU=
TG9hZHVzZXIx,TG9hZHVzZXJAMQ==
TG9hZHVzZXIy,TG9hZHVzZXJAMg==
TG9hZHVzZXIz,TG9hZHVzZXJAMw==
TG9hZHVzZXI0,TG9hZHVzZXJANA==
TG9hZHVzZXI1,TG9hZHVzZXJANQ==
TG9hZHVzZXI2,TG9hZHVzZXJANg==
TG9hZHVzZXI3,TG9hZHVzZXJANw==
TG9hZHVzZXI4,TG9hZHVzZXJAOA==
TG9hZHVzZXI5,TG9hZHVzZXJAOQ==
TG9hZHVzZXIxMA==,TG9hZHVzZXJAMTA=
TG9hZHVzZXIxMQ==,TG9hZHVzZXJAMTE=
TG9hZHVzZXIxMg==,TG9hZHVzZXJAMTI=
TG9hZHVzZXIxMw==,TG9hZHVzZXJAMTM=
TG9hZHVzZXIxNA==,TG9hZHVzZXJAMTQ=
TG9hZHVzZXIxNQ==,TG9hZHVzZXJAMTU=
TG9hZHVzZXIxNg==,TG9hZHVzZXJAMTY=
TG9hZHVzZXIxNw==,TG9hZHVzZXJAMTc=
TG9hZHVzZXIxOA==,TG9hZHVzZXJAMTg=
TG9hZHVzZXIxOQ==,TG9hZHVzZXJAMTk=
TG9hZHVzZXIyMA==,TG9hZHVzZXJAMjA=
TG9hZHVzZXIyMQ==,TG9hZHVzZXJAMjE=
TG9hZHVzZXIyMg==,TG9hZHVzZXJAMjI=
TG9hZHVzZXIyMw==,TG9hZHVzZXJAMjM=
TG9hZHVzZXIyNA==,TG9hZHVzZXJAMjQ=
TG9hZHVzZXIyNQ==,TG9hZHVzZXJAMjU=
TG9hZHVzZXIx,TG9hZHVzZXJAMQ==
TG9hZHVzZXIy,TG9hZHVzZXJAMg==
TG9hZHVzZXIz,TG9hZHVzZXJAMw==
TG9hZHVzZXI0,TG9hZHVzZXJANA==
TG9hZHVzZXI1,TG9hZHVzZXJANQ==
TG9hZHVzZXI2,TG9hZHVzZXJANg==
TG9hZHVzZXI3,TG9hZHVzZXJANw==
TG9hZHVzZXI4,TG9hZHVzZXJAOA==
TG9hZHVzZXI5,TG9hZHVzZXJAOQ==
TG9hZHVzZXIxMA==,TG9hZHVzZXJAMTA=
TG9hZHVzZXIxMQ==,TG9hZHVzZXJAMTE=
TG9hZHVzZXIxMg==,TG9hZHVzZXJAMTI=
TG9hZHVzZXIxMw==,TG9hZHVzZXJAMTM=
TG9hZHVzZXIxNA==,TG9hZHVzZXJAMTQ=
TG9hZHVzZXIxNQ==,TG9hZHVzZXJAMTU=
TG9hZHVzZXIxNg==,TG9hZHVzZXJAMTY=
TG9hZHVzZXIxNw==,TG9hZHVzZXJAMTc=
TG9hZHVzZXIxOA==,TG9hZHVzZXJAMTg=
TG9hZHVzZXIxOQ==,TG9hZHVzZXJAMTk=
TG9hZHVzZXIyMA==,TG9hZHVzZXJAMjA=
TG9hZHVzZXIyMQ==,TG9hZHVzZXJAMjE=
TG9hZHVzZXIyMg==,TG9hZHVzZXJAMjI=
TG9hZHVzZXIyMw==,TG9hZHVzZXJAMjM=
TG9hZHVzZXIyNA==,TG9hZHVzZXJAMjQ=
TG9hZHVzZXIyNQ==,TG9hZHVzZXJAMjU=
